20150410
SE13_1,40.04
SE13_2,81.41
SE13_3,75.52
SE13_4,85.88
SE13_5,70.11
SE13_6,13.72
SE13_7,59.23
SE13_8,55.32
SE13_9,52.57
SE13_10,90.34
SE13_11,48.15
SE13_12,33.07
SE13_13,28.62
SE13_14,14.94
SE13_15,85.95
SE13_16,68.58
SE13_17,93.98
SE13_18,14.27
SE13_19,7.73
SE13_20,89.92
SE13_21,26.2
SE13_22,85.62
SE13_23,21.13
SE13_24,67.5
SE13_25,96.08
SE13_26,11.06
SE13_27,17.71
SE13_28,76.37
SE13_29,19.05
SE13_30,44.08
SE13_31,67.54
SE13_32,31.43
SE13_33,67.59
SE13_34,39.62
SE13_35,46.01
SE13_36,26.76
SE13_37,74.71
SE13_38,76.52
SE13_39,118.25
SE13_40,71.96
SE13_41,49.2
SE13_42,23.6
SE13_43,40.69
SE13_44,32.83
SE13_45,24.88
SE13_46,27.2
SE13_47,51.0
SE13_48,1.12
SE13_49,77.94
SE13_50,23.32
SE13_51,26.0
SE13_52,28.21
SE13_53,49.04
SE13_54,33.49
SE13_55,57.75
SE13_56,56.78
SE13_57,73.94
SE13_58,16.28
SE13_59,28.61
SE13_60,10.53
SE13_61,90.36
SE13_62,2.27
SE13_63,53.47
SE13_64,49.63
SE13_65,85.9
SE13_66,94.79
SE13_67,1.88
SE13_68,56.93
SE13_69,111.93
SE13_70,11.35
SE13_71,82.57
SE13_72,98.11
SE13_73,81.57
SE13_74,43.52
SE13_75,43.01
SE13_76,75.0
SE13_77,20.67
SE13_78,47.83
SE13_79,81.43
SE13_80,97.5
SE13_81,2.46
SE13_82,44.92
SE13_83,66.63
SE13_84,89.88
SE13_85,66.53
SE13_86,19.42
SE13_87,6.67
SE13_88,81.5
SE13_89,92.87
SE13_90,6.11
SE13_91,98.55
SE13_92,10.05
SE13_93,67.91
SE13_94,23.29
SE13_95,102.43
SE13_96,70.58
SE13_97,34.62
SE13_98,16.64
SE13_99,87.44
SE13_100,51.55
SE13_101,47.16
SE13_102,49.28
SE13_103,7.42
SE13_104,18.7
SE13_105,13.76
SE13_106,21.99
SE13_107,46.81
SE13_108,41.75
SE13_109,6.85
SE13_110,88.58
SE13_111,39.35
SE13_112,89.37
SE13_113,90.39
SE13_114,68.01
SE13_115,22.84
SE13_116,17.02
SE13_117,98.53
SE13_118,26.36
SE13_119,86.75
SE13_120,59.06
SE13_121,50.83
SE13_122,33.85
SE13_123,34.8
SE13_124,45.84
SE13_125,27.78
SE13_126,26.09
SE13_127,18.97
SE13_128,73.25
SE13_129,53.69
SE13_130,20.64
SE13_131,46.81
SE13_132,24.43
SE13_133,44.57
SE13_134,1.32
SE13_135,57.59
SE13_136,58.94
SE13_137,2.21
SE13_138,57.87
SE13_139,59.95
SE13_140,90.54
SE13_141,55.71
SE13_142,76.23
SE13_143,40.04
SE13_144,74.4
SE13_145,49.34
SE13_146,43.11
SE13_147,40.79
SE13_148,84.67
SE13_149,13.4
SE13_150,50.19
SE13_151,66.29
SE13_152,2.61
SE13_153,39.06
SE13_154,58.24
SE13_155,18.8
SE13_156,50.31
SE13_157,46.74
SE13_158,5.09
SE13_159,86.86
SE13_160,64.76
SE13_161,78.8
SE13_162,58.0
SE13_163,84.93
SE13_164,6.58
SE13_165,92.27
SE13_166,25.15
SE13_167,4.39
SE13_168,65.86
SE13_169,43.32
SE13_170,87.82
SE13_171,18.16
SE13_172,16.94
SE13_173,86.61
SE13_174,67.75
SE13_175,77.88
SE13_176,53.12
SE13_177,100.05
SE13_178,98.13
SE13_179,3.97
SE13_180,76.06
SE13_181,25.8
SE13_182,73.36
SE13_183,3.39
SE13_184,73.33
SE13_185,59.81
SE13_186,62.13
SE13_187,46.71
SE13_188,73.11
SE13_189,24.4
SE13_190,80.4
SE13_191,2.66
SE13_192,106.32
SE13_193,3.75
SE13_194,6.49
SE13_195,52.18
SE13_196,38.69
SE13_197,37.24
SE13_198,101.89
SE13_199,47.28
SE13_200,27.73
SE13_201,63.02
SE13_202,44.56
SE13_203,50.24
SE13_204,49.96
SE13_205,4.58
SE13_206,51.41
SE13_207,58.29
SE13_208,7.55
SE13_209,28.7
SE13_210,56.96
SE13_211,44.77
SE13_212,21.03
SE13_213,42.44
SE13_214,22.81
SE13_215,102.19
SE13_216,91.47
SE13_217,24.83
SE13_218,64.36
SE13_219,24.41
SE13_220,77.65
SE13_221,9.77
SE13_222,88.55
SE13_223,84.97
SE13_224,10.48
SE13_225,99.55
SE13_226,28.21
SE13_227,24.87
SE13_228,61.55
SE13_229,3.68
SE13_230,43.26
SE13_231,94.39
SE13_232,42.42
SE13_233,33.53
SE13_234,77.08
SE13_235,89.79
SE13_236,11.32
SE13_237,33.61
SE13_238,51.14
SE13_239,97.89
SE13_240,18.39
SE13_241,4.82
SE13_242,37.37
SE13_243,77.01
SE13_244,77.8
SE13_245,22.57
SE13_246,1.28
SE13_247,79.11
SE13_248,21.51
SE13_249,49.21
SE13_250,54.86
SE13_251,7.92
SE13_252,58.52
SE13_253,72.77
SE13_254,34.18
SE13_255,8.54
SE13_256,50.0
SE13_257,25.91
SE13_258,56.81
SE13_259,6.32
SE13_260,25.78
SE13_261,6.55
SE13_262,59.6
SE13_263,68.3
SE13_264,65.33
SE13_265,90.83
SE13_266,15.61
SE13_267,32.73
SE13_268,65.43
SE13_269,52.82
SE13_270,28.68
SE13_271,68.53
SE13_272,13.07
SE13_273,53.65
SE13_274,24.03
SE13_275,76.28
SE13_276,22.67
SE13_277,68.18
SE13_278,57.46
SE13_279,90.77
SE13_280,7.56
SE13_281,56.07
SE13_282,19.65
SE13_283,11.3
SE13_284,27.92
SE13_285,6.6
SE13_286,70.7
SE13_287,55.94
SE13_288,25.46
SE13_289,72.45
SE13_290,3.02
SE13_291,16.63
SE13_292,52.85
SE13_293,62.32
SE13_294,85.13
SE13_295,22.48
SE13_296,75.55
SE13_297,41.39
SE13_298,27.16
SE13_299,62.11
SE13_300,7.36
SE13_301,41.8
SE13_302,36.59
SE13_303,19.0
SE13_304,91.14
SE13_305,57.24
SE13_306,73.13
SE13_307,61.33
SE13_308,100.13
SE13_309,30.43
SE13_310,37.93
SE13_311,11.89
SE13_312,37.92
SE13_313,47.26
SE13_314,72.92
SE13_315,10.99
SE13_316,84.35
SE13_317,72.92
SE13_318,34.67
SE13_319,94.79
SE13_320,73.47
SE13_321,68.26
SE13_322,48.91
SE13_323,97.6
SE13_324,34.01
SE13_325,30.08
SE13_326,55.88
SE13_327,19.62
SE13_328,33.46
SE13_329,46.3
SE13_330,73.44
SE13_331,83.27
SE13_332,85.13
SE13_333,20.96
SE13_334,23.4
SE13_335,57.77
SE13_336,29.09
SE13_337,4.5
SE13_338,41.55
SE13_339,36.3
SE13_340,29.67
SE13_341,32.4
SE13_342,6.96
SE13_343,10.64
SE13_344,6.22
SE13_345,70.01
SE13_346,7.75
SE13_347,93.3
SE13_348,10.13
SE13_349,57.87
SE13_350,52.38
SE13_351,59.69
SE13_352,4.14
SE13_353,67.71
SE13_354,14.4
SE13_355,82.24
SE13_356,85.6
SE13_357,63.83
SE13_358,9.65
SE13_359,45.47
SE13_360,91.77
SE13_361,77.0
SE13_362,82.89
SE13_363,55.08
SE13_364,7.2
SE13_365,94.85
SE13_366,73.78
SE13_367,21.68
SE13_368,66.31
SE13_369,57.92
SE13_370,28.01
SE13_371,23.17
SE13_372,13.57
SE13_373,30.11
SE13_374,17.14
SE13_375,81.72
SE13_376,38.03
SE13_377,73.66
SE13_378,56.9
SE13_379,80.45
SE13_380,23.69
SE13_381,40.46
SE13_382,99.38
SE13_383,69.09
SE13_384,101.41
SE13_385,57.83
SE13_386,60.76
SE13_387,14.83
SE13_388,71.7
SE13_389,48.64
SE13_390,39.59
SE13_391,80.27
SE13_392,74.56
SE13_393,15.91
SE13_394,59.59
SE13_395,87.43
SE13_396,112.12
SE13_397,60.77
SE13_398,2.73
SE13_399,10.33
SE13_400,83.81
SE13_401,13.01
SE13_402,8.37
SE13_403,56.68
SE13_404,34.17
SE13_405,7.67
SE13_406,74.36
SE13_407,86.61
SE13_408,38.23
SE13_409,17.48
SE13_410,111.54
SE13_411,96.02
SE13_412,33.88
SE13_413,3.21
SE13_414,79.85
SE13_415,61.64
SE13_416,17.27
SE13_417,44.79
SE13_418,70.04
SE13_419,54.21
SE13_420,10.29
SE13_421,23.94
SE13_422,65.39
SE13_423,99.26
SE13_424,8.16
SE13_425,12.74
SE13_426,69.67
SE13_427,72.35
SE13_428,66.67
SE13_429,79.75
SE13_430,81.63
SE13_431,95.05
SE13_432,6.43
SE13_433,65.02
SE13_434,87.34
SE13_435,64.75
SE13_436,96.94
SE13_437,7.95
SE13_438,44.48
SE13_439,45.19
SE13_440,57.75
SE13_441,51.29
SE13_442,74.66
SE13_443,73.99
SE13_444,32.24
SE13_445,100.09
SE13_446,98.72
SE13_447,67.93
SE13_448,43.02
SE13_449,87.87
SE13_450,67.63
SE13_451,73.93
SE13_452,23.65
SE13_453,79.76
SE13_454,4.26
SE13_455,49.44
SE13_456,45.22
SE13_457,85.63
SE13_458,37.27
SE13_459,70.45
SE13_460,41.32
SE13_461,79.53
SE13_462,33.93
SE13_463,32.29
SE13_464,71.82
SE13_465,37.43
SE13_466,44.33
SE13_467,67.94
SE13_468,79.87
SE13_469,87.29
SE13_470,103.6
SE13_471,32.42
SE13_472,74.39
SE13_473,59.07
SE13_474,61.26
SE13_475,53.65
SE13_476,39.99
SE13_477,27.18
SE13_478,59.16
SE13_479,93.73
SE13_480,94.8
SE13_481,68.38
SE13_482,55.3
SE13_483,50.69
SE13_484,31.89
SE13_485,50.31
SE13_486,21.43
SE13_487,75.36
SE13_488,64.83
SE13_489,59.89
SE13_490,16.03
SE13_491,4.1
SE13_492,75.06
SE13_493,32.82
SE13_494,9.61
SE13_495,67.05
SE13_496,96.2
SE13_497,45.09
SE13_498,6.23
SE13_499,97.17
SE13_500,41.86
SE13_501,49.2
SE13_502,53.3
SE13_503,3.79
SE13_504,24.08
SE13_505,66.17
SE13_506,108.73
SE13_507,76.8
SE13_508,28.06
SE13_509,73.81
SE13_510,58.07
SE13_511,65.51
SE13_512,51.23
SE13_513,85.27
SE13_514,88.88
SE13_515,33.93
SE13_516,74.37
SE13_517,57.81
SE13_518,47.39
SE13_519,88.98
SE13_520,29.37
SE13_521,16.4
SE13_522,9.78
SE13_523,22.61
SE13_524,28.55
SE13_525,88.85
SE13_526,9.18
SE13_527,66.11
SE13_528,15.42
SE13_529,10.14
SE13_530,21.24
SE13_531,66.65
SE13_532,69.08
SE13_533,65.62
SE13_534,91.46
SE13_535,53.58
SE13_536,8.49
SE13_537,52.51
SE13_538,99.79
SE13_539,82.74
SE13_540,59.4
SE13_541,62.5
SE13_542,11.97
SE13_543,48.64
SE13_544,72.28
SE13_545,59.64
SE13_546,66.62
SE13_547,85.35
SE13_548,65.75
SE13_549,16.57
SE13_550,15.87
SE13_551,68.37
SE13_552,32.27
SE13_553,1.78
SE13_554,16.07
SE13_555,5.27
SE13_556,82.49
SE13_557,100.47
SE13_558,45.84
SE13_559,13.79
SE13_560,82.99
SE13_561,7.09
SE13_562,51.48
SE13_563,83.04
SE13_564,101.15
SE13_565,39.73
SE13_566,38.1
SE13_567,16.57
SE13_568,39.97
SE13_569,25.83
SE13_570,11.98
SE13_571,47.52
SE13_572,31.34
SE13_573,71.51
SE13_574,95.79
SE13_575,15.99
SE13_576,31.68
SE13_577,63.17
SE13_578,46.76
SE13_579,88.68
SE13_580,56.45
SE13_581,73.84
SE13_582,121.36
SE13_583,28.31
SE13_584,91.36
SE13_585,1.29
SE13_586,27.66
SE13_587,64.22
SE13_588,36.35
SE13_589,12.08
SE13_590,95.73
SE13_591,56.72
SE13_592,61.58
SE13_593,54.24
SE13_594,44.57
SE13_595,10.4
SE13_596,46.96
SE13_597,85.43
SE13_598,55.01
SE13_599,82.56
SE13_600,77.33
SE13_601,86.54
SE13_602,15.83
SE13_603,62.51
SE13_604,84.42
SE13_605,1.41
SE13_606,22.47
SE13_607,18.6
SE13_608,75.43
SE13_609,41.81
SE13_610,13.11
SE13_611,18.61
SE13_612,13.63
SE13_613,2.73
SE13_614,50.0
SE13_615,2.4
SE13_616,62.1
SE13_617,83.19
SE13_618,2.67
SE13_619,11.52
SE13_620,13.92
SE13_621,89.57
SE13_622,87.48
SE13_623,5.07
SE13_624,86.94
SE13_625,59.02
SE13_626,68.85
SE13_627,104.43
SE13_628,37.75
SE13_629,60.58
SE13_630,71.05
SE13_631,47.86
SE13_632,54.61
SE13_633,69.7
SE13_634,23.93
SE13_635,74.92
SE13_636,74.95
SE13_637,15.24
SE13_638,17.65
SE13_639,64.68
SE13_640,100.49
SE13_641,34.38
SE13_642,86.75
SE13_643,30.13
SE13_644,99.34
SE13_645,47.23
SE13_646,91.12
SE13_647,15.62
SE13_648,54.68
SE13_649,96.64
SE13_650,88.92
SE13_651,74.36
SE13_652,38.76
SE13_653,75.48
SE13_654,78.89
SE13_655,10.52
SE13_656,25.95
SE13_657,29.42
SE13_658,30.39
SE13_659,28.96
SE13_660,25.35
SE13_661,86.68
SE13_662,97.83
SE13_663,20.08
SE13_664,26.11
SE13_665,80.72
SE13_666,93.42
SE13_667,87.27
SE13_668,21.32
SE13_669,18.56
SE13_670,89.42
SE13_671,96.23
SE13_672,12.65
SE13_673,25.62
SE13_674,43.81
SE13_675,13.29
SE13_676,55.37
SE13_677,69.23
SE13_678,3.68
SE13_679,60.1
SE13_680,55.54
SE13_681,1.67
SE13_682,35.69
SE13_683,42.1
SE13_684,19.94
SE13_685,74.28
SE13_686,65.49
SE13_687,4.46
SE13_688,77.57
SE13_689,99.21
SE13_690,80.5
SE13_691,73.56
SE13_692,2.83
SE13_693,20.37
SE13_694,55.57
SE13_695,59.15
SE13_696,73.73
SE13_697,60.14
SE13_698,66.62
SE13_699,27.38
SE13_700,53.23
SE13_701,52.61
SE13_702,81.64
SE13_703,59.03
SE13_704,45.24
SE13_705,89.41
SE13_706,59.83
SE13_707,33.21
SE13_708,59.1
SE13_709,37.04
SE13_710,41.56
SE13_711,72.94
SE13_712,26.58
SE13_713,96.05
SE13_714,95.7
SE13_715,42.96
SE13_716,31.68
SE13_717,56.39
SE13_718,61.33
SE13_719,37.76
SE13_720,67.02
SE13_721,15.68
SE13_722,6.97
SE13_723,26.27
SE13_724,7.84
SE13_725,48.18
SE13_726,18.4
SE13_727,82.08
SE13_728,28.08
SE13_729,1.48
SE13_730,86.33
SE13_731,6.53
SE13_732,24.84
SE13_733,15.82
SE13_734,63.37
SE13_735,5.06
SE13_736,27.69
SE13_737,117.1
SE13_738,32.15
SE13_739,33.79
SE13_740,67.71
SE13_741,20.5
SE13_742,55.62
SE13_743,109.62
SE13_744,33.15
SE13_745,24.35
SE13_746,29.32
SE13_747,9.0
SE13_748,67.35
SE13_749,106.68
SE13_750,63.26
SE13_751,44.15
SE13_752,54.66
SE13_753,59.28
SE13_754,54.26
SE13_755,88.82
SE13_756,11.31
SE13_757,22.98
SE13_758,46.06
SE13_759,91.3
SE13_760,44.67
SE13_761,109.34
SE13_762,24.8
SE13_763,62.1
SE13_764,11.53
SE13_765,1.54
SE13_766,88.77
SE13_767,66.17
SE13_768,32.55
SE13_769,104.49
SE13_770,92.87
SE13_771,8.23
SE13_772,95.96
SE13_773,19.5
SE13_774,76.26
SE13_775,20.14
SE13_776,29.63
SE13_777,69.98
SE13_778,107.85
SE13_779,16.05
SE13_780,84.17
SE13_781,78.99
SE13_782,29.67
SE13_783,32.25
SE13_784,44.33
SE13_785,80.5
SE13_786,26.49
SE13_787,24.84
SE13_788,24.69
SE13_789,43.64
SE13_790,26.18
SE13_791,63.99
SE13_792,48.78
SE13_793,38.25
SE13_794,65.56
SE13_795,106.29
SE13_796,15.46
SE13_797,4.79
SE13_798,39.8
SE13_799,24.79
SE13_800,51.91
SE13_801,77.2
SE13_802,85.76
SE13_803,5.99
SE13_804,62.17
SE13_805,23.32
SE13_806,20.9
SE13_807,25.63
SE13_808,28.69
SE13_809,95.81
SE13_810,25.55
SE13_811,30.92
SE13_812,71.69
SE13_813,12.18
SE13_814,35.68
SE13_815,30.86
SE13_816,68.79
SE13_817,2.77
SE13_818,102.21
SE13_819,63.61
SE13_820,5.59
SE13_821,42.85
SE13_822,61.24
SE13_823,24.66
SE13_824,15.19
SE13_825,43.62
SE13_826,51.71
SE13_827,66.01
SE13_828,112.05
SE13_829,62.54
SE13_830,34.46
SE13_831,45.88
SE13_832,79.01
SE13_833,32.98
SE13_834,2.18
SE13_835,28.5
SE13_836,58.35
SE13_837,71.16
SE13_838,52.31
SE13_839,37.32
SE13_840,81.82
SE13_841,100.09
SE13_842,68.61
SE13_843,10.36
SE13_844,71.65
SE13_845,72.49
SE13_846,10.71
SE13_847,64.02
SE13_848,40.9
SE13_849,27.14
SE13_850,58.08
SE13_851,66.52
SE13_852,85.61
SE13_853,84.04
SE13_854,67.33
SE13_855,78.32
SE13_856,33.86
SE13_857,68.85
SE13_858,13.04
SE13_859,24.13
SE13_860,97.81
SE13_861,81.62
SE13_862,6.15
SE13_863,111.21
SE13_864,38.84
SE13_865,22.29
SE13_866,34.86
SE13_867,44.55
SE13_868,9.49
SE13_869,96.32
SE13_870,79.03
SE13_871,67.93
SE13_872,80.08
SE13_873,73.82
SE13_874,95.33
SE13_875,53.94
SE13_876,33.81
SE13_877,14.78
SE13_878,60.78
SE13_879,62.61
SE13_880,59.86
SE13_881,50.86
SE13_882,53.29
SE13_883,13.82
SE13_884,39.02
SE13_885,21.23
SE13_886,42.62
SE13_887,19.56
SE13_888,19.57
SE13_889,79.9
SE13_890,62.06
SE13_891,19.6
SE13_892,72.52
SE13_893,35.63
SE13_894,29.94
SE13_895,68.8
SE13_896,106.43
SE13_897,50.27
SE13_898,26.05
SE13_899,27.16
SE13_900,11.41
SE13_901,22.55
SE13_902,7.79
SE13_903,6.15
SE13_904,88.0
SE13_905,20.3
SE13_906,48.92
SE13_907,51.8
SE13_908,108.55
SE13_909,44.3
SE13_910,33.09
SE13_911,86.16
SE13_912,83.42
SE13_913,1.15
SE13_914,53.11
SE13_915,18.99
SE13_916,100.32
SE13_917,117.7
SE13_918,20.69
SE13_919,3.57
SE13_920,79.83
SE13_921,106.28
SE13_922,26.25
SE13_923,1.98
SE13_924,28.85
SE13_925,66.11
SE13_926,1.66
SE13_927,60.0
SE13_928,50.14
SE13_929,74.27
SE13_930,23.41
SE13_931,48.9
SE13_932,30.45
SE13_933,13.25
SE13_934,48.98
SE13_935,73.92
SE13_936,107.21
SE13_937,28.86
SE13_938,47.22
SE13_939,27.76
SE13_940,62.56
SE13_941,1.68
SE13_942,51.7
SE13_943,98.72
SE13_944,74.05
SE13_945,37.3
SE13_946,62.71
SE13_947,59.01
SE13_948,97.53
SE13_949,98.97
SE13_950,85.98
SE13_951,91.55
SE13_952,74.51
SE13_953,26.83
SE13_954,62.12
SE13_955,60.68
SE13_956,95.19
SE13_957,14.56
SE13_958,25.22
SE13_959,87.73
SE13_960,73.8
SE13_961,52.29
SE13_962,75.16
SE13_963,36.5
SE13_964,52.27
SE13_965,36.02
SE13_966,21.14
SE13_967,61.93
SE13_968,12.42
SE13_969,53.14
SE13_970,119.93
SE13_971,42.25
SE13_972,40.68
SE13_973,102.17
SE13_974,10.38
SE13_975,38.24
SE13_976,80.37
SE13_977,99.32
SE13_978,51.82
SE13_979,38.6
SE13_980,62.54
SE13_981,64.49
SE13_982,101.07
SE13_983,17.88
SE13_984,107.23
SE13_985,9.96
SE13_986,85.32
SE13_987,63.02
SE13_988,51.9
SE13_989,80.34
SE13_990,75.31
SE13_991,20.3
SE13_992,70.26
SE13_993,44.51
SE13_994,55.94
SE13_995,31.29
SE13_996,19.93
SE13_997,33.64
SE13_998,15.21
SE13_999,105.56
SE13_1000,27.4
SE13_1001,19.38
SE13_1002,25.86
SE13_1003,18.09
SE13_1004,36.13
SE13_1005,40.5
SE13_1006,29.46
SE13_1007,19.42
SE13_1008,51.78
SE13_1009,18.11
SE13_1010,1.86
SE13_1011,23.03
SE13_1012,73.39
SE13_1013,107.21
SE13_1014,76.51
SE13_1015,63.26
SE13_1016,52.71
SE13_1017,22.46
SE13_1018,96.75
SE13_1019,64.78
SE13_1020,89.83
SE13_1021,59.74
SE13_1022,53.88
SE13_1023,29.93
SE13_1024,51.39
SE13_1025,51.31
SE13_1026,35.16
SE13_1027,4.94
SE13_1028,25.13
SE13_1029,58.59
SE13_1030,46.38
SE13_1031,90.54
SE13_1032,65.07
SE13_1033,21.74
SE13_1034,26.0
SE13_1035,2.82
SE13_1036,41.63
SE13_1037,59.84
SE13_1038,66.67
SE13_1039,70.36
SE13_1040,35.93
SE13_1041,83.01
SE13_1042,22.55
SE13_1043,83.55
SE13_1044,87.24
SE13_1045,22.19
SE13_1046,22.88
SE13_1047,2.64
SE13_1048,95.27
SE13_1049,97.12
SE13_1050,92.48
SE13_1051,35.13
SE13_1052,29.4
SE13_1053,55.71
SE13_1054,90.62
SE13_1055,44.14
SE13_1056,20.34
SE13_1057,16.84
SE13_1058,83.5
SE13_1059,66.07
SE13_1060,22.5
SE13_1061,19.29
SE13_1062,72.47
SE13_1063,9.83
SE13_1064,33.72
SE13_1065,2.03
SE13_1066,103.41
SE13_1067,38.43
SE13_1068,69.1
SE13_1069,76.46
SE13_1070,91.34
SE13_1071,35.09
SE13_1072,26.55
SE13_1073,69.01
SE13_1074,93.08
SE13_1075,40.94
SE13_1076,7.54
SE13_1077,62.48
SE13_1078,56.47
SE13_1079,67.75
SE13_1080,65.96
SE13_1081,30.6
SE13_1082,63.48
SE13_1083,77.41
SE13_1084,40.29
SE13_1085,40.01
SE13_1086,75.38
SE13_1087,77.62
SE13_1088,78.72
SE13_1089,52.82
SE13_1090,47.05
SE13_1091,44.26
SE13_1092,55.08
SE13_1093,5.16
SE13_1094,88.62
SE13_1095,51.73
SE13_1096,16.63
SE13_1097,57.08
SE13_1098,70.0
SE13_1099,63.73
SE13_1100,72.46
SE13_1101,74.49
SE13_1102,14.0
SE13_1103,92.53
SE13_1104,28.56
SE13_1105,62.83
SE13_1106,64.73
SE13_1107,43.13
SE13_1108,37.9
SE13_1109,5.83
SE13_1110,40.47
SE13_1111,26.63
SE13_1112,9.23
SE13_1113,60.95
SE13_1114,51.44
SE13_1115,42.85
SE13_1116,76.24
SE13_1117,79.56
SE13_1118,79.74
SE13_1119,23.13
SE13_1120,27.59
SE13_1121,39.94
SE13_1122,4.58
SE13_1123,52.03
SE13_1124,10.96
SE13_1125,55.85
SE13_1126,61.47
SE13_1127,64.9
SE13_1128,36.26
SE13_1129,25.99
SE13_1130,111.43
SE13_1131,37.89
SE13_1132,7.93
SE13_1133,74.74
SE13_1134,70.77
SE13_1135,33.37
SE13_1136,66.92
SE13_1137,44.59
SE13_1138,1.25
SE13_1139,17.89
SE13_1140,30.64
SE13_1141,106.13
SE13_1142,94.67
SE13_1143,61.94
SE13_1144,32.58
SE13_1145,25.66
SE13_1146,83.34
SE13_1147,5.31
SE13_1148,48.38
SE13_1149,14.36
SE13_1150,14.18
SE13_1151,73.26
SE13_1152,2.63
SE13_1153,4.16
SE13_1154,36.62
SE13_1155,72.12
SE13_1156,88.05
SE13_1157,10.52
SE13_1158,11.14
SE13_1159,14.69
SE13_1160,92.05
SE13_1161,85.81
SE13_1162,79.18
SE13_1163,33.43
SE13_1164,58.84
SE13_1165,2.42
SE13_1166,54.16
SE13_1167,48.25
SE13_1168,3.75
SE13_1169,81.95
SE13_1170,62.31
SE13_1171,17.28
SE13_1172,49.17
SE13_1173,15.68
SE13_1174,70.93
SE13_1175,85.4
SE13_1176,13.66
SE13_1177,6.16
SE13_1178,28.13
SE13_1179,14.61
SE13_1180,82.2
SE13_1181,74.33
SE13_1182,14.85
SE13_1183,88.86
SE13_1184,64.58
SE13_1185,21.06
SE13_1186,65.97
SE13_1187,85.08
SE13_1188,24.13
SE13_1189,2.27
SE13_1190,40.89
SE13_1191,25.54
SE13_1192,27.44
SE13_1193,15.98
SE13_1194,80.25
SE13_1195,97.78
SE13_1196,75.43
SE13_1197,29.52
SE13_1198,8.18
SE13_1199,19.95
SE13_1200,17.7
SE13_1201,30.75
SE13_1202,55.56
SE13_1203,61.75
SE13_1204,6.73
SE13_1205,17.9
SE13_1206,32.04
SE13_1207,41.55
SE13_1208,29.69
SE13_1209,87.14
SE13_1210,71.66
SE13_1211,17.66
SE13_1212,4.29
SE13_1213,64.59
SE13_1214,59.1
SE13_1215,100.03
SE13_1216,69.51
SE13_1217,84.64
SE13_1218,54.21
SE13_1219,98.86
SE13_1220,101.75
SE13_1221,69.44
SE13_1222,65.08
SE13_1223,64.44
SE13_1224,46.11
SE13_1225,89.58
SE13_1226,61.24
SE13_1227,76.37
SE13_1228,18.08
SE13_1229,75.99
SE13_1230,46.38
SE13_1231,33.14
SE13_1232,56.52
SE13_1233,19.88
SE13_1234,7.82
SE13_1235,78.61
SE13_1236,71.0
SE13_1237,7.35
SE13_1238,27.4
SE13_1239,52.64
SE13_1240,28.69
SE13_1241,35.22
SE13_1242,1.92
SE13_1243,90.62
SE13_1244,32.8
SE13_1245,40.59
SE13_1246,70.35
SE13_1247,81.63
SE13_1248,43.06
SE13_1249,106.83
SE13_1250,24.81
SE13_1251,16.63
SE13_1252,74.21
SE13_1253,86.62
SE13_1254,74.07
SE13_1255,70.31
SE13_1256,27.19
SE13_1257,62.95
SE13_1258,55.35
SE13_1259,89.22
SE13_1260,19.35
SE13_1261,12.31
SE13_1262,22.66
SE13_1263,88.63
SE13_1264,49.38
SE13_1265,22.01
SE13_1266,46.65
SE13_1267,85.59
SE13_1268,45.36
SE13_1269,15.42
SE13_1270,5.79
SE13_1271,50.63
SE13_1272,4.25
SE13_1273,57.83
SE13_1274,54.36
SE13_1275,69.38
SE13_1276,17.65
SE13_1277,80.48
SE13_1278,118.63
SE13_1279,9.12
SE13_1280,61.87
SE13_1281,32.11
SE13_1282,67.49
SE13_1283,42.83
SE13_1284,55.96
SE13_1285,48.78
SE13_1286,58.33
SE13_1287,46.29
SE13_1288,20.31
SE13_1289,45.03
SE13_1290,41.47
SE13_1291,52.16
SE13_1292,56.4
SE13_1293,75.71
SE13_1294,32.69
SE13_1295,26.96
SE13_1296,66.42
SE13_1297,25.48
SE13_1298,4.39
SE13_1299,63.08
SE13_1300,83.35
SE13_1301,78.49
SE13_1302,29.99
SE13_1303,32.87
SE13_1304,17.37
SE13_1305,60.15
SE13_1306,106.17
SE13_1307,86.14
SE13_1308,110.13
SE13_1309,27.47
SE13_1310,10.97
SE13_1311,3.55
SE13_1312,12.56
SE13_1313,86.22
SE13_1314,59.05
SE13_1315,20.74
SE13_1316,88.9
SE13_1317,65.2
SE13_1318,81.0
SE13_1319,72.05
SE13_1320,95.15
SE13_1321,66.52
SE13_1322,82.18
SE13_1323,30.37
SE13_1324,92.72
SE13_1325,54.12
SE13_1326,2.14
SE13_1327,59.3
SE13_1328,98.39
SE13_1329,85.14
SE13_1330,21.01
SE13_1331,42.35
SE13_1332,51.98
SE13_1333,85.82
SE13_1334,12.06
SE13_1335,97.83
SE13_1336,9.08
SE13_1337,29.86
SE13_1338,9.88
SE13_1339,72.87
SE13_1340,90.43
SE13_1341,2.5
SE13_1342,71.03
SE13_1343,71.93
SE13_1344,78.76
SE13_1345,2.18
SE13_1346,27.94
SE13_1347,47.55
SE13_1348,39.74
SE13_1349,80.02
SE13_1350,63.38
SE13_1351,37.96
SE13_1352,7.12
SE13_1353,41.04
SE13_1354,65.7
SE13_1355,70.16
SE13_1356,50.51
SE13_1357,45.21
SE13_1358,59.53
SE13_1359,38.12
SE13_1360,10.82
SE13_1361,18.2
SE13_1362,23.85
SE13_1363,19.7
SE13_1364,42.71
SE13_1365,8.95
SE13_1366,88.14
SE13_1367,69.83
SE13_1368,80.44
SE13_1369,67.77
SE13_1370,20.48
SE13_1371,71.59
SE13_1372,98.23
SE13_1373,1.6
SE13_1374,92.39
SE13_1375,36.81
SE13_1376,42.51
SE13_1377,75.93
SE13_1378,61.8
SE13_1379,21.53
SE13_1380,68.85
SE13_1381,11.56
SE13_1382,76.82
SE13_1383,1.28
SE13_1384,74.69
SE13_1385,75.48
SE13_1386,92.03
SE13_1387,57.16
SE13_1388,35.46
SE13_1389,78.52
SE13_1390,70.44
SE13_1391,35.28
SE13_1392,66.68
SE13_1393,10.58
SE13_1394,19.83
SE13_1395,98.05
SE13_1396,43.23
SE13_1397,4.54
SE13_1398,76.99
SE13_1399,19.13
SE13_1400,31.98
SE13_1401,73.38
SE13_1402,5.63
SE13_1403,2.31
SE13_1404,33.3
SE13_1405,14.15
SE13_1406,47.16
SE13_1407,42.27
SE13_1408,90.22
SE13_1409,80.56
SE13_1410,36.84
SE13_1411,39.44
SE13_1412,64.91
SE13_1413,48.76
SE13_1414,24.28
SE13_1415,1.81
SE13_1416,84.92
SE13_1417,49.67
SE13_1418,4.67
SE13_1419,16.99
SE13_1420,95.38
SE13_1421,71.57
SE13_1422,46.97
SE13_1423,21.17
SE13_1424,78.45
SE13_1425,54.5
SE13_1426,72.05
SE13_1427,5.83
SE13_1428,9.81
SE13_1429,10.82
SE13_1430,17.03
SE13_1431,83.7
SE13_1432,2.54
SE13_1433,62.71
SE13_1434,75.34
SE13_1435,17.37
SE13_1436,65.44
SE13_1437,59.78
SE13_1438,72.12
SE13_1439,68.31
SE13_1440,72.7
SE13_1441,57.89
SE13_1442,3.14
SE13_1443,74.02
SE13_1444,75.31
SE13_1445,41.55
SE13_1446,23.54
SE13_1447,2.91
SE13_1448,74.99
SE13_1449,33.95
SE13_1450,61.61
SE13_1451,17.88
SE13_1452,77.24
SE13_1453,36.59
SE13_1454,11.24
SE13_1455,7.94
SE13_1456,22.48
SE13_1457,90.58
SE13_1458,46.17
SE13_1459,51.61
SE13_1460,82.93
SE13_1461,99.93
SE13_1462,49.39
SE13_1463,40.41
SE13_1464,50.89
SE13_1465,3.96
SE13_1466,60.5
SE13_1467,55.87
SE13_1468,90.2
SE13_1469,18.12
SE13_1470,77.24
SE13_1471,88.92
SE13_1472,45.56
SE13_1473,18.21
SE13_1474,55.98
SE13_1475,67.54
SE13_1476,69.71
SE13_1477,82.95
SE13_1478,50.74
SE13_1479,106.73
SE13_1480,75.05
SE13_1481,11.32
SE13_1482,23.06
SE13_1483,59.91
SE13_1484,75.01
SE13_1485,47.97
SE13_1486,1.57
SE13_1487,89.85
SE13_1488,64.86
SE13_1489,65.86
SE13_1490,52.56
SE13_1491,50.58
SE13_1492,14.87
SE13_1493,24.34
SE13_1494,1.99
SE13_1495,31.7
SE13_1496,83.86
SE13_1497,2.75
SE13_1498,9.8
SE13_1499,4.17
SE13_1500,5.28
SE13_1501,2.73
SE13_1502,31.71
SE13_1503,32.69
SE13_1504,32.15
SE13_1505,105.52
SE13_1506,47.7
SE13_1507,15.44
SE13_1508,5.43
SE13_1509,87.98
SE13_1510,79.62
SE13_1511,75.03
SE13_1512,22.08
SE13_1513,49.34
SE13_1514,87.97
SE13_1515,74.05
SE13_1516,49.2
SE13_1517,92.55
SE13_1518,81.0
SE13_1519,49.85
SE13_1520,81.14
SE13_1521,79.51
SE13_1522,68.88
SE13_1523,99.51
SE13_1524,28.4
SE13_1525,4.53
SE13_1526,89.87
SE13_1527,74.77
SE13_1528,10.56
SE13_1529,77.95
SE13_1530,7.35
SE13_1531,97.06
SE13_1532,26.07
SE13_1533,60.31
SE13_1534,50.04
SE13_1535,49.33
SE13_1536,82.28
SE13_1537,51.66
SE13_1538,67.82
SE13_1539,44.95
SE13_1540,5.37
SE13_1541,88.74
SE13_1542,84.44
SE13_1543,80.99
SE13_1544,32.86
SE13_1545,9.2
SE13_1546,8.61
SE13_1547,82.18
SE13_1548,108.61
SE13_1549,29.49
SE13_1550,79.69
SE13_1551,81.62
SE13_1552,51.48
SE13_1553,83.55
SE13_1554,107.14
SE13_1555,97.49
SE13_1556,58.11
SE13_1557,72.03
SE13_1558,70.08
SE13_1559,47.06
SE13_1560,18.79
SE13_1561,76.25
SE13_1562,10.06
SE13_1563,16.74
SE13_1564,95.24
SE13_1565,44.1
SE13_1566,6.45
SE13_1567,68.63
SE13_1568,48.49
SE13_1569,35.36
SE13_1570,13.5
SE13_1571,15.02
SE13_1572,78.31
SE13_1573,58.91
SE13_1574,92.02
SE13_1575,87.43
SE13_1576,79.26
SE13_1577,88.89
SE13_1578,38.8
SE13_1579,39.2
SE13_1580,53.34
SE13_1581,31.43
SE13_1582,55.49
SE13_1583,4.22
SE13_1584,69.22
SE13_1585,76.9
SE13_1586,69.05
SE13_1587,96.88
SE13_1588,95.14
SE13_1589,31.4
SE13_1590,14.05
SE13_1591,15.32
SE13_1592,67.08
SE13_1593,84.58
SE13_1594,13.48
SE13_1595,39.87
SE13_1596,72.05
SE13_1597,66.47
SE13_1598,67.15
SE13_1599,25.74
SE13_1600,89.2
SE13_1601,49.2
SE13_1602,21.36
SE13_1603,34.8
SE13_1604,24.09
SE13_1605,79.38
SE13_1606,84.53
SE13_1607,47.99
SE13_1608,45.53
SE13_1609,29.53
SE13_1610,59.02
SE13_1611,28.54
SE13_1612,104.56
SE13_1613,7.59
SE13_1614,23.81
SE13_1615,36.58
SE13_1616,42.25
SE13_1617,16.53
SE13_1618,4.57
SE13_1619,82.81
SE13_1620,58.01
SE13_1621,91.81
SE13_1622,22.45
SE13_1623,74.51
SE13_1624,28.78
SE13_1625,67.4
SE13_1626,87.62
SE13_1627,14.99
SE13_1628,19.28
SE13_1629,30.94
SE13_1630,4.68
SE13_1631,70.14
SE13_1632,86.11
SE13_1633,61.18
SE13_1634,10.02
SE13_1635,16.2
SE13_1636,89.12
SE13_1637,50.31
SE13_1638,47.32
SE13_1639,52.1
SE13_1640,67.42
SE13_1641,64.08
SE13_1642,45.37
SE13_1643,30.45
SE13_1644,64.25
SE13_1645,21.7
SE13_1646,110.45
SE13_1647,76.97
SE13_1648,49.55
SE13_1649,44.75
