20150211
SE8_1,48.36
SE8_2,18.74
SE8_3,15.7
SE8_4,62.23
SE8_5,63.19
SE8_6,18.45
SE8_7,23.01
SE8_8,52.42
SE8_9,82.42
SE8_10,85.33
SE8_11,93.78
SE8_12,9.36
SE8_13,49.43
SE8_14,26.85
SE8_15,1.26
SE8_16,92.18
SE8_17,69.77
SE8_18,20.73
SE8_19,79.67
SE8_20,75.41
SE8_21,70.44
SE8_22,69.26
SE8_23,7.66
SE8_24,22.89
SE8_25,44.1
SE8_26,36.06
SE8_27,44.73
SE8_28,25.47
SE8_29,41.02
SE8_30,7.42
SE8_31,103.03
SE8_32,1.32
SE8_33,23.63
SE8_34,57.06
SE8_35,89.29
SE8_36,63.87
SE8_37,57.67
SE8_38,9.74
SE8_39,67.76
SE8_40,3.79
SE8_41,24.32
SE8_42,4.27
SE8_43,17.43
SE8_44,38.84
SE8_45,34.79
SE8_46,21.61
SE8_47,38.34
SE8_48,57.12
SE8_49,80.2
SE8_50,38.69
SE8_51,56.1
SE8_52,59.45
SE8_53,56.83
SE8_54,95.41
SE8_55,91.41
SE8_56,72.77
SE8_57,98.8
SE8_58,73.05
SE8_59,76.05
SE8_60,23.87
SE8_61,3.45
SE8_62,65.83
SE8_63,86.8
SE8_64,14.41
SE8_65,24.95
SE8_66,15.55
SE8_67,46.46
SE8_68,82.28
SE8_69,54.69
SE8_70,91.18
SE8_71,76.39
SE8_72,63.72
SE8_73,38.45
SE8_74,39.48
SE8_75,59.57
SE8_76,4.06
SE8_77,40.52
SE8_78,89.02
SE8_79,95.57
SE8_80,39.29
SE8_81,73.35
SE8_82,109.65
SE8_83,17.9
SE8_84,13.05
SE8_85,64.6
SE8_86,38.32
SE8_87,75.66
SE8_88,82.04
SE8_89,80.44
SE8_90,35.93
SE8_91,75.34
SE8_92,95.94
SE8_93,42.09
SE8_94,39.14
SE8_95,53.6
SE8_96,68.18
SE8_97,31.23
SE8_98,73.37
SE8_99,84.7
SE8_100,13.24
SE8_101,52.46
SE8_102,53.73
SE8_103,2.87
SE8_104,48.22
SE8_105,85.74
SE8_106,91.73
SE8_107,42.13
SE8_108,75.11
SE8_109,44.68
SE8_110,42.68
SE8_111,34.69
SE8_112,5.18
SE8_113,84.91
SE8_114,35.32
SE8_115,53.02
SE8_116,45.61
SE8_117,93.97
SE8_118,3.59
SE8_119,84.9
SE8_120,82.48
SE8_121,12.69
SE8_122,7.7
SE8_123,72.89
SE8_124,54.39
SE8_125,55.52
SE8_126,45.7
SE8_127,33.63
SE8_128,63.23
SE8_129,12.86
SE8_130,97.49
SE8_131,51.51
SE8_132,85.97
SE8_133,90.77
SE8_134,55.13
SE8_135,71.94
SE8_136,22.45
SE8_137,59.38
SE8_138,16.76
SE8_139,72.33
SE8_140,49.97
SE8_141,64.4
SE8_142,3.8
SE8_143,79.56
SE8_144,6.62
SE8_145,85.84
SE8_146,11.91
SE8_147,96.63
SE8_148,89.22
SE8_149,81.69
SE8_150,88.11
SE8_151,19.41
SE8_152,78.05
SE8_153,40.3
SE8_154,57.27
SE8_155,82.62
SE8_156,55.69
SE8_157,69.92
SE8_158,28.92
SE8_159,63.47
SE8_160,16.2
SE8_161,1.97
SE8_162,76.29
SE8_163,35.16
SE8_164,59.06
SE8_165,87.97
SE8_166,54.41
SE8_167,28.75
SE8_168,29.42
SE8_169,90.81
SE8_170,12.01
SE8_171,72.57
SE8_172,9.32
SE8_173,42.8
SE8_174,102.85
SE8_175,53.76
SE8_176,96.69
SE8_177,73.74
SE8_178,13.64
SE8_179,13.53
SE8_180,51.7
SE8_181,17.43
SE8_182,80.7
SE8_183,70.4
SE8_184,9.5
SE8_185,52.49
SE8_186,50.49
SE8_187,8.84
SE8_188,54.63
SE8_189,76.01
SE8_190,73.97
SE8_191,40.12
SE8_192,69.53
SE8_193,69.7
SE8_194,62.02
SE8_195,80.11
SE8_196,99.6
SE8_197,26.1
SE8_198,17.96
SE8_199,80.31
SE8_200,5.27
SE8_201,45.8
SE8_202,99.13
SE8_203,75.32
SE8_204,67.46
SE8_205,85.17
SE8_206,93.64
SE8_207,44.48
SE8_208,59.71
SE8_209,32.13
SE8_210,48.72
SE8_211,12.15
SE8_212,46.38
SE8_213,81.47
SE8_214,3.42
SE8_215,40.66
SE8_216,30.91
SE8_217,24.73
SE8_218,93.6
SE8_219,39.69
SE8_220,9.99
SE8_221,30.63
SE8_222,52.27
SE8_223,19.26
SE8_224,73.77
SE8_225,54.76
SE8_226,20.22
SE8_227,82.23
SE8_228,13.28
SE8_229,30.87
SE8_230,67.92
SE8_231,19.0
SE8_232,24.05
SE8_233,42.0
SE8_234,55.6
SE8_235,28.22
SE8_236,17.2
SE8_237,93.6
SE8_238,49.56
SE8_239,54.56
SE8_240,43.82
SE8_241,33.18
SE8_242,62.09
SE8_243,21.26
SE8_244,55.66
SE8_245,68.17
SE8_246,45.2
SE8_247,61.03
SE8_248,11.74
SE8_249,108.14
SE8_250,48.12
SE8_251,90.49
SE8_252,20.7
SE8_253,43.99
SE8_254,16.81
SE8_255,51.74
SE8_256,37.5
SE8_257,41.48
SE8_258,29.35
SE8_259,11.19
SE8_260,81.82
SE8_261,105.28
SE8_262,35.66
SE8_263,73.09
SE8_264,45.28
SE8_265,58.81
SE8_266,77.54
SE8_267,48.29
SE8_268,25.41
SE8_269,79.47
SE8_270,37.15
SE8_271,53.42
SE8_272,37.91
SE8_273,85.37
SE8_274,49.53
SE8_275,33.42
SE8_276,94.17
SE8_277,18.43
SE8_278,5.09
SE8_279,85.66
SE8_280,11.31
SE8_281,23.35
SE8_282,30.42
SE8_283,90.35
SE8_284,29.9
SE8_285,60.57
SE8_286,6.51
SE8_287,68.37
SE8_288,98.14
SE8_289,50.7
SE8_290,40.09
SE8_291,86.47
SE8_292,11.68
SE8_293,65.82
SE8_294,79.76
SE8_295,33.27
SE8_296,42.79
SE8_297,4.25
SE8_298,27.69
SE8_299,83.5
SE8_300,52.55
SE8_301,50.14
SE8_302,7.85
SE8_303,99.23
SE8_304,16.67
SE8_305,46.87
SE8_306,35.5
SE8_307,25.93
SE8_308,25.23
SE8_309,107.35
SE8_310,97.02
SE8_311,61.2
SE8_312,81.54
SE8_313,81.62
SE8_314,31.28
SE8_315,74.5
SE8_316,13.9
SE8_317,85.21
SE8_318,34.31
SE8_319,58.37
SE8_320,64.09
SE8_321,11.7
SE8_322,16.98
SE8_323,32.0
SE8_324,104.25
SE8_325,4.71
SE8_326,57.78
SE8_327,92.2
SE8_328,14.74
SE8_329,25.02
SE8_330,62.04
SE8_331,46.16
SE8_332,70.96
SE8_333,25.8
SE8_334,15.41
SE8_335,31.3
SE8_336,52.36
SE8_337,47.21
SE8_338,35.75
SE8_339,78.78
SE8_340,50.29
SE8_341,81.28
SE8_342,1.72
SE8_343,76.32
SE8_344,66.51
SE8_345,51.02
SE8_346,65.19
SE8_347,59.97
SE8_348,14.08
SE8_349,70.78
SE8_350,88.55
SE8_351,26.11
SE8_352,48.67
SE8_353,44.89
SE8_354,32.61
SE8_355,79.77
SE8_356,75.9
SE8_357,81.87
SE8_358,65.63
SE8_359,76.53
SE8_360,23.04
SE8_361,17.55
SE8_362,17.5
SE8_363,45.52
SE8_364,68.68
SE8_365,85.4
SE8_366,39.76
SE8_367,87.38
SE8_368,4.23
SE8_369,99.94
SE8_370,100.19
SE8_371,16.48
SE8_372,12.25
SE8_373,33.88
SE8_374,66.49
SE8_375,93.35
SE8_376,35.13
SE8_377,52.65
SE8_378,3.14
SE8_379,34.84
SE8_380,97.01
SE8_381,81.18
SE8_382,40.22
SE8_383,84.31
SE8_384,66.03
SE8_385,21.22
SE8_386,29.01
SE8_387,98.13
SE8_388,68.75
SE8_389,59.95
SE8_390,20.44
SE8_391,60.06
SE8_392,97.87
SE8_393,92.09
SE8_394,71.7
SE8_395,95.12
SE8_396,84.53
SE8_397,28.13
SE8_398,81.27
SE8_399,62.78
SE8_400,81.18
SE8_401,36.69
SE8_402,91.91
SE8_403,5.99
SE8_404,47.39
SE8_405,75.45
SE8_406,55.94
SE8_407,46.53
SE8_408,91.98
SE8_409,75.72
SE8_410,89.8
SE8_411,50.38
SE8_412,81.41
SE8_413,31.08
SE8_414,53.13
SE8_415,12.36
SE8_416,51.5
SE8_417,17.38
SE8_418,70.96
SE8_419,74.93
SE8_420,22.03
SE8_421,88.39
SE8_422,103.68
SE8_423,70.15
SE8_424,23.95
SE8_425,60.86
SE8_426,96.47
SE8_427,61.72
SE8_428,38.32
SE8_429,27.91
SE8_430,32.79
SE8_431,34.8
SE8_432,66.55
SE8_433,69.72
SE8_434,30.83
SE8_435,17.08
SE8_436,31.83
SE8_437,86.38
SE8_438,78.36
SE8_439,81.17
SE8_440,67.95
SE8_441,74.47
SE8_442,22.53
SE8_443,53.55
SE8_444,31.21
SE8_445,37.07
SE8_446,56.28
SE8_447,59.16
SE8_448,83.76
SE8_449,50.96
SE8_450,66.79
SE8_451,35.09
SE8_452,79.11
SE8_453,45.94
SE8_454,70.54
SE8_455,66.41
SE8_456,60.37
SE8_457,96.06
SE8_458,94.69
SE8_459,13.34
SE8_460,18.46
SE8_461,94.93
SE8_462,87.01
SE8_463,62.09
SE8_464,100.79
SE8_465,29.08
SE8_466,75.7
SE8_467,42.49
SE8_468,47.05
SE8_469,87.91
SE8_470,51.37
SE8_471,1.92
SE8_472,83.53
SE8_473,82.17
SE8_474,20.74
SE8_475,34.71
SE8_476,21.04
SE8_477,39.57
SE8_478,17.66
SE8_479,2.94
SE8_480,11.67
SE8_481,41.0
SE8_482,57.49
SE8_483,53.48
SE8_484,19.59
SE8_485,92.68
SE8_486,34.5
SE8_487,56.07
SE8_488,43.14
SE8_489,54.88
SE8_490,72.36
SE8_491,47.41
SE8_492,6.35
SE8_493,6.38
SE8_494,15.88
SE8_495,68.77
SE8_496,35.8
SE8_497,87.09
SE8_498,40.86
SE8_499,48.77
SE8_500,59.71
SE8_501,77.22
SE8_502,100.32
SE8_503,45.05
SE8_504,98.23
SE8_505,43.93
SE8_506,47.58
SE8_507,57.2
SE8_508,58.43
SE8_509,37.79
SE8_510,34.99
SE8_511,38.43
SE8_512,46.25
SE8_513,99.64
SE8_514,42.08
SE8_515,18.55
SE8_516,22.37
SE8_517,64.31
SE8_518,80.22
SE8_519,78.64
SE8_520,58.57
SE8_521,85.67
SE8_522,9.7
SE8_523,73.81
SE8_524,21.09
SE8_525,24.64
SE8_526,22.65
SE8_527,37.39
SE8_528,80.97
SE8_529,95.41
SE8_530,63.62
SE8_531,9.26
SE8_532,14.23
SE8_533,34.18
SE8_534,53.36
SE8_535,31.2
SE8_536,80.11
SE8_537,58.78
SE8_538,91.88
SE8_539,41.02
SE8_540,23.16
SE8_541,21.86
SE8_542,56.2
SE8_543,65.89
SE8_544,73.04
SE8_545,50.86
SE8_546,29.88
SE8_547,26.21
SE8_548,36.17
SE8_549,23.12
SE8_550,46.61
SE8_551,40.58
SE8_552,59.0
SE8_553,4.09
SE8_554,54.01
SE8_555,1.83
SE8_556,92.65
SE8_557,91.35
SE8_558,80.23
SE8_559,43.62
SE8_560,85.07
SE8_561,41.0
SE8_562,5.57
SE8_563,102.01
SE8_564,13.51
SE8_565,88.97
SE8_566,91.21
SE8_567,46.78
SE8_568,56.02
SE8_569,63.94
SE8_570,44.01
SE8_571,29.18
SE8_572,96.54
SE8_573,5.8
SE8_574,95.5
SE8_575,40.35
SE8_576,67.24
SE8_577,72.22
SE8_578,42.61
SE8_579,40.84
SE8_580,26.76
SE8_581,16.32
SE8_582,5.06
SE8_583,80.55
SE8_584,64.66
SE8_585,50.1
SE8_586,76.53
SE8_587,78.81
SE8_588,74.25
SE8_589,26.87
SE8_590,55.26
SE8_591,99.68
SE8_592,7.45
SE8_593,70.96
SE8_594,71.41
SE8_595,63.48
SE8_596,86.92
SE8_597,58.79
SE8_598,64.87
SE8_599,23.66
SE8_600,17.37
SE8_601,80.49
SE8_602,16.95
SE8_603,108.92
SE8_604,36.44
SE8_605,29.07
SE8_606,56.83
SE8_607,16.76
SE8_608,27.73
SE8_609,75.69
SE8_610,75.45
SE8_611,73.14
SE8_612,79.29
SE8_613,65.13
SE8_614,30.23
SE8_615,63.13
SE8_616,35.29
SE8_617,33.44
SE8_618,75.72
SE8_619,80.45
SE8_620,3.47
SE8_621,5.09
SE8_622,24.61
SE8_623,53.86
SE8_624,83.89
SE8_625,32.95
SE8_626,36.13
SE8_627,58.03
SE8_628,5.52
SE8_629,12.15
SE8_630,69.48
SE8_631,14.06
SE8_632,27.59
SE8_633,24.59
SE8_634,44.19
SE8_635,1.45
SE8_636,15.9
SE8_637,78.69
SE8_638,64.06
SE8_639,57.68
SE8_640,6.66
SE8_641,8.08
SE8_642,24.64
SE8_643,41.04
SE8_644,58.32
SE8_645,1.92
SE8_646,17.98
SE8_647,21.0
SE8_648,69.95
SE8_649,43.54
SE8_650,46.0
SE8_651,29.98
SE8_652,76.3
SE8_653,44.18
SE8_654,5.99
SE8_655,57.25
SE8_656,49.21
SE8_657,53.06
SE8_658,43.2
SE8_659,17.78
SE8_660,6.07
SE8_661,21.01
SE8_662,75.08
SE8_663,47.69
SE8_664,71.14
SE8_665,38.75
SE8_666,102.45
SE8_667,106.36
SE8_668,60.34
SE8_669,30.78
SE8_670,58.09
SE8_671,51.85
SE8_672,12.03
SE8_673,51.36
SE8_674,2.1
SE8_675,20.55
SE8_676,59.68
SE8_677,33.67
SE8_678,21.58
SE8_679,63.08
SE8_680,61.78
SE8_681,34.97
SE8_682,83.43
SE8_683,92.82
SE8_684,88.69
SE8_685,91.67
SE8_686,29.5
SE8_687,8.69
SE8_688,71.17
SE8_689,69.88
SE8_690,55.85
SE8_691,91.46
SE8_692,69.88
SE8_693,79.67
SE8_694,51.35
SE8_695,102.27
SE8_696,56.34
SE8_697,12.53
SE8_698,56.34
SE8_699,96.3
SE8_700,9.34
SE8_701,105.94
SE8_702,27.43
SE8_703,103.39
SE8_704,83.48
SE8_705,65.28
SE8_706,85.73
SE8_707,37.13
SE8_708,44.84
SE8_709,3.28
SE8_710,18.22
SE8_711,89.92
SE8_712,18.96
SE8_713,65.06
SE8_714,38.33
SE8_715,68.9
SE8_716,91.76
SE8_717,11.17
SE8_718,22.25
SE8_719,80.12
SE8_720,6.14
SE8_721,22.49
SE8_722,33.59
SE8_723,38.72
SE8_724,43.28
SE8_725,22.25
SE8_726,31.82
SE8_727,83.37
SE8_728,23.09
SE8_729,62.11
SE8_730,63.33
SE8_731,93.66
SE8_732,97.28
SE8_733,26.62
SE8_734,24.45
SE8_735,23.81
SE8_736,59.77
SE8_737,48.75
SE8_738,75.55
SE8_739,97.3
SE8_740,54.41
SE8_741,5.32
SE8_742,2.96
SE8_743,34.88
SE8_744,19.4
SE8_745,24.32
SE8_746,39.44
SE8_747,55.37
SE8_748,84.44
SE8_749,36.15
SE8_750,17.44
SE8_751,30.38
SE8_752,37.36
SE8_753,78.93
SE8_754,75.74
SE8_755,11.45
SE8_756,27.75
SE8_757,44.35
SE8_758,1.16
SE8_759,49.48
SE8_760,72.82
SE8_761,87.3
SE8_762,6.61
SE8_763,102.21
SE8_764,9.97
SE8_765,6.67
SE8_766,35.58
SE8_767,84.78
SE8_768,19.55
SE8_769,48.63
SE8_770,32.91
SE8_771,84.62
SE8_772,82.5
SE8_773,32.61
SE8_774,48.89
SE8_775,39.61
SE8_776,26.02
SE8_777,16.36
SE8_778,99.01
SE8_779,13.01
SE8_780,83.85
SE8_781,46.87
SE8_782,77.96
SE8_783,91.65
SE8_784,16.63
SE8_785,62.96
SE8_786,53.73
SE8_787,25.37
SE8_788,51.61
SE8_789,56.65
SE8_790,90.42
SE8_791,5.92
SE8_792,75.87
SE8_793,24.61
SE8_794,19.31
SE8_795,77.71
SE8_796,72.51
SE8_797,62.45
SE8_798,97.97
SE8_799,75.33
SE8_800,37.34
SE8_801,67.14
SE8_802,79.89
SE8_803,50.49
SE8_804,47.99
SE8_805,4.5
SE8_806,81.59
SE8_807,94.0
SE8_808,92.12
SE8_809,76.87
SE8_810,44.78
SE8_811,82.42
SE8_812,22.16
SE8_813,32.12
SE8_814,16.25
SE8_815,61.25
SE8_816,36.67
SE8_817,82.17
SE8_818,6.81
SE8_819,35.35
SE8_820,16.27
SE8_821,90.76
SE8_822,11.81
SE8_823,39.44
SE8_824,75.24
SE8_825,46.91
SE8_826,63.47
SE8_827,18.28
SE8_828,54.24
SE8_829,22.28
SE8_830,72.94
SE8_831,1.79
SE8_832,60.81
SE8_833,88.3
SE8_834,60.11
SE8_835,37.24
SE8_836,75.76
SE8_837,53.88
SE8_838,35.65
SE8_839,64.61
SE8_840,58.92
SE8_841,96.25
SE8_842,18.18
SE8_843,93.48
SE8_844,105.24
SE8_845,75.33
SE8_846,88.76
SE8_847,94.75
SE8_848,29.97
SE8_849,2.85
SE8_850,34.95
SE8_851,3.81
SE8_852,83.48
SE8_853,45.28
SE8_854,110.83
SE8_855,64.97
SE8_856,76.35
SE8_857,64.78
SE8_858,31.69
SE8_859,19.03
SE8_860,83.79
SE8_861,77.78
SE8_862,14.21
SE8_863,52.25
SE8_864,53.7
SE8_865,26.32
SE8_866,24.27
SE8_867,92.37
SE8_868,71.12
SE8_869,92.45
SE8_870,49.3
SE8_871,63.48
SE8_872,54.74
SE8_873,103.83
SE8_874,18.27
SE8_875,19.32
SE8_876,66.68
SE8_877,55.69
SE8_878,101.63
SE8_879,34.26
SE8_880,30.44
SE8_881,46.19
SE8_882,69.83
SE8_883,8.01
SE8_884,25.75
SE8_885,59.31
SE8_886,39.28
SE8_887,33.63
SE8_888,95.99
SE8_889,52.62
SE8_890,13.1
SE8_891,95.25
SE8_892,87.75
SE8_893,68.08
SE8_894,102.46
SE8_895,40.53
SE8_896,34.6
SE8_897,36.53
SE8_898,60.8
SE8_899,86.65
SE8_900,72.64
SE8_901,33.92
SE8_902,54.5
SE8_903,35.47
SE8_904,47.9
SE8_905,13.14
SE8_906,11.47
SE8_907,72.99
SE8_908,85.08
SE8_909,7.24
SE8_910,37.88
SE8_911,8.11
SE8_912,73.64
SE8_913,92.57
SE8_914,74.1
SE8_915,65.6
SE8_916,22.43
SE8_917,52.55
SE8_918,13.89
SE8_919,78.11
SE8_920,97.18
SE8_921,27.44
SE8_922,72.26
SE8_923,13.12
SE8_924,32.55
SE8_925,68.47
SE8_926,17.23
SE8_927,35.06
SE8_928,54.9
SE8_929,69.23
SE8_930,71.9
SE8_931,18.1
SE8_932,40.47
SE8_933,44.87
SE8_934,101.81
SE8_935,18.3
SE8_936,45.63
SE8_937,18.85
SE8_938,92.55
SE8_939,104.85
SE8_940,8.92
SE8_941,6.17
SE8_942,7.87
SE8_943,39.19
SE8_944,27.74
SE8_945,80.6
SE8_946,5.83
SE8_947,96.46
SE8_948,16.38
SE8_949,31.64
SE8_950,79.83
SE8_951,76.46
SE8_952,9.92
SE8_953,52.62
SE8_954,25.63
SE8_955,76.48
SE8_956,86.92
SE8_957,11.39
SE8_958,91.36
SE8_959,46.49
SE8_960,37.36
SE8_961,48.37
SE8_962,1.09
SE8_963,34.76
SE8_964,30.23
SE8_965,99.12
SE8_966,48.22
SE8_967,73.7
SE8_968,62.83
SE8_969,89.57
SE8_970,83.29
SE8_971,53.5
SE8_972,33.95
SE8_973,4.05
SE8_974,59.3
SE8_975,69.22
SE8_976,92.64
SE8_977,25.84
SE8_978,84.09
SE8_979,12.14
SE8_980,23.56
SE8_981,32.16
SE8_982,112.77
SE8_983,36.85
SE8_984,14.17
SE8_985,88.87
SE8_986,49.43
SE8_987,16.74
SE8_988,19.1
SE8_989,41.19
SE8_990,75.41
SE8_991,60.67
SE8_992,76.42
SE8_993,69.67
SE8_994,90.75
SE8_995,6.45
SE8_996,92.14
SE8_997,45.03
SE8_998,101.43
SE8_999,4.95
SE8_1000,42.37
SE8_1001,79.45
SE8_1002,52.02
SE8_1003,22.01
SE8_1004,68.75
SE8_1005,52.06
SE8_1006,48.85
SE8_1007,62.62
SE8_1008,59.72
SE8_1009,66.26
SE8_1010,30.18
SE8_1011,55.66
SE8_1012,84.24
SE8_1013,46.31
SE8_1014,45.98
SE8_1015,42.49
SE8_1016,31.35
SE8_1017,74.49
SE8_1018,49.61
SE8_1019,8.01
SE8_1020,19.9
SE8_1021,33.2
SE8_1022,7.58
SE8_1023,36.41
SE8_1024,52.69
SE8_1025,25.6
SE8_1026,55.0
SE8_1027,15.58
SE8_1028,85.15
SE8_1029,69.83
SE8_1030,13.27
SE8_1031,22.56
SE8_1032,6.41
SE8_1033,67.34
SE8_1034,85.05
SE8_1035,63.74
SE8_1036,55.0
SE8_1037,36.02
SE8_1038,26.02
SE8_1039,74.38
SE8_1040,47.95
SE8_1041,20.13
SE8_1042,82.15
SE8_1043,50.87
SE8_1044,55.86
SE8_1045,46.99
SE8_1046,10.9
SE8_1047,27.81
SE8_1048,94.14
SE8_1049,81.08
SE8_1050,74.41
SE8_1051,36.13
SE8_1052,97.28
SE8_1053,39.32
SE8_1054,95.05
SE8_1055,89.18
SE8_1056,80.41
SE8_1057,28.93
SE8_1058,88.93
SE8_1059,17.15
SE8_1060,37.87
SE8_1061,45.59
SE8_1062,56.48
SE8_1063,74.86
SE8_1064,79.55
SE8_1065,56.12
SE8_1066,69.62
SE8_1067,105.45
SE8_1068,17.31
SE8_1069,86.31
SE8_1070,22.14
SE8_1071,73.63
SE8_1072,20.7
SE8_1073,46.82
SE8_1074,52.24
SE8_1075,72.36
SE8_1076,23.21
SE8_1077,25.01
SE8_1078,54.11
SE8_1079,37.69
SE8_1080,16.46
SE8_1081,38.68
SE8_1082,34.49
SE8_1083,81.91
SE8_1084,33.3
SE8_1085,75.54
SE8_1086,83.85
SE8_1087,60.19
SE8_1088,31.94
SE8_1089,82.34
SE8_1090,91.72
SE8_1091,21.8
SE8_1092,34.78
SE8_1093,23.38
SE8_1094,5.31
SE8_1095,86.11
SE8_1096,98.53
SE8_1097,77.2
SE8_1098,33.85
SE8_1099,21.75
SE8_1100,1.78
SE8_1101,40.63
SE8_1102,6.77
SE8_1103,20.79
SE8_1104,76.94
SE8_1105,71.75
SE8_1106,100.16
SE8_1107,41.08
SE8_1108,35.61
SE8_1109,31.71
SE8_1110,33.62
SE8_1111,4.18
SE8_1112,56.01
SE8_1113,82.88
SE8_1114,1.46
SE8_1115,45.11
SE8_1116,70.79
SE8_1117,87.27
SE8_1118,86.09
SE8_1119,22.04
SE8_1120,36.3
SE8_1121,35.74
SE8_1122,2.99
SE8_1123,60.6
SE8_1124,23.81
SE8_1125,100.56
SE8_1126,31.79
SE8_1127,83.83
SE8_1128,20.78
SE8_1129,3.53
SE8_1130,30.81
SE8_1131,34.9
SE8_1132,18.2
SE8_1133,26.61
SE8_1134,91.74
SE8_1135,75.49
SE8_1136,15.58
SE8_1137,18.64
SE8_1138,4.22
SE8_1139,19.7
SE8_1140,56.88
SE8_1141,21.16
SE8_1142,57.48
SE8_1143,10.98
SE8_1144,70.9
SE8_1145,88.3
SE8_1146,83.79
SE8_1147,55.39
SE8_1148,43.06
SE8_1149,95.01
SE8_1150,82.52
SE8_1151,9.88
SE8_1152,10.26
SE8_1153,37.66
SE8_1154,17.07
SE8_1155,67.45
SE8_1156,47.32
SE8_1157,102.19
SE8_1158,43.13
SE8_1159,69.81
SE8_1160,44.88
SE8_1161,77.09
SE8_1162,60.8
SE8_1163,37.93
SE8_1164,75.79
SE8_1165,57.58
SE8_1166,76.0
SE8_1167,75.83
SE8_1168,59.95
SE8_1169,85.05
SE8_1170,80.13
SE8_1171,101.14
SE8_1172,9.9
SE8_1173,45.25
SE8_1174,3.72
SE8_1175,20.89
SE8_1176,26.31
SE8_1177,51.79
SE8_1178,80.69
SE8_1179,84.02
SE8_1180,64.4
SE8_1181,75.8
SE8_1182,5.57
SE8_1183,64.31
SE8_1184,80.35
SE8_1185,32.04
SE8_1186,31.86
SE8_1187,60.69
SE8_1188,57.96
SE8_1189,68.2
SE8_1190,16.8
SE8_1191,10.78
SE8_1192,30.61
SE8_1193,14.65
SE8_1194,69.4
SE8_1195,67.21
SE8_1196,3.95
SE8_1197,31.67
SE8_1198,72.13
SE8_1199,75.39
SE8_1200,16.69
SE8_1201,40.25
SE8_1202,59.83
SE8_1203,78.81
SE8_1204,30.41
SE8_1205,86.45
SE8_1206,64.55
SE8_1207,4.13
SE8_1208,48.47
SE8_1209,72.66
SE8_1210,24.24
SE8_1211,30.54
SE8_1212,88.97
SE8_1213,54.92
SE8_1214,65.85
SE8_1215,36.11
SE8_1216,17.72
SE8_1217,81.91
SE8_1218,52.49
SE8_1219,29.12
SE8_1220,39.38
SE8_1221,25.17
SE8_1222,39.92
SE8_1223,6.79
SE8_1224,8.25
SE8_1225,4.97
SE8_1226,5.35
SE8_1227,38.14
SE8_1228,62.92
SE8_1229,42.53
SE8_1230,83.61
SE8_1231,61.17
SE8_1232,88.43
SE8_1233,75.41
SE8_1234,96.47
SE8_1235,44.57
SE8_1236,77.49
SE8_1237,34.44
SE8_1238,10.31
SE8_1239,76.36
SE8_1240,99.89
SE8_1241,4.31
SE8_1242,4.74
SE8_1243,100.12
SE8_1244,73.34
SE8_1245,70.32
SE8_1246,75.04
SE8_1247,11.74
SE8_1248,71.73
SE8_1249,39.47
SE8_1250,13.85
SE8_1251,71.18
SE8_1252,51.96
SE8_1253,39.97
SE8_1254,3.82
SE8_1255,45.49
SE8_1256,13.85
SE8_1257,33.93
SE8_1258,71.98
SE8_1259,20.92
SE8_1260,31.45
SE8_1261,37.46
SE8_1262,91.9
SE8_1263,13.33
SE8_1264,86.62
SE8_1265,2.78
SE8_1266,67.94
SE8_1267,97.82
SE8_1268,67.73
SE8_1269,1.94
SE8_1270,20.75
SE8_1271,65.99
SE8_1272,28.54
SE8_1273,78.89
SE8_1274,78.3
SE8_1275,15.07
SE8_1276,10.75
SE8_1277,29.86
SE8_1278,84.13
SE8_1279,94.1
SE8_1280,22.07
SE8_1281,11.8
SE8_1282,42.7
SE8_1283,36.99
SE8_1284,71.0
SE8_1285,13.26
SE8_1286,75.05
SE8_1287,5.42
SE8_1288,4.81
SE8_1289,35.32
SE8_1290,24.5
SE8_1291,65.93
SE8_1292,46.74
SE8_1293,34.54
SE8_1294,71.18
SE8_1295,29.01
SE8_1296,45.12
SE8_1297,71.21
SE8_1298,93.01
SE8_1299,67.52
SE8_1300,29.46
SE8_1301,13.8
SE8_1302,66.68
SE8_1303,83.33
SE8_1304,76.84
SE8_1305,31.73
SE8_1306,54.56
SE8_1307,54.27
SE8_1308,103.33
SE8_1309,69.32
SE8_1310,16.7
SE8_1311,32.64
SE8_1312,87.54
SE8_1313,26.44
SE8_1314,15.57
SE8_1315,16.81
SE8_1316,37.18
SE8_1317,9.27
SE8_1318,10.65
SE8_1319,85.79
SE8_1320,66.11
SE8_1321,26.05
SE8_1322,71.18
SE8_1323,59.27
SE8_1324,62.83
SE8_1325,48.33
SE8_1326,36.22
SE8_1327,43.44
SE8_1328,56.9
SE8_1329,88.27
SE8_1330,17.18
SE8_1331,6.8
SE8_1332,34.97
SE8_1333,9.81
SE8_1334,67.48
SE8_1335,74.09
SE8_1336,76.32
SE8_1337,11.65
SE8_1338,57.98
SE8_1339,40.16
SE8_1340,34.41
SE8_1341,23.7
SE8_1342,16.9
SE8_1343,56.88
SE8_1344,48.66
SE8_1345,77.82
SE8_1346,38.21
SE8_1347,35.9
SE8_1348,31.99
SE8_1349,68.59
SE8_1350,47.89
SE8_1351,29.53
SE8_1352,28.08
SE8_1353,35.98
SE8_1354,68.12
SE8_1355,90.17
SE8_1356,85.53
SE8_1357,37.39
SE8_1358,33.28
SE8_1359,38.44
SE8_1360,26.6
SE8_1361,3.24
SE8_1362,52.44
SE8_1363,32.76
SE8_1364,54.33
SE8_1365,14.2
SE8_1366,86.2
SE8_1367,21.4
SE8_1368,86.7
SE8_1369,48.35
SE8_1370,95.06
SE8_1371,93.68
SE8_1372,94.0
SE8_1373,14.61
SE8_1374,73.7
SE8_1375,5.19
SE8_1376,58.33
SE8_1377,74.66
SE8_1378,42.72
SE8_1379,77.45
SE8_1380,97.69
SE8_1381,93.71
SE8_1382,77.42
SE8_1383,61.2
SE8_1384,61.77
SE8_1385,89.09
SE8_1386,5.76
SE8_1387,8.02
SE8_1388,30.58
SE8_1389,71.58
SE8_1390,60.8
SE8_1391,40.23
SE8_1392,39.57
SE8_1393,8.38
SE8_1394,18.84
SE8_1395,28.97
SE8_1396,68.08
SE8_1397,81.35
SE8_1398,49.14
SE8_1399,92.02
SE8_1400,10.95
SE8_1401,65.68
SE8_1402,52.57
SE8_1403,60.35
SE8_1404,50.61
SE8_1405,22.31
SE8_1406,29.99
SE8_1407,98.04
SE8_1408,29.22
SE8_1409,28.5
SE8_1410,100.48
SE8_1411,12.58
SE8_1412,52.83
SE8_1413,46.03
SE8_1414,6.06
SE8_1415,56.53
SE8_1416,15.54
SE8_1417,80.69
SE8_1418,88.93
SE8_1419,83.16
SE8_1420,28.87
SE8_1421,82.4
SE8_1422,27.34
SE8_1423,99.29
SE8_1424,70.2
SE8_1425,54.2
SE8_1426,33.86
SE8_1427,42.0
SE8_1428,18.21
SE8_1429,1.2
SE8_1430,62.93
SE8_1431,88.63
SE8_1432,9.24
SE8_1433,44.49
SE8_1434,74.6
SE8_1435,35.81
SE8_1436,33.9
SE8_1437,9.06
SE8_1438,2.13
SE8_1439,89.1
SE8_1440,57.3
SE8_1441,15.34
SE8_1442,77.5
SE8_1443,11.05
SE8_1444,80.62
SE8_1445,41.33
SE8_1446,88.39
SE8_1447,41.02
SE8_1448,68.42
SE8_1449,77.56
SE8_1450,12.12
SE8_1451,101.27
SE8_1452,57.43
SE8_1453,101.01
SE8_1454,26.63
SE8_1455,61.26
SE8_1456,68.25
SE8_1457,65.19
SE8_1458,76.76
SE8_1459,28.19
SE8_1460,77.43
SE8_1461,51.72
SE8_1462,18.13
SE8_1463,83.33
SE8_1464,79.33
SE8_1465,44.34
SE8_1466,78.73
SE8_1467,27.43
SE8_1468,28.73
SE8_1469,11.61
SE8_1470,31.37
SE8_1471,67.08
SE8_1472,36.81
SE8_1473,61.98
SE8_1474,97.18
SE8_1475,76.37
SE8_1476,78.68
SE8_1477,91.3
SE8_1478,37.23
SE8_1479,35.87
SE8_1480,27.48
SE8_1481,26.22
SE8_1482,70.02
SE8_1483,33.97
SE8_1484,69.12
SE8_1485,23.15
SE8_1486,71.13
SE8_1487,9.07
SE8_1488,84.16
SE8_1489,12.92
SE8_1490,88.93
SE8_1491,2.14
SE8_1492,54.82
SE8_1493,43.2
SE8_1494,76.26
SE8_1495,71.98
SE8_1496,79.12
SE8_1497,16.5
SE8_1498,60.09
SE8_1499,18.47
SE8_1500,5.72
SE8_1501,22.79
SE8_1502,32.9
SE8_1503,39.36
SE8_1504,15.71
SE8_1505,56.41
SE8_1506,15.0
SE8_1507,63.79
SE8_1508,76.58
SE8_1509,10.05
SE8_1510,31.08
SE8_1511,67.14
SE8_1512,60.85
SE8_1513,67.13
SE8_1514,8.27
SE8_1515,69.38
SE8_1516,88.01
SE8_1517,58.41
SE8_1518,69.42
SE8_1519,83.77
SE8_1520,10.18
SE8_1521,72.17
SE8_1522,45.95
SE8_1523,19.77
SE8_1524,4.35
SE8_1525,71.2
SE8_1526,1.37
SE8_1527,50.47
SE8_1528,13.11
SE8_1529,94.75
SE8_1530,35.95
SE8_1531,54.24
SE8_1532,64.3
SE8_1533,3.38
SE8_1534,24.32
SE8_1535,6.32
SE8_1536,72.47
SE8_1537,61.26
SE8_1538,13.21
SE8_1539,75.11
SE8_1540,49.9
SE8_1541,66.01
SE8_1542,35.91
SE8_1543,22.61
SE8_1544,67.08
SE8_1545,63.17
SE8_1546,49.36
SE8_1547,17.48
SE8_1548,17.44
SE8_1549,55.02
SE8_1550,43.16
SE8_1551,37.15
SE8_1552,65.63
SE8_1553,42.97
SE8_1554,41.31
SE8_1555,94.74
SE8_1556,96.23
SE8_1557,23.02
SE8_1558,13.3
SE8_1559,59.25
SE8_1560,18.13
SE8_1561,101.71
SE8_1562,83.66
SE8_1563,27.92
SE8_1564,52.84
SE8_1565,43.98
SE8_1566,32.59
SE8_1567,53.82
SE8_1568,56.3
SE8_1569,9.93
SE8_1570,44.06
SE8_1571,38.22
SE8_1572,87.55
SE8_1573,33.42
SE8_1574,44.9
SE8_1575,53.19
SE8_1576,34.61
SE8_1577,20.6
SE8_1578,79.17
SE8_1579,46.74
SE8_1580,23.97
SE8_1581,1.36
SE8_1582,55.84
SE8_1583,91.37
SE8_1584,67.74
SE8_1585,95.51
SE8_1586,25.89
SE8_1587,1.54
SE8_1588,83.75
SE8_1589,67.85
SE8_1590,69.3
SE8_1591,29.87
SE8_1592,56.12
SE8_1593,79.16
SE8_1594,107.99
SE8_1595,82.7
SE8_1596,25.89
SE8_1597,92.65
SE8_1598,65.39
SE8_1599,91.31
SE8_1600,12.65
SE8_1601,89.8
SE8_1602,33.62
SE8_1603,40.92
SE8_1604,12.18
SE8_1605,36.19
SE8_1606,48.06
SE8_1607,89.58
SE8_1608,94.37
SE8_1609,49.82
SE8_1610,7.91
SE8_1611,92.21
SE8_1612,98.46
SE8_1613,7.79
SE8_1614,11.7
SE8_1615,68.72
SE8_1616,38.5
SE8_1617,79.54
SE8_1618,71.24
SE8_1619,39.72
SE8_1620,76.74
SE8_1621,65.94
SE8_1622,79.36
SE8_1623,47.77
SE8_1624,95.71
SE8_1625,80.81
SE8_1626,77.63
SE8_1627,41.52
SE8_1628,74.25
SE8_1629,25.38
SE8_1630,66.6
SE8_1631,71.64
SE8_1632,26.46
SE8_1633,43.11
SE8_1634,38.66
SE8_1635,91.77
SE8_1636,92.17
SE8_1637,24.32
SE8_1638,1.47
SE8_1639,14.89
SE8_1640,1.88
SE8_1641,55.9
SE8_1642,12.94
SE8_1643,76.76
SE8_1644,63.2
SE8_1645,66.67
SE8_1646,17.65
SE8_1647,61.04
SE8_1648,56.11
SE8_1649,40.29
SE8_1650,35.49
SE8_1651,28.27
SE8_1652,13.43
SE8_1653,26.6
SE8_1654,67.72
SE8_1655,77.99
SE8_1656,35.93
SE8_1657,76.63
SE8_1658,80.79
SE8_1659,25.47
SE8_1660,46.96
SE8_1661,43.49
SE8_1662,29.99
SE8_1663,86.58
SE8_1664,95.15
SE8_1665,72.98
SE8_1666,57.82
SE8_1667,10.04
SE8_1668,60.23
SE8_1669,70.51
SE8_1670,0.96
SE8_1671,40.34
SE8_1672,11.56
SE8_1673,83.26
SE8_1674,34.87
SE8_1675,108.36
SE8_1676,33.84
SE8_1677,26.88
SE8_1678,55.54
SE8_1679,55.19
SE8_1680,93.74
SE8_1681,4.51
SE8_1682,80.28
SE8_1683,65.99
SE8_1684,87.96
SE8_1685,61.74
SE8_1686,92.03
SE8_1687,62.17
SE8_1688,22.31
SE8_1689,80.24
SE8_1690,7.09
SE8_1691,94.87
SE8_1692,34.98
SE8_1693,28.85
SE8_1694,81.81
SE8_1695,61.39
SE8_1696,18.29
SE8_1697,77.69
SE8_1698,37.46
SE8_1699,74.51
SE8_1700,34.3
SE8_1701,77.34
SE8_1702,65.86
SE8_1703,52.91
SE8_1704,107.48
SE8_1705,103.48
SE8_1706,38.6
SE8_1707,36.33
SE8_1708,58.06
SE8_1709,43.5
SE8_1710,113.86
SE8_1711,48.79
SE8_1712,7.53
SE8_1713,7.14
SE8_1714,73.25
SE8_1715,83.59
SE8_1716,12.32
SE8_1717,71.37
SE8_1718,36.09
SE8_1719,60.76
SE8_1720,76.84
SE8_1721,56.82
SE8_1722,35.28
SE8_1723,45.39
SE8_1724,44.06
SE8_1725,61.49
SE8_1726,45.73
SE8_1727,40.62
SE8_1728,49.27
SE8_1729,56.83
SE8_1730,7.61
SE8_1731,11.63
SE8_1732,16.86
SE8_1733,69.86
SE8_1734,44.98
SE8_1735,96.02
SE8_1736,76.79
SE8_1737,65.23
SE8_1738,39.06
SE8_1739,45.21
SE8_1740,65.65
SE8_1741,54.05
SE8_1742,52.32
SE8_1743,67.46
SE8_1744,30.15
SE8_1745,66.34
SE8_1746,34.54
SE8_1747,29.57
SE8_1748,85.89
SE8_1749,51.24
SE8_1750,3.85
SE8_1751,13.58
SE8_1752,100.55
SE8_1753,37.37
SE8_1754,1.7
SE8_1755,69.29
SE8_1756,58.84
SE8_1757,58.18
SE8_1758,87.42
SE8_1759,69.69
SE8_1760,24.72
SE8_1761,70.23
SE8_1762,92.62
SE8_1763,18.57
SE8_1764,101.02
SE8_1765,40.45
SE8_1766,43.05
SE8_1767,7.16
SE8_1768,4.06
SE8_1769,53.11
SE8_1770,74.59
SE8_1771,28.29
SE8_1772,46.68
SE8_1773,90.82
SE8_1774,3.99
SE8_1775,17.73
SE8_1776,62.24
SE8_1777,68.76
SE8_1778,8.35
SE8_1779,98.59
SE8_1780,52.43
SE8_1781,39.03
SE8_1782,1.12
SE8_1783,59.2
SE8_1784,64.74
SE8_1785,10.49
SE8_1786,93.14
SE8_1787,5.84
SE8_1788,98.1
SE8_1789,72.05
SE8_1790,49.24
SE8_1791,2.63
SE8_1792,72.54
SE8_1793,39.19
SE8_1794,34.68
SE8_1795,71.76
