20150519
SE1_1|33.61
SE1_2|9.17
SE1_3|45.41
SE1_4|21.56
SE1_5|17.22
SE1_6|42.66
SE1_7|56.97
SE1_8|59.17
SE1_9|18.54
SE1_10|26.9
SE1_11|61.42
SE1_12|43.56
SE1_13|103.66
SE1_14|82.37
SE1_15|84.63
SE1_16|18.45
SE1_17|5.33
SE1_18|25.48
SE1_19|87.45
SE1_20|98.94
SE1_21|44.34
SE1_22|45.86
SE1_23|18.96
SE1_24|34.45
SE1_25|24.67
SE1_26|36.39
SE1_27|19.68
SE1_28|9.14
SE1_29|74.89
SE1_30|13.03
SE1_31|95.51
SE1_32|68.95
SE1_33|82.42
SE1_34|91.37
SE1_35|14.89
SE1_36|50.75
SE1_37|50.42
SE1_38|67.65
SE1_39|96.44
SE1_40|37.59
SE1_41|62.29
SE1_42|2.3
SE1_43|59.85
SE1_44|62.77
SE1_45|40.78
SE1_46|52.81
SE1_47|6.12
SE1_48|87.31
SE1_49|88.77
SE1_50|82.97
SE1_51|14.23
SE1_52|9.32
SE1_53|30.45
SE1_54|4.29
SE1_55|27.86
SE1_56|41.69
SE1_57|97.9
SE1_58|12.82
SE1_59|91.31
SE1_60|70.45
SE1_61|20.63
SE1_62|29.35
SE1_63|49.09
SE1_64|22.31
SE1_65|25.91
SE1_66|56.54
SE1_67|77.76
SE1_68|36.76
SE1_69|86.81
SE1_70|55.47
SE1_71|68.26
SE1_72|62.18
SE1_73|74.16
SE1_74|81.99
SE1_75|33.13
SE1_76|5.12
SE1_77|66.13
SE1_78|20.08
SE1_79|35.27
SE1_80|52.37
SE1_81|29.44
SE1_82|3.01
SE1_83|94.79
SE1_84|63.23
SE1_85|9.33
SE1_86|38.47
SE1_87|14.04
SE1_88|73.36
SE1_89|12.78
SE1_90|8.09
SE1_91|64.46
SE1_92|1.65
SE1_93|79.93
SE1_94|77.78
SE1_95|42.22
SE1_96|10.92
SE1_97|72.44
SE1_98|107.14
SE1_99|74.94
SE1_100|94.22
SE1_101|105.9
SE1_102|49.35
SE1_103|54.99
SE1_104|21.45
SE1_105|92.74
SE1_106|37.98
SE1_107|66.41
SE1_108|48.01
SE1_109|7.41
SE1_110|76.82
SE1_111|25.48
SE1_112|4.99
SE1_113|58.74
SE1_114|89.14
SE1_115|87.16
SE1_116|118.94
SE1_117|22.43
SE1_118|3.06
SE1_119|9.67
SE1_120|34.41
SE1_121|55.73
SE1_122|13.42
SE1_123|37.6
SE1_124|36.55
SE1_125|34.73
SE1_126|23.53
SE1_127|80.11
SE1_128|40.76
SE1_129|78.11
SE1_130|15.2
SE1_131|23.0
SE1_132|69.01
SE1_133|38.71
SE1_134|68.64
SE1_135|48.43
SE1_136|37.94
SE1_137|93.81
SE1_138|99.74
SE1_139|49.96
SE1_140|12.56
SE1_141|77.33
SE1_142|18.65
SE1_143|68.02
SE1_144|14.23
SE1_145|76.49
SE1_146|63.38
SE1_147|25.16
SE1_148|84.34
SE1_149|21.47
SE1_150|73.34
SE1_151|4.97
SE1_152|27.68
SE1_153|3.88
SE1_154|81.9
SE1_155|2.28
SE1_156|90.97
SE1_157|27.67
SE1_158|78.26
SE1_159|65.68
SE1_160|55.81
SE1_161|87.28
SE1_162|54.89
SE1_163|8.55
SE1_164|44.69
SE1_165|54.68
SE1_166|18.29
SE1_167|46.76
SE1_168|38.38
SE1_169|28.46
SE1_170|95.92
SE1_171|12.05
SE1_172|15.74
SE1_173|39.73
SE1_174|14.03
SE1_175|52.83
SE1_176|2.85
SE1_177|64.86
SE1_178|34.65
SE1_179|66.74
SE1_180|5.45
SE1_181|42.11
SE1_182|83.27
SE1_183|2.94
SE1_184|79.91
SE1_185|69.98
SE1_186|53.31
SE1_187|64.28
SE1_188|70.97
SE1_189|6.95
SE1_190|26.66
SE1_191|80.16
SE1_192|85.84
SE1_193|27.59
SE1_194|91.19
SE1_195|59.61
SE1_196|31.43
SE1_197|108.59
SE1_198|66.43
SE1_199|52.1
SE1_200|66.23
SE1_201|31.26
SE1_202|99.63
SE1_203|47.11
SE1_204|32.87
SE1_205|1.25
SE1_206|73.49
SE1_207|56.03
SE1_208|62.51
SE1_209|95.68
SE1_210|17.69
SE1_211|76.46
SE1_212|1.1
SE1_213|12.21
SE1_214|5.02
SE1_215|15.04
SE1_216|91.49
SE1_217|35.59
SE1_218|8.59
SE1_219|46.68
SE1_220|85.05
SE1_221|65.88
SE1_222|39.57
SE1_223|42.13
SE1_224|25.4
SE1_225|72.82
SE1_226|12.57
SE1_227|1.76
SE1_228|54.86
SE1_229|30.07
SE1_230|104.5
SE1_231|26.94
SE1_232|2.89
SE1_233|53.49
SE1_234|19.51
SE1_235|121.62
SE1_236|83.95
SE1_237|84.25
SE1_238|27.53
SE1_239|53.16
SE1_240|38.53
SE1_241|7.43
SE1_242|67.19
SE1_243|81.78
SE1_244|94.82
SE1_245|91.72
SE1_246|49.27
SE1_247|99.4
SE1_248|91.15
SE1_249|14.23
SE1_250|11.93
SE1_251|40.89
SE1_252|38.58
SE1_253|100.47
SE1_254|26.5
SE1_255|73.04
SE1_256|6.46
SE1_257|68.7
SE1_258|92.57
SE1_259|63.55
SE1_260|27.43
SE1_261|33.51
SE1_262|85.04
SE1_263|74.82
SE1_264|122.05
SE1_265|31.61
SE1_266|67.61
SE1_267|18.26
SE1_268|17.44
SE1_269|45.07
SE1_270|62.93
SE1_271|18.97
SE1_272|29.21
SE1_273|93.68
SE1_274|18.22
SE1_275|112.24
SE1_276|67.12
SE1_277|91.21
SE1_278|77.44
SE1_279|39.76
SE1_280|57.3
SE1_281|38.23
SE1_282|26.92
SE1_283|68.73
SE1_284|14.15
SE1_285|57.97
SE1_286|78.17
SE1_287|41.87
SE1_288|104.99
SE1_289|45.9
SE1_290|7.13
SE1_291|26.04
SE1_292|19.7
SE1_293|100.99
SE1_294|47.59
SE1_295|70.16
SE1_296|77.51
SE1_297|57.12
SE1_298|55.66
SE1_299|2.79
SE1_300|49.52
SE1_301|35.95
SE1_302|32.18
SE1_303|79.4
SE1_304|9.98
SE1_305|82.35
SE1_306|62.97
SE1_307|13.05
SE1_308|62.51
SE1_309|42.06
SE1_310|6.59
SE1_311|73.21
SE1_312|12.39
SE1_313|34.69
SE1_314|68.06
SE1_315|49.39
SE1_316|12.9
SE1_317|106.58
SE1_318|19.45
SE1_319|46.7
SE1_320|67.59
SE1_321|49.72
SE1_322|51.96
SE1_323|45.92
SE1_324|25.65
SE1_325|97.13
SE1_326|78.12
SE1_327|8.43
SE1_328|39.89
SE1_329|87.85
SE1_330|7.15
SE1_331|41.45
SE1_332|80.77
SE1_333|1.75
SE1_334|4.61
SE1_335|32.18
SE1_336|30.27
SE1_337|119.42
SE1_338|102.78
SE1_339|55.24
SE1_340|73.95
SE1_341|81.99
SE1_342|80.85
SE1_343|72.69
SE1_344|20.73
SE1_345|17.26
SE1_346|114.57
SE1_347|103.84
SE1_348|54.22
SE1_349|21.51
SE1_350|24.48
SE1_351|89.32
SE1_352|77.75
SE1_353|26.54
SE1_354|8.07
SE1_355|71.85
SE1_356|44.89
SE1_357|50.22
SE1_358|15.59
SE1_359|36.3
SE1_360|53.15
SE1_361|35.21
SE1_362|14.39
SE1_363|82.8
SE1_364|41.55
SE1_365|88.06
SE1_366|50.25
SE1_367|66.15
SE1_368|39.39
SE1_369|33.11
SE1_370|75.42
SE1_371|12.91
SE1_372|82.05
SE1_373|51.71
SE1_374|29.17
SE1_375|81.42
SE1_376|105.14
SE1_377|43.04
SE1_378|10.45
SE1_379|99.5
SE1_380|67.86
SE1_381|5.12
SE1_382|39.84
SE1_383|19.98
SE1_384|2.12
SE1_385|6.64
SE1_386|73.55
SE1_387|37.8
SE1_388|86.63
SE1_389|20.79
SE1_390|54.85
SE1_391|13.63
SE1_392|75.9
SE1_393|77.24
SE1_394|17.06
SE1_395|46.35
SE1_396|7.37
SE1_397|41.3
SE1_398|35.61
SE1_399|88.93
SE1_400|83.67
SE1_401|59.62
SE1_402|8.1
SE1_403|44.2
SE1_404|58.76
SE1_405|39.9
SE1_406|33.97
SE1_407|35.73
SE1_408|20.8
SE1_409|75.39
SE1_410|25.66
SE1_411|4.19
SE1_412|67.45
SE1_413|44.06
SE1_414|80.77
SE1_415|58.4
SE1_416|58.41
SE1_417|1.04
SE1_418|18.82
SE1_419|68.14
SE1_420|30.8
SE1_421|0.95
SE1_422|43.65
SE1_423|64.35
SE1_424|56.55
SE1_425|66.97
SE1_426|60.14
SE1_427|22.35
SE1_428|70.7
SE1_429|46.13
SE1_430|81.38
SE1_431|58.91
SE1_432|80.04
SE1_433|74.73
SE1_434|42.21
SE1_435|50.17
SE1_436|82.79
SE1_437|54.0
SE1_438|99.77
SE1_439|83.7
SE1_440|75.18
SE1_441|53.79
SE1_442|90.04
SE1_443|91.19
SE1_444|41.87
SE1_445|104.12
SE1_446|56.7
SE1_447|44.03
SE1_448|96.36
SE1_449|3.11
SE1_450|18.1
SE1_451|3.29
SE1_452|89.89
SE1_453|23.71
SE1_454|72.21
SE1_455|91.86
SE1_456|75.97
SE1_457|1.56
SE1_458|60.43
SE1_459|62.67
SE1_460|68.51
SE1_461|45.86
SE1_462|46.03
SE1_463|63.23
SE1_464|21.23
SE1_465|25.73
SE1_466|58.37
SE1_467|54.13
SE1_468|12.45
SE1_469|80.11
SE1_470|37.03
SE1_471|26.2
SE1_472|27.69
SE1_473|73.36
SE1_474|61.16
SE1_475|48.5
SE1_476|50.03
SE1_477|69.18
SE1_478|82.94
SE1_479|108.22
SE1_480|34.6
SE1_481|18.4
SE1_482|97.96
SE1_483|20.63
SE1_484|41.36
SE1_485|57.33
SE1_486|29.99
SE1_487|12.51
SE1_488|10.4
SE1_489|4.23
SE1_490|20.6
SE1_491|61.99
SE1_492|98.75
SE1_493|63.24
SE1_494|90.27
SE1_495|57.55
SE1_496|21.34
SE1_497|2.01
SE1_498|31.91
SE1_499|23.84
SE1_500|3.22
SE1_501|59.44
SE1_502|25.53
SE1_503|54.99
SE1_504|3.06
SE1_505|5.81
SE1_506|20.23
SE1_507|39.41
SE1_508|1.89
SE1_509|76.86
SE1_510|39.96
SE1_511|86.7
SE1_512|76.26
SE1_513|9.85
SE1_514|56.49
SE1_515|30.29
SE1_516|19.39
SE1_517|14.32
SE1_518|11.68
SE1_519|59.97
SE1_520|72.88
SE1_521|74.31
SE1_522|98.23
SE1_523|99.1
SE1_524|19.85
SE1_525|65.1
SE1_526|21.41
SE1_527|42.57
SE1_528|48.34
SE1_529|11.74
SE1_530|28.82
SE1_531|59.41
SE1_532|3.16
SE1_533|51.41
SE1_534|86.22
SE1_535|80.51
SE1_536|18.69
SE1_537|78.99
SE1_538|2.13
SE1_539|74.38
SE1_540|29.03
SE1_541|62.78
SE1_542|55.68
SE1_543|3.35
SE1_544|29.14
SE1_545|38.87
SE1_546|67.06
SE1_547|72.71
SE1_548|89.26
SE1_549|66.87
SE1_550|79.33
SE1_551|71.44
SE1_552|40.01
SE1_553|71.17
SE1_554|18.42
SE1_555|40.26
SE1_556|5.21
SE1_557|101.42
SE1_558|48.91
SE1_559|41.71
SE1_560|77.42
SE1_561|57.56
SE1_562|33.98
SE1_563|89.42
SE1_564|82.33
SE1_565|136.33
SE1_566|58.36
SE1_567|96.52
SE1_568|74.9
SE1_569|64.8
SE1_570|9.3
SE1_571|76.49
SE1_572|30.35
SE1_573|100.8
SE1_574|48.23
SE1_575|74.9
SE1_576|9.75
SE1_577|73.83
SE1_578|46.67
SE1_579|10.62
SE1_580|62.38
SE1_581|104.42
SE1_582|9.93
SE1_583|87.4
SE1_584|35.55
SE1_585|57.26
SE1_586|98.09
SE1_587|58.38
SE1_588|20.38
SE1_589|89.32
SE1_590|38.88
SE1_591|55.14
SE1_592|36.54
SE1_593|36.84
SE1_594|82.73
SE1_595|31.21
SE1_596|25.75
SE1_597|63.0
SE1_598|96.94
SE1_599|63.87
SE1_600|51.51
SE1_601|27.87
SE1_602|41.35
SE1_603|40.52
SE1_604|11.29
SE1_605|29.31
SE1_606|58.65
SE1_607|94.18
SE1_608|56.44
SE1_609|9.31
SE1_610|25.69
SE1_611|68.28
SE1_612|59.14
SE1_613|7.46
SE1_614|98.4
SE1_615|78.13
SE1_616|77.85
SE1_617|87.34
SE1_618|33.1
SE1_619|35.92
SE1_620|3.78
SE1_621|31.89
SE1_622|63.59
SE1_623|21.69
SE1_624|32.29
SE1_625|75.77
SE1_626|34.95
SE1_627|57.77
SE1_628|79.73
SE1_629|28.08
SE1_630|72.87
SE1_631|14.57
SE1_632|68.04
SE1_633|62.47
SE1_634|96.18
SE1_635|58.15
SE1_636|10.5
SE1_637|67.03
SE1_638|87.32
SE1_639|62.44
SE1_640|95.48
SE1_641|71.96
SE1_642|78.11
SE1_643|66.16
SE1_644|22.22
SE1_645|44.82
SE1_646|66.86
SE1_647|20.43
SE1_648|81.72
SE1_649|49.81
SE1_650|79.47
SE1_651|33.34
SE1_652|31.08
SE1_653|47.1
SE1_654|46.89
SE1_655|21.29
SE1_656|11.49
SE1_657|73.69
SE1_658|23.51
SE1_659|23.77
SE1_660|28.57
SE1_661|27.04
SE1_662|6.71
SE1_663|97.42
SE1_664|74.76
SE1_665|75.08
SE1_666|68.19
SE1_667|79.8
SE1_668|68.56
SE1_669|10.31
SE1_670|8.75
SE1_671|10.75
SE1_672|122.13
SE1_673|61.26
SE1_674|11.17
SE1_675|42.29
SE1_676|48.08
SE1_677|21.27
SE1_678|53.39
SE1_679|18.08
SE1_680|19.4
SE1_681|27.93
SE1_682|16.02
SE1_683|1.34
SE1_684|22.93
SE1_685|36.16
SE1_686|44.25
SE1_687|62.58
SE1_688|54.22
SE1_689|49.34
SE1_690|48.3
SE1_691|26.59
SE1_692|115.51
SE1_693|75.81
SE1_694|20.72
SE1_695|31.21
SE1_696|82.39
SE1_697|2.18
SE1_698|52.25
SE1_699|52.61
SE1_700|3.96
SE1_701|58.3
SE1_702|57.32
SE1_703|51.04
SE1_704|87.17
SE1_705|13.09
SE1_706|99.29
SE1_707|76.61
SE1_708|82.78
SE1_709|10.23
SE1_710|67.32
SE1_711|26.95
SE1_712|49.25
SE1_713|7.74
SE1_714|2.82
SE1_715|32.6
SE1_716|38.75
SE1_717|86.46
SE1_718|12.77
SE1_719|12.0
SE1_720|27.83
SE1_721|72.41
SE1_722|31.02
SE1_723|71.86
SE1_724|94.49
SE1_725|4.42
SE1_726|17.95
SE1_727|63.86
SE1_728|71.27
SE1_729|50.56
SE1_730|83.62
SE1_731|3.44
SE1_732|85.83
SE1_733|9.2
SE1_734|81.19
SE1_735|69.87
SE1_736|99.19
SE1_737|20.93
SE1_738|4.9
SE1_739|36.04
SE1_740|58.11
SE1_741|22.29
SE1_742|46.0
SE1_743|93.03
SE1_744|29.88
SE1_745|29.78
SE1_746|59.13
SE1_747|47.62
SE1_748|28.54
SE1_749|86.7
SE1_750|21.0
SE1_751|25.0
SE1_752|9.92
SE1_753|2.23
SE1_754|24.42
SE1_755|26.43
SE1_756|90.69
SE1_757|8.17
SE1_758|95.28
SE1_759|78.26
SE1_760|45.26
SE1_761|93.16
SE1_762|53.28
SE1_763|88.15
SE1_764|16.28
SE1_765|72.99
SE1_766|36.21
SE1_767|47.94
SE1_768|58.6
SE1_769|32.36
SE1_770|82.64
SE1_771|38.08
SE1_772|10.47
SE1_773|83.05
SE1_774|79.79
SE1_775|24.24
SE1_776|13.33
SE1_777|47.77
SE1_778|22.28
SE1_779|25.75
SE1_780|53.4
SE1_781|113.39
SE1_782|77.82
SE1_783|27.87
SE1_784|98.62
SE1_785|22.99
SE1_786|9.04
SE1_787|69.78
SE1_788|82.51
SE1_789|14.48
SE1_790|75.54
SE1_791|7.46
SE1_792|77.2
SE1_793|79.53
SE1_794|22.56
SE1_795|86.21
SE1_796|20.73
SE1_797|22.09
SE1_798|68.05
SE1_799|86.23
SE1_800|96.68
SE1_801|3.97
SE1_802|29.1
SE1_803|26.45
SE1_804|66.76
SE1_805|79.36
SE1_806|8.69
SE1_807|89.9
SE1_808|94.59
SE1_809|19.27
SE1_810|11.23
SE1_811|4.68
SE1_812|79.55
SE1_813|20.4
SE1_814|42.39
SE1_815|20.03
SE1_816|94.66
SE1_817|20.59
SE1_818|11.29
SE1_819|20.64
SE1_820|4.14
SE1_821|75.53
SE1_822|84.59
SE1_823|86.25
SE1_824|48.98
SE1_825|24.89
SE1_826|33.24
SE1_827|93.64
SE1_828|48.26
SE1_829|35.45
SE1_830|27.43
SE1_831|51.98
SE1_832|88.1
SE1_833|6.76
SE1_834|4.15
SE1_835|32.46
SE1_836|84.72
SE1_837|92.37
SE1_838|86.65
SE1_839|31.88
SE1_840|30.97
SE1_841|33.97
SE1_842|80.71
SE1_843|84.87
SE1_844|52.77
SE1_845|99.83
SE1_846|28.01
SE1_847|45.4
SE1_848|9.55
SE1_849|97.36
SE1_850|13.61
SE1_851|82.06
SE1_852|72.26
SE1_853|54.27
SE1_854|41.5
SE1_855|75.81
SE1_856|69.35
SE1_857|48.75
SE1_858|88.27
SE1_859|29.67
SE1_860|88.38
SE1_861|60.11
SE1_862|107.21
SE1_863|78.27
SE1_864|50.22
SE1_865|7.1
SE1_866|44.69
SE1_867|48.53
SE1_868|76.59
SE1_869|82.73
SE1_870|68.44
SE1_871|9.29
SE1_872|36.69
SE1_873|34.23
SE1_874|7.05
SE1_875|9.68
SE1_876|13.75
SE1_877|71.11
SE1_878|16.92
SE1_879|117.33
SE1_880|2.94
SE1_881|32.38
SE1_882|52.03
SE1_883|6.14
SE1_884|77.79
SE1_885|6.41
SE1_886|89.42
SE1_887|23.8
SE1_888|20.89
SE1_889|68.3
SE1_890|31.93
SE1_891|51.43
SE1_892|83.61
SE1_893|105.01
SE1_894|48.52
SE1_895|47.99
SE1_896|84.5
SE1_897|54.21
SE1_898|90.93
SE1_899|23.06
SE1_900|66.37
SE1_901|35.31
SE1_902|81.02
SE1_903|102.14
SE1_904|73.91
SE1_905|12.56
SE1_906|17.69
SE1_907|87.43
SE1_908|8.26
SE1_909|67.49
SE1_910|34.21
SE1_911|50.48
SE1_912|58.94
SE1_913|31.31
SE1_914|69.62
SE1_915|20.67
SE1_916|97.94
SE1_917|84.16
SE1_918|93.52
SE1_919|12.39
SE1_920|55.27
SE1_921|53.9
SE1_922|100.78
SE1_923|77.5
SE1_924|48.92
SE1_925|59.84
SE1_926|25.32
SE1_927|65.7
SE1_928|16.46
SE1_929|30.1
SE1_930|62.04
SE1_931|27.1
SE1_932|33.03
SE1_933|18.63
SE1_934|16.52
SE1_935|95.58
SE1_936|38.44
SE1_937|52.21
SE1_938|64.95
SE1_939|75.93
SE1_940|31.57
SE1_941|95.45
SE1_942|101.17
SE1_943|93.33
SE1_944|93.22
SE1_945|18.36
SE1_946|68.87
SE1_947|47.57
SE1_948|86.77
SE1_949|67.48
SE1_950|44.04
SE1_951|12.48
SE1_952|117.19
SE1_953|65.75
SE1_954|29.11
SE1_955|37.18
SE1_956|88.58
SE1_957|21.57
SE1_958|36.61
SE1_959|56.63
SE1_960|15.67
SE1_961|11.77
SE1_962|64.59
SE1_963|23.06
SE1_964|13.56
SE1_965|70.45
SE1_966|21.32
SE1_967|51.41
SE1_968|57.18
SE1_969|37.81
SE1_970|19.91
SE1_971|11.63
SE1_972|44.88
SE1_973|57.29
SE1_974|1.23
SE1_975|56.58
SE1_976|70.62
SE1_977|17.34
SE1_978|68.77
SE1_979|15.66
SE1_980|63.13
SE1_981|49.93
SE1_982|70.37
SE1_983|17.57
SE1_984|66.44
SE1_985|35.82
SE1_986|29.5
SE1_987|79.84
SE1_988|64.14
SE1_989|46.8
SE1_990|26.95
SE1_991|63.86
SE1_992|58.07
SE1_993|17.9
SE1_994|53.59
SE1_995|6.09
SE1_996|29.21
SE1_997|35.61
SE1_998|6.35
SE1_999|80.2
SE1_1000|23.58
SE1_1001|88.21
SE1_1002|59.55
SE1_1003|87.88
SE1_1004|17.45
SE1_1005|10.75
SE1_1006|1.54
SE1_1007|84.49
SE1_1008|57.23
SE1_1009|9.97
SE1_1010|40.89
SE1_1011|61.04
SE1_1012|5.96
SE1_1013|58.24
SE1_1014|33.7
SE1_1015|64.45
SE1_1016|14.13
SE1_1017|95.98
SE1_1018|14.1
SE1_1019|69.96
SE1_1020|4.6
SE1_1021|54.4
SE1_1022|62.69
SE1_1023|89.74
SE1_1024|78.86
SE1_1025|85.39
SE1_1026|42.39
SE1_1027|68.59
SE1_1028|62.91
SE1_1029|13.95
SE1_1030|31.5
SE1_1031|76.33
SE1_1032|55.83
SE1_1033|53.34
SE1_1034|42.02
SE1_1035|55.71
SE1_1036|73.23
SE1_1037|44.03
SE1_1038|78.41
SE1_1039|87.86
SE1_1040|64.74
SE1_1041|78.16
SE1_1042|92.44
SE1_1043|18.33
SE1_1044|31.94
SE1_1045|80.21
SE1_1046|72.67
SE1_1047|58.71
SE1_1048|44.24
SE1_1049|87.87
SE1_1050|103.5
SE1_1051|80.81
SE1_1052|40.4
SE1_1053|85.82
SE1_1054|52.05
SE1_1055|43.88
SE1_1056|21.89
SE1_1057|61.99
SE1_1058|94.59
SE1_1059|72.85
SE1_1060|19.34
SE1_1061|32.22
SE1_1062|65.18
SE1_1063|18.94
SE1_1064|13.26
SE1_1065|25.69
SE1_1066|42.49
SE1_1067|10.01
SE1_1068|33.84
SE1_1069|55.58
SE1_1070|57.4
SE1_1071|36.59
SE1_1072|61.09
SE1_1073|105.38
SE1_1074|14.13
SE1_1075|85.66
SE1_1076|1.73
SE1_1077|45.51
SE1_1078|2.47
SE1_1079|10.79
SE1_1080|27.08
SE1_1081|80.53
SE1_1082|14.44
SE1_1083|123.24
SE1_1084|92.55
SE1_1085|87.88
SE1_1086|84.9
SE1_1087|65.82
SE1_1088|34.3
SE1_1089|63.47
SE1_1090|18.0
SE1_1091|7.95
SE1_1092|23.14
SE1_1093|71.14
SE1_1094|6.95
SE1_1095|64.55
SE1_1096|51.52
SE1_1097|36.82
SE1_1098|52.16
SE1_1099|46.85
SE1_1100|23.9
SE1_1101|26.4
SE1_1102|58.36
SE1_1103|42.67
SE1_1104|59.16
SE1_1105|99.0
SE1_1106|70.64
SE1_1107|10.98
SE1_1108|57.18
SE1_1109|26.09
SE1_1110|54.72
SE1_1111|58.01
SE1_1112|1.17
SE1_1113|26.87
SE1_1114|72.7
SE1_1115|53.7
SE1_1116|16.49
SE1_1117|72.91
SE1_1118|100.75
SE1_1119|32.16
SE1_1120|85.78
SE1_1121|96.89
SE1_1122|37.3
SE1_1123|76.82
SE1_1124|17.47
SE1_1125|39.37
SE1_1126|85.95
SE1_1127|107.49
SE1_1128|100.55
SE1_1129|68.18
SE1_1130|8.82
SE1_1131|26.97
SE1_1132|47.88
SE1_1133|1.52
SE1_1134|7.38
SE1_1135|67.83
SE1_1136|87.14
SE1_1137|70.34
SE1_1138|28.39
SE1_1139|62.86
SE1_1140|1.5
SE1_1141|79.75
SE1_1142|64.9
SE1_1143|39.7
SE1_1144|47.76
SE1_1145|55.34
SE1_1146|63.92
SE1_1147|62.97
SE1_1148|95.5
SE1_1149|46.82
SE1_1150|34.82
SE1_1151|9.32
SE1_1152|38.92
SE1_1153|4.75
SE1_1154|39.97
SE1_1155|41.62
SE1_1156|14.51
SE1_1157|26.81
SE1_1158|4.59
SE1_1159|62.96
SE1_1160|42.05
SE1_1161|98.75
SE1_1162|21.24
SE1_1163|88.39
SE1_1164|9.45
SE1_1165|17.68
SE1_1166|38.82
SE1_1167|93.76
SE1_1168|20.35
SE1_1169|79.96
SE1_1170|45.39
SE1_1171|36.23
SE1_1172|79.57
SE1_1173|55.62
SE1_1174|86.74
SE1_1175|44.55
SE1_1176|25.15
SE1_1177|50.74
SE1_1178|18.36
SE1_1179|49.83
SE1_1180|9.38
SE1_1181|40.17
SE1_1182|23.33
SE1_1183|101.19
SE1_1184|50.09
SE1_1185|24.91
SE1_1186|55.09
SE1_1187|106.59
SE1_1188|20.35
SE1_1189|28.35
SE1_1190|65.38
SE1_1191|23.71
SE1_1192|26.24
SE1_1193|33.55
SE1_1194|19.99
SE1_1195|104.8
SE1_1196|2.88
SE1_1197|69.86
SE1_1198|21.74
SE1_1199|84.43
SE1_1200|85.37
SE1_1201|83.06
SE1_1202|49.19
SE1_1203|37.11
SE1_1204|59.05
SE1_1205|65.49
SE1_1206|88.25
SE1_1207|54.39
SE1_1208|42.48
SE1_1209|12.33
SE1_1210|97.28
SE1_1211|79.07
SE1_1212|41.63
SE1_1213|97.52
SE1_1214|35.24
SE1_1215|5.29
SE1_1216|83.86
SE1_1217|50.79
SE1_1218|24.33
SE1_1219|51.99
SE1_1220|19.45
SE1_1221|21.05
SE1_1222|25.64
SE1_1223|79.16
SE1_1224|68.44
SE1_1225|25.74
SE1_1226|84.35
SE1_1227|14.32
SE1_1228|71.79
SE1_1229|83.6
SE1_1230|43.12
SE1_1231|86.71
SE1_1232|21.46
SE1_1233|28.3
SE1_1234|13.79
SE1_1235|77.18
SE1_1236|21.05
SE1_1237|28.58
SE1_1238|86.73
SE1_1239|51.96
SE1_1240|8.41
SE1_1241|81.27
SE1_1242|15.33
SE1_1243|52.86
SE1_1244|77.69
SE1_1245|8.2
SE1_1246|11.04
SE1_1247|61.01
SE1_1248|14.03
SE1_1249|29.61
SE1_1250|19.3
SE1_1251|80.68
SE1_1252|48.07
SE1_1253|5.07
SE1_1254|102.86
SE1_1255|63.46
SE1_1256|21.32
SE1_1257|93.76
SE1_1258|11.88
SE1_1259|45.57
SE1_1260|81.09
SE1_1261|89.74
SE1_1262|67.01
SE1_1263|4.18
SE1_1264|25.49
SE1_1265|11.15
SE1_1266|4.8
SE1_1267|97.12
SE1_1268|60.2
SE1_1269|41.55
SE1_1270|45.27
SE1_1271|68.62
SE1_1272|52.17
SE1_1273|9.26
SE1_1274|70.5
SE1_1275|76.35
SE1_1276|30.37
SE1_1277|88.75
SE1_1278|103.24
SE1_1279|43.52
SE1_1280|32.97
SE1_1281|44.81
SE1_1282|9.72
SE1_1283|8.45
SE1_1284|45.12
SE1_1285|59.65
SE1_1286|90.4
SE1_1287|20.18
SE1_1288|31.71
SE1_1289|52.88
SE1_1290|114.36
SE1_1291|9.87
SE1_1292|36.69
SE1_1293|19.21
SE1_1294|55.81
SE1_1295|24.12
SE1_1296|51.06
SE1_1297|30.93
SE1_1298|26.82
SE1_1299|32.26
SE1_1300|82.54
SE1_1301|69.83
SE1_1302|33.62
SE1_1303|76.35
SE1_1304|85.4
SE1_1305|20.63
SE1_1306|24.39
SE1_1307|66.6
SE1_1308|64.9
SE1_1309|33.53
SE1_1310|82.23
SE1_1311|37.03
SE1_1312|89.58
SE1_1313|73.17
SE1_1314|38.85
SE1_1315|4.04
SE1_1316|14.88
SE1_1317|47.34
SE1_1318|72.11
SE1_1319|52.86
SE1_1320|66.06
SE1_1321|25.56
SE1_1322|82.98
SE1_1323|51.25
SE1_1324|14.16
SE1_1325|3.81
SE1_1326|84.36
SE1_1327|64.78
SE1_1328|10.88
SE1_1329|81.67
SE1_1330|93.87
SE1_1331|6.27
SE1_1332|94.47
SE1_1333|93.03
SE1_1334|61.07
SE1_1335|12.79
SE1_1336|57.12
SE1_1337|45.68
SE1_1338|1.68
SE1_1339|63.95
SE1_1340|50.2
SE1_1341|46.64
