20150518
SE2_1 91.55
SE2_2 43.7
SE2_3 99.63
SE2_4 58.2
SE2_5 75.68
SE2_6 92.55
SE2_7 32.63
SE2_8 83.08
SE2_9 50.68
SE2_10 11.3
SE2_11 60.06
SE2_12 61.29
SE2_13 29.25
SE2_14 73.93
SE2_15 64.04
SE2_16 70.65
SE2_17 16.72
SE2_18 52.31
SE2_19 32.31
SE2_20 41.6
SE2_21 102.08
SE2_22 56.01
SE2_23 89.83
SE2_24 106.69
SE2_25 35.11
SE2_26 27.27
SE2_27 82.18
SE2_28 37.38
SE2_29 19.17
SE2_30 70.25
SE2_31 24.91
SE2_32 67.25
SE2_33 92.73
SE2_34 49.13
SE2_35 35.53
SE2_36 36.87
SE2_37 6.05
SE2_38 93.49
SE2_39 25.42
SE2_40 65.93
SE2_41 34.5
SE2_42 63.58
SE2_43 30.44
SE2_44 76.72
SE2_45 86.04
SE2_46 26.54
SE2_47 22.93
SE2_48 36.25
SE2_49 41.1
SE2_50 76.9
SE2_51 54.63
SE2_52 73.65
SE2_53 17.99
SE2_54 21.13
SE2_55 57.93
SE2_56 92.33
SE2_57 64.76
SE2_58 9.36
SE2_59 82.23
SE2_60 36.3
SE2_61 84.6
SE2_62 17.14
SE2_63 11.09
SE2_64 22.06
SE2_65 81.56
SE2_66 54.46
SE2_67 9.47
SE2_68 10.73
SE2_69 49.69
SE2_70 71.92
SE2_71 73.96
SE2_72 8.39
SE2_73 46.78
SE2_74 90.38
SE2_75 17.19
SE2_76 45.01
SE2_77 91.7
SE2_78 59.58
SE2_79 47.88
SE2_80 58.76
SE2_81 37.85
SE2_82 24.82
SE2_83 74.8
SE2_84 17.15
SE2_85 15.79
SE2_86 84.51
SE2_87 59.99
SE2_88 35.5
SE2_89 61.02
SE2_90 44.26
SE2_91 6.03
SE2_92 44.45
SE2_93 32.72
SE2_94 54.22
SE2_95 41.57
SE2_96 102.72
SE2_97 65.37
SE2_98 84.22
SE2_99 77.19
SE2_100 83.24
SE2_101 102.73
SE2_102 71.73
SE2_103 4.07
SE2_104 89.35
SE2_105 67.31
SE2_106 29.61
SE2_107 10.1
SE2_108 23.83
SE2_109 44.48
SE2_110 14.59
SE2_111 109.35
SE2_112 13.54
SE2_113 2.36
SE2_114 32.63
SE2_115 83.86
SE2_116 31.67
SE2_117 55.75
SE2_118 79.21
SE2_119 77.7
SE2_120 78.6
SE2_121 82.28
SE2_122 40.95
SE2_123 25.95
SE2_124 93.27
SE2_125 57.94
SE2_126 17.06
SE2_127 26.65
SE2_128 36.58
SE2_129 16.55
SE2_130 60.22
SE2_131 12.57
SE2_132 66.58
SE2_133 62.39
SE2_134 72.89
SE2_135 117.82
SE2_136 51.1
SE2_137 44.16
SE2_138 15.04
SE2_139 66.7
SE2_140 105.29
SE2_141 60.29
SE2_142 29.29
SE2_143 47.83
SE2_144 19.01
SE2_145 63.4
SE2_146 32.64
SE2_147 13.22
SE2_148 33.46
SE2_149 44.99
SE2_150 24.3
SE2_151 44.92
SE2_152 55.27
SE2_153 36.13
SE2_154 3.74
SE2_155 94.22
SE2_156 10.93
SE2_157 27.34
SE2_158 67.35
SE2_159 24.67
SE2_160 97.3
SE2_161 58.59
SE2_162 5.2
SE2_163 22.14
SE2_164 12.02
SE2_165 38.24
SE2_166 76.11
SE2_167 9.55
SE2_168 96.52
SE2_169 11.28
SE2_170 6.09
SE2_171 2.6
SE2_172 32.37
SE2_173 20.57
SE2_174 76.45
SE2_175 49.89
SE2_176 5.27
SE2_177 4.93
SE2_178 71.54
SE2_179 87.68
SE2_180 75.21
SE2_181 70.76
SE2_182 47.52
SE2_183 47.26
SE2_184 5.64
SE2_185 46.53
SE2_186 14.55
SE2_187 61.1
SE2_188 100.01
SE2_189 34.37
SE2_190 7.65
SE2_191 36.4
SE2_192 90.33
SE2_193 14.17
SE2_194 31.58
SE2_195 69.65
SE2_196 48.33
SE2_197 25.9
SE2_198 20.89
SE2_199 69.2
SE2_200 13.8
SE2_201 81.54
SE2_202 41.44
SE2_203 85.27
SE2_204 59.4
SE2_205 41.22
SE2_206 62.96
SE2_207 77.81
SE2_208 73.37
SE2_209 58.19
SE2_210 26.29
SE2_211 8.64
SE2_212 92.31
SE2_213 43.02
SE2_214 41.37
SE2_215 75.48
SE2_216 36.06
SE2_217 71.37
SE2_218 71.06
SE2_219 100.77
SE2_220 82.33
SE2_221 34.48
SE2_222 21.22
SE2_223 36.78
SE2_224 5.1
SE2_225 88.14
SE2_226 23.63
SE2_227 35.69
SE2_228 70.96
SE2_229 64.31
SE2_230 58.36
SE2_231 26.61
SE2_232 74.48
SE2_233 33.58
SE2_234 32.48
SE2_235 15.04
SE2_236 62.45
SE2_237 3.83
SE2_238 50.32
SE2_239 42.66
SE2_240 104.57
SE2_241 42.46
SE2_242 28.93
SE2_243 70.75
SE2_244 38.8
SE2_245 14.13
SE2_246 82.53
SE2_247 60.83
SE2_248 72.67
SE2_249 21.12
SE2_250 52.05
SE2_251 16.97
SE2_252 49.7
SE2_253 57.1
SE2_254 32.79
SE2_255 64.3
SE2_256 67.52
SE2_257 52.3
SE2_258 80.52
SE2_259 107.29
SE2_260 29.9
SE2_261 53.61
SE2_262 68.67
SE2_263 47.67
SE2_264 3.68
SE2_265 66.34
SE2_266 38.74
SE2_267 35.08
SE2_268 44.89
SE2_269 47.94
SE2_270 84.23
SE2_271 23.98
SE2_272 14.67
SE2_273 44.34
SE2_274 69.78
SE2_275 48.76
SE2_276 46.13
SE2_277 17.16
SE2_278 48.72
SE2_279 95.26
SE2_280 79.46
SE2_281 98.34
SE2_282 28.7
SE2_283 82.77
SE2_284 19.46
SE2_285 34.89
SE2_286 81.73
SE2_287 92.74
SE2_288 41.42
SE2_289 65.37
SE2_290 9.11
SE2_291 27.05
SE2_292 82.07
SE2_293 23.17
SE2_294 16.34
SE2_295 20.0
SE2_296 17.67
SE2_297 34.35
SE2_298 23.57
SE2_299 40.58
SE2_300 24.38
SE2_301 52.57
SE2_302 63.76
SE2_303 17.55
SE2_304 11.15
SE2_305 71.39
SE2_306 39.52
SE2_307 49.05
SE2_308 30.1
SE2_309 56.12
SE2_310 3.12
SE2_311 25.86
SE2_312 61.0
SE2_313 79.8
SE2_314 10.88
SE2_315 89.57
SE2_316 4.26
SE2_317 5.57
SE2_318 10.31
SE2_319 111.63
SE2_320 15.42
SE2_321 72.67
SE2_322 58.69
SE2_323 14.02
SE2_324 54.23
SE2_325 75.76
SE2_326 20.35
SE2_327 34.83
SE2_328 71.82
SE2_329 74.0
SE2_330 73.55
SE2_331 98.38
SE2_332 7.82
SE2_333 80.15
SE2_334 24.68
SE2_335 97.7
SE2_336 6.09
SE2_337 12.0
SE2_338 85.69
SE2_339 43.02
SE2_340 22.67
SE2_341 46.05
SE2_342 38.1
SE2_343 106.39
SE2_344 58.82
SE2_345 36.27
SE2_346 16.8
SE2_347 43.16
SE2_348 62.81
SE2_349 7.48
SE2_350 5.08
SE2_351 72.99
SE2_352 58.61
SE2_353 4.47
SE2_354 63.44
SE2_355 68.13
SE2_356 54.74
SE2_357 27.67
SE2_358 22.24
SE2_359 3.38
SE2_360 84.39
SE2_361 30.32
SE2_362 77.1
SE2_363 49.82
SE2_364 3.14
SE2_365 44.26
SE2_366 110.42
SE2_367 62.97
SE2_368 74.02
SE2_369 57.41
SE2_370 32.55
SE2_371 76.91
SE2_372 73.83
SE2_373 48.52
SE2_374 26.32
SE2_375 22.12
SE2_376 95.06
SE2_377 76.07
SE2_378 73.55
SE2_379 53.55
SE2_380 83.38
SE2_381 88.24
SE2_382 62.67
SE2_383 70.71
SE2_384 89.46
SE2_385 23.67
SE2_386 100.55
SE2_387 58.51
SE2_388 2.52
SE2_389 8.51
SE2_390 40.97
SE2_391 62.17
SE2_392 34.92
SE2_393 3.08
SE2_394 22.91
SE2_395 26.44
SE2_396 14.95
SE2_397 63.42
SE2_398 2.97
SE2_399 1.02
SE2_400 73.11
SE2_401 93.68
SE2_402 82.98
SE2_403 88.58
SE2_404 42.24
SE2_405 17.43
SE2_406 53.22
SE2_407 84.1
SE2_408 61.84
SE2_409 73.7
SE2_410 88.2
SE2_411 84.76
SE2_412 76.02
SE2_413 66.05
SE2_414 15.23
SE2_415 32.14
SE2_416 32.74
SE2_417 7.09
SE2_418 57.4
SE2_419 49.76
SE2_420 43.45
SE2_421 19.73
SE2_422 40.16
SE2_423 22.4
SE2_424 47.47
SE2_425 70.24
SE2_426 41.21
SE2_427 100.68
SE2_428 100.33
SE2_429 59.78
SE2_430 47.85
SE2_431 23.31
SE2_432 35.2
SE2_433 76.79
SE2_434 75.32
SE2_435 38.52
SE2_436 7.86
SE2_437 2.02
SE2_438 74.24
SE2_439 63.37
SE2_440 19.46
SE2_441 100.43
SE2_442 53.51
SE2_443 45.88
SE2_444 63.59
SE2_445 124.74
SE2_446 51.89
SE2_447 99.27
SE2_448 83.91
SE2_449 18.97
SE2_450 59.11
SE2_451 12.7
SE2_452 42.49
SE2_453 48.25
SE2_454 62.17
SE2_455 2.59
SE2_456 72.36
SE2_457 65.54
SE2_458 51.05
SE2_459 27.6
SE2_460 12.83
SE2_461 127.17
SE2_462 42.81
SE2_463 88.42
SE2_464 23.95
SE2_465 60.18
SE2_466 2.51
SE2_467 5.1
SE2_468 17.39
SE2_469 80.04
SE2_470 6.58
SE2_471 100.09
SE2_472 22.47
SE2_473 39.09
SE2_474 56.68
SE2_475 75.9
SE2_476 36.86
SE2_477 70.99
SE2_478 60.31
SE2_479 82.52
SE2_480 5.12
SE2_481 39.92
SE2_482 30.23
SE2_483 44.85
SE2_484 84.09
SE2_485 5.9
SE2_486 67.85
SE2_487 80.48
SE2_488 18.97
SE2_489 28.75
SE2_490 22.58
SE2_491 38.77
SE2_492 50.38
SE2_493 19.42
SE2_494 90.61
SE2_495 16.84
SE2_496 35.99
SE2_497 91.74
SE2_498 4.53
SE2_499 87.34
SE2_500 14.05
SE2_501 40.83
SE2_502 98.06
SE2_503 31.94
SE2_504 7.02
SE2_505 6.8
SE2_506 9.34
SE2_507 96.69
SE2_508 24.54
SE2_509 34.28
SE2_510 36.55
SE2_511 53.44
SE2_512 50.66
SE2_513 34.69
SE2_514 88.35
SE2_515 80.1
SE2_516 1.64
SE2_517 32.23
SE2_518 22.88
SE2_519 27.44
SE2_520 76.59
SE2_521 111.08
SE2_522 108.38
SE2_523 68.13
SE2_524 68.65
SE2_525 61.19
SE2_526 107.76
SE2_527 36.9
SE2_528 60.95
SE2_529 89.37
SE2_530 46.14
SE2_531 19.25
SE2_532 44.4
SE2_533 8.43
SE2_534 21.74
SE2_535 88.51
SE2_536 105.17
SE2_537 56.17
SE2_538 74.19
SE2_539 65.1
SE2_540 49.71
SE2_541 18.37
SE2_542 44.77
SE2_543 22.73
SE2_544 9.32
SE2_545 70.62
SE2_546 56.38
SE2_547 81.49
SE2_548 64.97
SE2_549 39.72
SE2_550 6.71
SE2_551 71.58
SE2_552 54.84
SE2_553 71.35
SE2_554 69.47
SE2_555 84.75
SE2_556 42.6
SE2_557 77.9
SE2_558 46.11
SE2_559 48.6
SE2_560 55.52
SE2_561 4.77
SE2_562 38.78
SE2_563 21.73
SE2_564 58.17
SE2_565 45.61
SE2_566 61.7
SE2_567 70.73
SE2_568 99.9
SE2_569 17.9
SE2_570 8.77
SE2_571 5.84
SE2_572 99.49
SE2_573 5.89
SE2_574 1.04
SE2_575 57.13
SE2_576 47.49
SE2_577 15.87
SE2_578 86.52
SE2_579 84.22
SE2_580 103.76
SE2_581 27.49
SE2_582 71.78
SE2_583 23.64
SE2_584 51.56
SE2_585 24.81
SE2_586 45.24
SE2_587 90.04
SE2_588 48.38
SE2_589 1.06
SE2_590 29.71
SE2_591 30.08
SE2_592 93.8
SE2_593 92.49
SE2_594 10.71
SE2_595 82.15
SE2_596 72.37
SE2_597 7.07
SE2_598 22.51
SE2_599 22.65
SE2_600 57.5
SE2_601 48.97
SE2_602 19.44
SE2_603 44.22
SE2_604 70.32
SE2_605 56.96
SE2_606 49.6
SE2_607 91.18
SE2_608 30.39
SE2_609 15.72
SE2_610 52.59
SE2_611 22.56
SE2_612 25.07
SE2_613 98.92
SE2_614 92.65
SE2_615 57.6
SE2_616 12.74
SE2_617 37.32
SE2_618 73.99
SE2_619 33.91
SE2_620 84.35
SE2_621 71.73
SE2_622 56.18
SE2_623 46.59
SE2_624 8.78
SE2_625 21.73
SE2_626 15.73
SE2_627 64.5
SE2_628 20.91
SE2_629 69.56
SE2_630 85.69
SE2_631 42.22
SE2_632 51.47
SE2_633 42.17
SE2_634 14.36
SE2_635 70.4
SE2_636 21.79
SE2_637 48.24
SE2_638 88.88
SE2_639 47.01
SE2_640 34.78
SE2_641 46.22
SE2_642 81.32
SE2_643 16.51
SE2_644 88.5
SE2_645 76.44
SE2_646 59.21
SE2_647 64.14
SE2_648 36.99
SE2_649 74.67
SE2_650 83.37
SE2_651 9.94
SE2_652 65.2
SE2_653 18.93
SE2_654 105.88
SE2_655 11.09
SE2_656 14.38
SE2_657 73.66
SE2_658 91.67
SE2_659 104.6
SE2_660 25.33
SE2_661 71.15
SE2_662 79.42
SE2_663 96.21
SE2_664 15.65
SE2_665 57.35
SE2_666 14.31
SE2_667 35.33
SE2_668 95.51
SE2_669 41.66
SE2_670 41.55
SE2_671 8.87
SE2_672 20.33
SE2_673 25.07
SE2_674 85.14
SE2_675 56.57
SE2_676 71.98
SE2_677 90.64
SE2_678 96.67
SE2_679 21.81
SE2_680 43.4
SE2_681 37.27
SE2_682 50.05
SE2_683 13.69
SE2_684 99.51
SE2_685 25.01
SE2_686 54.06
SE2_687 11.64
SE2_688 64.37
SE2_689 76.4
SE2_690 70.89
SE2_691 33.0
SE2_692 18.41
SE2_693 95.57
SE2_694 17.7
SE2_695 58.64
SE2_696 15.94
SE2_697 51.44
SE2_698 21.75
SE2_699 8.21
SE2_700 97.46
SE2_701 39.92
SE2_702 20.76
SE2_703 37.95
SE2_704 65.83
SE2_705 100.99
SE2_706 24.7
SE2_707 58.25
SE2_708 45.19
SE2_709 35.63
SE2_710 21.82
SE2_711 80.12
SE2_712 83.27
SE2_713 35.28
SE2_714 46.27
SE2_715 5.97
SE2_716 50.33
SE2_717 68.77
SE2_718 81.34
SE2_719 54.25
SE2_720 53.11
SE2_721 85.2
SE2_722 58.23
SE2_723 103.22
SE2_724 71.33
SE2_725 64.55
SE2_726 5.02
SE2_727 87.09
SE2_728 19.26
SE2_729 86.26
SE2_730 24.1
SE2_731 12.8
SE2_732 38.67
SE2_733 37.81
SE2_734 71.11
SE2_735 28.95
SE2_736 99.94
SE2_737 72.97
SE2_738 10.34
SE2_739 5.31
SE2_740 67.55
SE2_741 19.71
SE2_742 55.65
SE2_743 24.23
SE2_744 46.19
SE2_745 25.57
SE2_746 6.04
SE2_747 64.28
SE2_748 98.34
SE2_749 17.13
SE2_750 92.74
SE2_751 34.55
SE2_752 13.74
SE2_753 18.45
SE2_754 83.52
SE2_755 89.35
SE2_756 91.89
SE2_757 100.64
SE2_758 77.96
SE2_759 6.68
SE2_760 52.9
SE2_761 84.46
SE2_762 81.46
SE2_763 55.25
SE2_764 83.35
SE2_765 29.83
SE2_766 2.93
SE2_767 35.64
SE2_768 98.77
SE2_769 80.19
SE2_770 57.93
SE2_771 105.83
SE2_772 65.93
SE2_773 87.81
SE2_774 30.85
SE2_775 46.33
SE2_776 41.28
SE2_777 16.58
SE2_778 23.94
SE2_779 40.01
SE2_780 35.11
SE2_781 17.94
SE2_782 35.8
SE2_783 83.77
SE2_784 32.95
SE2_785 37.48
SE2_786 61.96
SE2_787 81.84
SE2_788 90.64
SE2_789 72.71
SE2_790 39.86
SE2_791 74.57
SE2_792 3.43
SE2_793 5.34
SE2_794 37.93
SE2_795 78.72
SE2_796 33.35
SE2_797 42.72
SE2_798 81.14
SE2_799 12.25
SE2_800 81.68
SE2_801 116.44
SE2_802 63.49
SE2_803 8.67
SE2_804 68.52
SE2_805 73.58
SE2_806 68.81
SE2_807 34.44
SE2_808 48.48
SE2_809 22.13
SE2_810 78.59
SE2_811 21.98
SE2_812 20.79
SE2_813 97.43
SE2_814 77.09
SE2_815 1.86
SE2_816 56.1
SE2_817 64.93
SE2_818 59.05
SE2_819 35.44
SE2_820 69.24
SE2_821 80.52
SE2_822 12.16
SE2_823 22.77
SE2_824 76.23
SE2_825 39.9
SE2_826 13.91
SE2_827 11.68
SE2_828 69.66
SE2_829 19.47
SE2_830 33.17
SE2_831 59.98
SE2_832 80.82
SE2_833 78.32
SE2_834 5.13
SE2_835 40.77
SE2_836 47.62
SE2_837 88.64
SE2_838 106.2
SE2_839 89.92
SE2_840 77.27
SE2_841 21.08
SE2_842 38.2
SE2_843 29.09
SE2_844 75.34
SE2_845 43.76
SE2_846 99.65
SE2_847 79.25
SE2_848 31.04
SE2_849 31.17
SE2_850 57.18
SE2_851 63.17
SE2_852 98.4
SE2_853 7.94
SE2_854 52.93
SE2_855 6.18
SE2_856 106.28
SE2_857 25.76
SE2_858 7.23
SE2_859 6.46
SE2_860 85.18
SE2_861 103.69
SE2_862 11.79
SE2_863 24.47
SE2_864 46.23
SE2_865 70.1
SE2_866 95.47
SE2_867 69.51
SE2_868 25.11
SE2_869 40.32
SE2_870 12.49
SE2_871 57.57
SE2_872 75.15
SE2_873 76.04
SE2_874 89.25
SE2_875 46.18
SE2_876 49.71
SE2_877 32.16
SE2_878 69.87
SE2_879 70.54
SE2_880 50.85
SE2_881 4.65
SE2_882 16.42
SE2_883 63.38
SE2_884 84.4
SE2_885 64.06
SE2_886 69.26
SE2_887 9.16
SE2_888 85.57
SE2_889 29.02
SE2_890 76.87
SE2_891 56.27
SE2_892 90.96
SE2_893 76.18
SE2_894 16.35
SE2_895 73.01
SE2_896 53.23
SE2_897 62.09
SE2_898 39.94
SE2_899 92.38
SE2_900 11.41
SE2_901 74.56
SE2_902 1.8
SE2_903 78.64
SE2_904 58.41
SE2_905 103.22
SE2_906 93.63
SE2_907 72.08
SE2_908 80.22
SE2_909 88.87
SE2_910 73.46
SE2_911 24.44
SE2_912 12.6
SE2_913 93.58
SE2_914 66.35
SE2_915 70.17
SE2_916 49.3
SE2_917 57.12
SE2_918 88.72
SE2_919 18.02
SE2_920 55.72
SE2_921 5.76
SE2_922 64.55
SE2_923 55.74
SE2_924 67.67
SE2_925 12.48
SE2_926 37.03
SE2_927 70.3
SE2_928 61.12
SE2_929 4.71
SE2_930 91.67
SE2_931 21.61
SE2_932 35.04
SE2_933 83.48
SE2_934 52.22
SE2_935 14.54
SE2_936 78.42
SE2_937 19.3
SE2_938 26.3
SE2_939 47.15
SE2_940 66.31
SE2_941 72.63
SE2_942 75.46
SE2_943 22.04
SE2_944 76.5
SE2_945 26.78
SE2_946 17.42
SE2_947 67.34
SE2_948 59.14
SE2_949 33.86
SE2_950 47.38
SE2_951 93.21
SE2_952 54.82
SE2_953 25.86
SE2_954 65.38
SE2_955 45.35
SE2_956 81.84
SE2_957 18.91
SE2_958 30.77
SE2_959 70.92
SE2_960 56.77
SE2_961 43.66
SE2_962 21.75
SE2_963 27.38
SE2_964 73.24
SE2_965 89.73
SE2_966 9.04
SE2_967 87.67
SE2_968 37.54
SE2_969 59.27
SE2_970 66.46
SE2_971 58.8
SE2_972 58.42
SE2_973 22.75
SE2_974 100.93
SE2_975 60.6
SE2_976 84.38
SE2_977 19.46
SE2_978 70.49
SE2_979 39.65
SE2_980 42.07
SE2_981 56.41
SE2_982 61.69
SE2_983 83.34
SE2_984 17.05
SE2_985 68.81
SE2_986 75.14
SE2_987 12.99
SE2_988 18.26
SE2_989 86.89
SE2_990 31.58
SE2_991 96.64
SE2_992 60.88
SE2_993 114.26
SE2_994 42.85
SE2_995 55.16
SE2_996 50.6
SE2_997 45.16
SE2_998 7.13
SE2_999 103.22
SE2_1000 55.85
SE2_1001 11.92
SE2_1002 84.29
SE2_1003 47.57
SE2_1004 23.86
SE2_1005 39.47
SE2_1006 100.66
SE2_1007 5.06
SE2_1008 59.36
SE2_1009 14.66
SE2_1010 100.13
SE2_1011 54.5
SE2_1012 32.38
SE2_1013 44.39
SE2_1014 61.13
SE2_1015 16.4
SE2_1016 25.84
SE2_1017 19.81
SE2_1018 70.38
SE2_1019 34.95
SE2_1020 3.31
SE2_1021 19.51
