20150414
SE5_1|80.61
SE5_2|88.24
SE5_3|56.38
SE5_4|15.17
SE5_5|19.7
SE5_6|32.03
SE5_7|60.64
SE5_8|58.22
SE5_9|49.79
SE5_10|73.71
SE5_11|40.94
SE5_12|14.5
SE5_13|14.63
SE5_14|70.83
SE5_15|47.04
SE5_16|55.42
SE5_17|95.93
SE5_18|58.97
SE5_19|17.83
SE5_20|85.62
SE5_21|23.87
SE5_22|3.05
SE5_23|70.04
SE5_24|19.74
SE5_25|40.91
SE5_26|45.26
SE5_27|67.9
SE5_28|49.62
SE5_29|41.83
SE5_30|94.02
SE5_31|62.28
SE5_32|86.74
SE5_33|82.68
SE5_34|82.04
SE5_35|55.7
SE5_36|44.8
SE5_37|31.17
SE5_38|42.23
SE5_39|22.69
SE5_40|47.99
SE5_41|79.52
SE5_42|72.54
SE5_43|72.67
SE5_44|84.26
SE5_45|17.06
SE5_46|44.64
SE5_47|76.31
SE5_48|88.88
SE5_49|38.42
SE5_50|97.7
SE5_51|87.96
SE5_52|75.99
SE5_53|53.05
SE5_54|63.8
SE5_55|24.65
SE5_56|75.28
SE5_57|51.9
SE5_58|48.35
SE5_59|67.16
SE5_60|32.27
SE5_61|52.7
SE5_62|31.31
SE5_63|69.02
SE5_64|95.22
SE5_65|21.29
SE5_66|55.63
SE5_67|55.48
SE5_68|106.38
SE5_69|104.68
SE5_70|94.5
SE5_71|84.42
SE5_72|4.94
SE5_73|5.15
SE5_74|58.46
SE5_75|53.77
SE5_76|76.35
SE5_77|106.38
SE5_78|50.94
SE5_79|41.81
SE5_80|74.37
SE5_81|42.37
SE5_82|72.27
SE5_83|37.57
SE5_84|70.24
SE5_85|59.29
SE5_86|66.69
SE5_87|49.64
SE5_88|21.36
SE5_89|84.88
SE5_90|86.47
SE5_91|51.55
SE5_92|36.03
SE5_93|9.85
SE5_94|32.76
SE5_95|41.78
SE5_96|34.17
SE5_97|31.56
SE5_98|59.44
SE5_99|93.11
SE5_100|68.73
SE5_101|65.03
SE5_102|90.39
SE5_103|61.63
SE5_104|67.88
SE5_105|76.35
SE5_106|10.89
SE5_107|55.25
SE5_108|18.53
SE5_109|25.29
SE5_110|12.16
SE5_111|7.04
SE5_112|87.99
SE5_113|53.9
SE5_114|69.19
SE5_115|75.24
SE5_116|70.38
SE5_117|17.13
SE5_118|75.32
SE5_119|12.51
SE5_120|68.81
SE5_121|70.19
SE5_122|86.87
SE5_123|105.71
SE5_124|67.26
SE5_125|49.47
SE5_126|17.76
SE5_127|12.0
SE5_128|15.86
SE5_129|38.2
SE5_130|6.07
SE5_131|54.34
SE5_132|68.81
SE5_133|50.35
SE5_134|68.72
SE5_135|22.97
SE5_136|55.8
SE5_137|50.8
SE5_138|24.51
SE5_139|80.6
SE5_140|49.1
SE5_141|11.32
SE5_142|24.96
SE5_143|11.89
SE5_144|86.63
SE5_145|11.16
SE5_146|58.75
SE5_147|56.63
SE5_148|29.59
SE5_149|95.67
SE5_150|6.89
SE5_151|11.15
SE5_152|34.47
SE5_153|52.77
SE5_154|54.68
SE5_155|46.16
SE5_156|35.14
SE5_157|70.72
SE5_158|76.27
SE5_159|51.99
SE5_160|59.69
SE5_161|104.71
SE5_162|76.21
SE5_163|7.3
SE5_164|18.11
SE5_165|80.05
SE5_166|22.78
SE5_167|44.75
SE5_168|11.18
SE5_169|74.82
SE5_170|10.4
SE5_171|48.56
SE5_172|93.88
SE5_173|11.69
SE5_174|86.66
SE5_175|62.41
SE5_176|21.49
SE5_177|88.58
SE5_178|51.45
SE5_179|87.75
SE5_180|79.2
SE5_181|4.61
SE5_182|35.92
SE5_183|93.67
SE5_184|45.04
SE5_185|12.07
SE5_186|14.05
SE5_187|46.01
SE5_188|34.01
SE5_189|8.06
SE5_190|98.84
SE5_191|20.97
SE5_192|22.42
SE5_193|61.88
SE5_194|21.78
SE5_195|17.02
SE5_196|42.6
SE5_197|60.48
SE5_198|47.51
SE5_199|86.69
SE5_200|98.1
SE5_201|33.9
SE5_202|78.15
SE5_203|12.63
SE5_204|27.06
SE5_205|111.7
SE5_206|36.06
SE5_207|56.1
SE5_208|67.82
SE5_209|75.94
SE5_210|52.32
SE5_211|100.74
SE5_212|88.98
SE5_213|53.27
SE5_214|107.73
SE5_215|67.58
SE5_216|96.07
SE5_217|33.17
SE5_218|29.26
SE5_219|68.8
SE5_220|75.05
SE5_221|99.16
SE5_222|9.61
SE5_223|26.39
SE5_224|76.6
SE5_225|4.09
SE5_226|29.72
SE5_227|35.29
SE5_228|93.96
SE5_229|26.41
SE5_230|66.08
SE5_231|24.47
SE5_232|68.11
SE5_233|45.77
SE5_234|110.37
SE5_235|22.94
SE5_236|70.05
SE5_237|39.81
SE5_238|44.37
SE5_239|33.01
SE5_240|52.99
SE5_241|68.26
SE5_242|18.56
SE5_243|4.06
SE5_244|54.03
SE5_245|9.89
SE5_246|88.52
SE5_247|81.6
SE5_248|35.07
SE5_249|100.97
SE5_250|127.86
SE5_251|88.22
SE5_252|6.88
SE5_253|101.86
SE5_254|73.17
SE5_255|34.01
SE5_256|24.56
SE5_257|85.93
SE5_258|84.33
SE5_259|89.09
SE5_260|92.43
SE5_261|20.44
SE5_262|48.77
SE5_263|35.78
SE5_264|11.9
SE5_265|74.14
SE5_266|58.33
SE5_267|14.7
SE5_268|85.45
SE5_269|76.92
SE5_270|95.56
SE5_271|41.64
SE5_272|38.67
SE5_273|41.57
SE5_274|38.6
SE5_275|21.26
SE5_276|89.76
SE5_277|39.59
SE5_278|95.97
SE5_279|86.31
SE5_280|55.13
SE5_281|65.47
SE5_282|7.69
SE5_283|78.89
SE5_284|91.67
SE5_285|34.58
SE5_286|7.18
SE5_287|105.58
SE5_288|37.5
SE5_289|91.96
SE5_290|68.8
SE5_291|48.49
SE5_292|20.66
SE5_293|39.42
SE5_294|23.63
SE5_295|28.72
SE5_296|12.74
SE5_297|40.81
SE5_298|12.94
SE5_299|35.65
SE5_300|74.5
SE5_301|55.05
SE5_302|59.68
SE5_303|33.34
SE5_304|41.65
SE5_305|3.75
SE5_306|99.24
SE5_307|66.5
SE5_308|59.97
SE5_309|89.4
SE5_310|13.19
SE5_311|98.55
SE5_312|94.21
SE5_313|8.13
SE5_314|28.64
SE5_315|37.19
SE5_316|25.19
SE5_317|85.76
SE5_318|97.41
SE5_319|56.53
SE5_320|59.9
SE5_321|44.68
SE5_322|62.17
SE5_323|48.2
SE5_324|74.96
SE5_325|97.42
SE5_326|115.74
SE5_327|5.69
SE5_328|34.98
SE5_329|14.68
SE5_330|47.43
SE5_331|38.75
SE5_332|77.73
SE5_333|14.05
SE5_334|83.54
SE5_335|47.34
SE5_336|4.22
SE5_337|56.91
SE5_338|51.59
SE5_339|7.39
SE5_340|75.25
SE5_341|93.52
SE5_342|19.69
SE5_343|44.65
SE5_344|41.75
SE5_345|76.35
SE5_346|33.87
SE5_347|13.13
SE5_348|40.07
SE5_349|70.31
SE5_350|91.32
SE5_351|53.76
SE5_352|37.72
SE5_353|34.67
SE5_354|37.99
SE5_355|110.46
SE5_356|45.24
SE5_357|78.46
SE5_358|14.34
SE5_359|57.92
SE5_360|40.84
SE5_361|18.97
SE5_362|11.77
SE5_363|63.8
SE5_364|62.18
SE5_365|4.74
SE5_366|46.97
SE5_367|42.61
SE5_368|78.35
SE5_369|37.76
SE5_370|14.22
SE5_371|95.91
SE5_372|8.98
SE5_373|9.64
SE5_374|12.09
SE5_375|60.42
SE5_376|85.22
SE5_377|75.05
SE5_378|72.89
SE5_379|27.86
SE5_380|60.99
SE5_381|18.29
SE5_382|88.2
SE5_383|70.89
SE5_384|38.93
SE5_385|33.39
SE5_386|11.82
SE5_387|47.31
SE5_388|53.94
SE5_389|66.46
SE5_390|72.99
SE5_391|75.98
SE5_392|16.48
SE5_393|28.61
SE5_394|113.81
SE5_395|28.42
SE5_396|6.25
SE5_397|62.85
SE5_398|69.22
SE5_399|59.84
SE5_400|112.45
SE5_401|77.2
SE5_402|63.74
SE5_403|8.88
SE5_404|27.86
SE5_405|67.27
SE5_406|38.22
SE5_407|118.98
SE5_408|5.94
SE5_409|14.79
SE5_410|6.57
SE5_411|42.66
SE5_412|96.61
SE5_413|9.72
SE5_414|85.42
SE5_415|31.28
SE5_416|35.86
SE5_417|8.1
SE5_418|2.29
SE5_419|53.34
SE5_420|101.06
SE5_421|65.05
SE5_422|39.6
SE5_423|82.02
SE5_424|86.2
SE5_425|77.42
SE5_426|60.38
SE5_427|49.92
SE5_428|42.92
SE5_429|36.46
SE5_430|33.8
SE5_431|14.33
SE5_432|63.96
SE5_433|29.84
SE5_434|67.58
SE5_435|29.54
SE5_436|66.49
SE5_437|44.17
SE5_438|37.38
SE5_439|71.88
SE5_440|28.88
SE5_441|10.29
SE5_442|1.46
SE5_443|16.39
SE5_444|109.32
SE5_445|101.56
SE5_446|62.57
SE5_447|6.72
SE5_448|8.21
SE5_449|36.48
SE5_450|72.77
SE5_451|54.0
SE5_452|18.32
SE5_453|19.59
SE5_454|80.1
SE5_455|65.44
SE5_456|6.42
SE5_457|53.36
SE5_458|97.39
SE5_459|3.32
SE5_460|84.28
SE5_461|1.65
SE5_462|96.46
SE5_463|56.09
SE5_464|8.28
SE5_465|11.48
SE5_466|4.88
SE5_467|80.12
SE5_468|27.87
SE5_469|80.74
SE5_470|68.14
SE5_471|10.12
SE5_472|44.31
SE5_473|67.7
SE5_474|46.01
SE5_475|88.87
SE5_476|42.28
SE5_477|46.23
SE5_478|69.73
SE5_479|44.02
SE5_480|36.26
SE5_481|18.61
SE5_482|19.09
SE5_483|57.69
SE5_484|22.14
SE5_485|43.47
SE5_486|78.09
SE5_487|73.18
SE5_488|74.94
SE5_489|107.04
SE5_490|56.6
SE5_491|63.42
SE5_492|52.83
SE5_493|20.84
SE5_494|67.57
SE5_495|13.8
SE5_496|23.34
SE5_497|55.97
SE5_498|52.4
SE5_499|25.48
SE5_500|10.18
SE5_501|18.48
SE5_502|62.27
SE5_503|1.95
SE5_504|42.06
SE5_505|37.68
SE5_506|54.33
SE5_507|65.55
SE5_508|53.16
SE5_509|85.55
SE5_510|77.6
SE5_511|82.14
SE5_512|50.08
SE5_513|14.02
SE5_514|91.91
SE5_515|105.22
SE5_516|39.3
SE5_517|17.01
SE5_518|81.53
SE5_519|5.24
SE5_520|19.12
SE5_521|49.18
SE5_522|39.32
SE5_523|68.0
SE5_524|17.35
SE5_525|10.11
SE5_526|64.89
SE5_527|37.38
SE5_528|97.7
SE5_529|70.37
SE5_530|18.62
SE5_531|41.18
SE5_532|13.5
SE5_533|59.97
SE5_534|68.74
SE5_535|40.25
SE5_536|60.36
SE5_537|19.75
SE5_538|98.49
SE5_539|68.96
SE5_540|97.72
SE5_541|60.0
SE5_542|9.76
SE5_543|14.86
SE5_544|12.75
SE5_545|68.76
SE5_546|85.25
SE5_547|29.03
SE5_548|70.92
SE5_549|28.72
SE5_550|83.17
SE5_551|17.91
SE5_552|63.63
SE5_553|58.61
SE5_554|13.73
SE5_555|3.83
SE5_556|62.46
SE5_557|89.25
SE5_558|78.09
SE5_559|71.86
SE5_560|78.62
SE5_561|27.15
SE5_562|13.44
SE5_563|11.34
SE5_564|92.74
SE5_565|24.59
SE5_566|69.2
SE5_567|23.52
SE5_568|53.05
SE5_569|22.83
SE5_570|81.8
SE5_571|97.02
SE5_572|13.92
SE5_573|44.95
SE5_574|77.7
SE5_575|36.44
SE5_576|89.4
SE5_577|29.93
SE5_578|66.77
SE5_579|79.69
SE5_580|77.18
SE5_581|57.05
SE5_582|43.63
SE5_583|3.36
SE5_584|47.97
SE5_585|28.9
SE5_586|25.12
SE5_587|44.85
SE5_588|65.5
SE5_589|32.34
SE5_590|78.08
SE5_591|26.65
SE5_592|78.79
SE5_593|13.62
SE5_594|1.69
SE5_595|82.5
SE5_596|48.55
SE5_597|31.91
SE5_598|48.83
SE5_599|67.42
SE5_600|51.58
SE5_601|14.5
SE5_602|72.67
SE5_603|82.81
SE5_604|37.94
SE5_605|65.8
SE5_606|69.06
SE5_607|81.24
SE5_608|63.95
SE5_609|28.6
SE5_610|67.15
SE5_611|57.06
SE5_612|108.87
SE5_613|8.06
SE5_614|71.27
SE5_615|69.63
SE5_616|34.22
SE5_617|34.18
SE5_618|106.02
SE5_619|89.72
SE5_620|51.9
SE5_621|87.24
SE5_622|52.9
SE5_623|47.54
SE5_624|89.81
SE5_625|84.88
SE5_626|30.15
SE5_627|2.89
SE5_628|72.32
SE5_629|112.75
SE5_630|18.59
SE5_631|16.72
SE5_632|19.56
SE5_633|63.1
SE5_634|78.59
SE5_635|32.23
SE5_636|85.7
SE5_637|81.81
SE5_638|76.61
SE5_639|7.51
SE5_640|29.56
SE5_641|5.65
SE5_642|65.48
SE5_643|63.18
SE5_644|34.5
SE5_645|57.58
SE5_646|6.27
SE5_647|113.13
SE5_648|90.62
SE5_649|49.99
SE5_650|6.63
SE5_651|19.95
SE5_652|27.27
SE5_653|18.89
SE5_654|39.38
SE5_655|62.05
SE5_656|4.14
SE5_657|52.65
SE5_658|16.24
SE5_659|57.68
SE5_660|42.86
SE5_661|26.03
SE5_662|65.63
SE5_663|24.92
SE5_664|99.88
SE5_665|11.35
SE5_666|63.87
SE5_667|57.31
SE5_668|11.18
SE5_669|16.85
SE5_670|7.62
SE5_671|103.41
SE5_672|74.33
SE5_673|6.38
SE5_674|10.36
SE5_675|57.95
SE5_676|86.35
SE5_677|89.89
SE5_678|5.97
SE5_679|55.73
SE5_680|82.46
SE5_681|85.33
SE5_682|55.8
SE5_683|77.0
SE5_684|24.11
SE5_685|15.64
SE5_686|35.51
SE5_687|79.02
SE5_688|73.02
SE5_689|27.38
SE5_690|42.02
SE5_691|99.18
SE5_692|60.74
SE5_693|6.21
SE5_694|16.56
SE5_695|62.29
SE5_696|76.04
SE5_697|62.68
SE5_698|92.89
SE5_699|88.25
SE5_700|49.23
SE5_701|45.8
SE5_702|69.75
SE5_703|108.92
SE5_704|18.47
SE5_705|73.14
SE5_706|18.89
SE5_707|21.8
SE5_708|65.76
SE5_709|85.37
SE5_710|1.72
SE5_711|45.28
SE5_712|76.85
SE5_713|11.45
SE5_714|29.54
SE5_715|62.29
SE5_716|30.94
SE5_717|2.91
SE5_718|78.08
SE5_719|68.35
SE5_720|87.76
SE5_721|5.09
SE5_722|92.48
SE5_723|9.74
SE5_724|9.21
SE5_725|18.02
SE5_726|63.57
SE5_727|97.51
SE5_728|49.86
SE5_729|23.06
SE5_730|62.55
SE5_731|38.44
SE5_732|15.29
SE5_733|85.53
SE5_734|33.14
SE5_735|70.72
SE5_736|77.67
SE5_737|51.1
SE5_738|31.8
SE5_739|33.12
SE5_740|81.08
SE5_741|33.91
SE5_742|108.48
SE5_743|85.04
SE5_744|11.37
SE5_745|36.29
SE5_746|92.88
SE5_747|16.76
SE5_748|64.03
SE5_749|77.01
SE5_750|89.99
SE5_751|52.78
SE5_752|18.46
SE5_753|22.23
SE5_754|18.98
SE5_755|54.23
SE5_756|44.36
SE5_757|49.96
SE5_758|92.84
SE5_759|78.32
SE5_760|14.45
SE5_761|47.47
SE5_762|69.32
SE5_763|51.4
SE5_764|82.05
SE5_765|11.89
SE5_766|110.52
SE5_767|13.43
SE5_768|16.66
SE5_769|29.63
SE5_770|21.58
SE5_771|31.69
SE5_772|12.79
SE5_773|54.54
SE5_774|10.78
SE5_775|86.8
SE5_776|70.99
SE5_777|8.51
SE5_778|24.84
SE5_779|89.45
SE5_780|110.63
SE5_781|14.03
SE5_782|78.26
SE5_783|47.75
SE5_784|59.41
SE5_785|7.67
SE5_786|34.33
SE5_787|11.75
SE5_788|35.36
SE5_789|71.66
SE5_790|46.83
SE5_791|66.95
SE5_792|112.64
SE5_793|75.23
SE5_794|14.96
SE5_795|18.61
SE5_796|17.57
SE5_797|12.83
SE5_798|71.55
SE5_799|70.02
SE5_800|36.63
SE5_801|49.91
SE5_802|46.78
SE5_803|80.89
SE5_804|32.26
SE5_805|48.01
SE5_806|39.82
SE5_807|29.87
SE5_808|81.42
SE5_809|93.99
SE5_810|44.04
SE5_811|72.54
SE5_812|70.78
SE5_813|46.09
SE5_814|75.37
SE5_815|24.24
SE5_816|80.21
SE5_817|86.21
SE5_818|12.93
SE5_819|30.94
SE5_820|18.32
SE5_821|55.68
SE5_822|11.13
SE5_823|65.42
SE5_824|79.2
SE5_825|52.8
SE5_826|35.62
SE5_827|56.31
SE5_828|48.5
SE5_829|65.63
SE5_830|72.7
SE5_831|88.19
SE5_832|4.21
SE5_833|7.95
SE5_834|29.74
SE5_835|37.74
SE5_836|11.19
SE5_837|65.57
SE5_838|26.03
SE5_839|90.79
SE5_840|36.36
SE5_841|67.37
SE5_842|100.2
SE5_843|83.73
SE5_844|80.11
SE5_845|49.21
SE5_846|32.68
SE5_847|67.08
SE5_848|95.37
SE5_849|13.77
SE5_850|13.6
SE5_851|31.18
SE5_852|7.97
SE5_853|30.21
SE5_854|77.3
SE5_855|19.9
SE5_856|76.21
SE5_857|60.35
SE5_858|15.22
SE5_859|6.4
SE5_860|64.84
SE5_861|53.42
SE5_862|11.39
SE5_863|35.95
SE5_864|7.17
SE5_865|76.93
SE5_866|78.94
SE5_867|81.29
SE5_868|36.02
SE5_869|31.17
SE5_870|43.41
SE5_871|96.34
SE5_872|16.02
SE5_873|61.0
SE5_874|29.67
SE5_875|45.38
SE5_876|22.52
SE5_877|88.98
SE5_878|44.18
SE5_879|63.23
SE5_880|14.49
SE5_881|20.96
SE5_882|45.31
SE5_883|11.76
SE5_884|76.81
SE5_885|26.86
SE5_886|79.36
SE5_887|96.33
SE5_888|93.5
SE5_889|38.98
SE5_890|8.16
SE5_891|7.71
SE5_892|71.25
SE5_893|63.9
SE5_894|69.26
SE5_895|69.08
SE5_896|21.4
SE5_897|30.58
SE5_898|68.26
SE5_899|62.21
SE5_900|88.29
SE5_901|52.31
SE5_902|61.25
SE5_903|51.68
SE5_904|93.89
SE5_905|76.94
SE5_906|57.08
SE5_907|60.52
SE5_908|74.36
SE5_909|33.07
SE5_910|54.14
SE5_911|85.14
SE5_912|23.93
SE5_913|51.66
SE5_914|14.32
SE5_915|8.01
SE5_916|72.84
SE5_917|20.33
SE5_918|57.91
SE5_919|45.57
SE5_920|40.57
SE5_921|26.83
SE5_922|19.21
SE5_923|4.52
SE5_924|25.91
SE5_925|84.75
SE5_926|82.37
SE5_927|55.95
SE5_928|69.72
SE5_929|8.51
SE5_930|33.55
SE5_931|29.85
SE5_932|73.93
SE5_933|67.13
SE5_934|57.62
SE5_935|32.96
SE5_936|67.99
SE5_937|21.06
SE5_938|34.41
SE5_939|12.14
SE5_940|105.26
SE5_941|94.59
SE5_942|80.52
SE5_943|8.58
SE5_944|68.88
SE5_945|89.13
SE5_946|6.97
SE5_947|28.21
SE5_948|81.8
SE5_949|62.84
SE5_950|79.18
SE5_951|35.53
SE5_952|58.54
SE5_953|24.58
SE5_954|64.95
SE5_955|56.91
SE5_956|34.91
SE5_957|62.18
SE5_958|71.0
SE5_959|93.47
SE5_960|81.48
SE5_961|10.4
SE5_962|87.82
SE5_963|41.82
SE5_964|18.46
SE5_965|102.92
SE5_966|84.95
SE5_967|18.15
SE5_968|99.6
SE5_969|31.6
SE5_970|60.72
SE5_971|75.28
SE5_972|11.65
SE5_973|46.97
SE5_974|9.73
SE5_975|82.13
SE5_976|95.71
SE5_977|79.42
SE5_978|77.49
SE5_979|25.08
SE5_980|44.11
SE5_981|80.48
SE5_982|50.37
SE5_983|13.76
SE5_984|7.44
SE5_985|57.46
SE5_986|84.71
SE5_987|56.83
SE5_988|80.86
SE5_989|54.76
SE5_990|40.21
SE5_991|26.26
SE5_992|63.41
SE5_993|27.67
SE5_994|98.25
SE5_995|61.54
SE5_996|47.47
SE5_997|1.07
SE5_998|73.8
SE5_999|22.73
SE5_1000|50.71
SE5_1001|76.74
SE5_1002|77.52
SE5_1003|80.72
SE5_1004|65.92
SE5_1005|58.79
SE5_1006|31.79
SE5_1007|68.37
SE5_1008|91.89
SE5_1009|79.08
SE5_1010|2.9
SE5_1011|19.09
SE5_1012|9.17
SE5_1013|50.38
SE5_1014|8.69
SE5_1015|42.12
SE5_1016|12.1
SE5_1017|82.32
SE5_1018|33.94
SE5_1019|70.75
SE5_1020|41.76
SE5_1021|46.28
SE5_1022|52.25
SE5_1023|25.62
SE5_1024|23.09
SE5_1025|29.39
SE5_1026|22.96
SE5_1027|105.68
SE5_1028|108.38
SE5_1029|28.19
SE5_1030|87.15
SE5_1031|91.56
SE5_1032|30.52
SE5_1033|75.25
SE5_1034|81.23
SE5_1035|84.26
SE5_1036|11.81
SE5_1037|82.21
SE5_1038|84.34
SE5_1039|89.26
SE5_1040|28.47
SE5_1041|87.4
SE5_1042|47.88
SE5_1043|51.02
SE5_1044|37.04
SE5_1045|69.47
SE5_1046|75.04
SE5_1047|19.5
SE5_1048|19.74
SE5_1049|71.27
SE5_1050|80.16
SE5_1051|37.21
SE5_1052|74.64
SE5_1053|61.7
SE5_1054|12.34
SE5_1055|49.45
SE5_1056|29.94
SE5_1057|41.69
SE5_1058|34.33
SE5_1059|10.06
SE5_1060|44.62
SE5_1061|83.63
SE5_1062|66.5
SE5_1063|60.07
SE5_1064|92.02
SE5_1065|38.43
SE5_1066|84.69
SE5_1067|89.4
SE5_1068|7.92
SE5_1069|1.38
SE5_1070|53.81
SE5_1071|14.4
SE5_1072|41.87
SE5_1073|70.94
SE5_1074|73.26
SE5_1075|81.91
SE5_1076|49.36
SE5_1077|25.53
SE5_1078|54.99
SE5_1079|36.94
SE5_1080|4.07
SE5_1081|77.3
SE5_1082|96.56
SE5_1083|27.88
SE5_1084|8.79
SE5_1085|96.23
SE5_1086|13.79
SE5_1087|34.5
SE5_1088|30.0
SE5_1089|82.83
SE5_1090|94.0
SE5_1091|91.83
SE5_1092|77.52
SE5_1093|32.95
SE5_1094|14.94
SE5_1095|30.68
SE5_1096|11.29
SE5_1097|40.67
SE5_1098|31.91
SE5_1099|83.73
SE5_1100|27.33
SE5_1101|54.92
SE5_1102|11.06
SE5_1103|15.08
SE5_1104|94.6
SE5_1105|33.28
SE5_1106|43.23
SE5_1107|5.53
SE5_1108|38.86
SE5_1109|25.31
SE5_1110|49.46
SE5_1111|86.47
SE5_1112|53.6
SE5_1113|35.52
SE5_1114|64.27
SE5_1115|42.49
SE5_1116|22.91
SE5_1117|68.59
SE5_1118|57.59
SE5_1119|60.99
SE5_1120|53.03
SE5_1121|51.95
SE5_1122|15.4
SE5_1123|53.58
SE5_1124|109.97
SE5_1125|4.8
SE5_1126|77.18
SE5_1127|56.09
SE5_1128|11.26
SE5_1129|17.51
SE5_1130|60.75
SE5_1131|94.56
SE5_1132|110.34
SE5_1133|84.65
SE5_1134|21.16
SE5_1135|48.37
SE5_1136|7.65
SE5_1137|71.64
SE5_1138|73.04
SE5_1139|21.71
SE5_1140|54.56
SE5_1141|28.22
SE5_1142|20.64
SE5_1143|13.13
SE5_1144|35.93
SE5_1145|85.37
SE5_1146|95.6
SE5_1147|81.36
SE5_1148|65.22
SE5_1149|40.35
SE5_1150|50.11
SE5_1151|22.66
SE5_1152|1.39
SE5_1153|52.74
SE5_1154|40.2
SE5_1155|6.11
SE5_1156|42.11
SE5_1157|35.87
SE5_1158|33.47
SE5_1159|26.41
SE5_1160|30.05
SE5_1161|59.69
SE5_1162|38.46
SE5_1163|68.67
SE5_1164|56.71
SE5_1165|88.2
SE5_1166|73.55
SE5_1167|53.47
SE5_1168|91.72
SE5_1169|53.62
SE5_1170|82.03
SE5_1171|61.92
SE5_1172|34.48
SE5_1173|61.18
SE5_1174|43.11
SE5_1175|4.6
SE5_1176|14.49
SE5_1177|65.02
SE5_1178|6.03
SE5_1179|34.87
SE5_1180|11.31
SE5_1181|91.48
SE5_1182|72.41
SE5_1183|24.81
SE5_1184|31.84
SE5_1185|95.0
SE5_1186|50.12
SE5_1187|14.73
SE5_1188|27.01
SE5_1189|112.77
SE5_1190|36.21
SE5_1191|47.64
SE5_1192|39.27
SE5_1193|66.87
SE5_1194|59.46
SE5_1195|52.2
SE5_1196|32.41
SE5_1197|40.17
SE5_1198|54.77
SE5_1199|21.02
SE5_1200|22.32
SE5_1201|14.71
SE5_1202|23.01
SE5_1203|69.42
SE5_1204|7.12
SE5_1205|11.7
SE5_1206|55.94
SE5_1207|20.31
SE5_1208|94.23
SE5_1209|9.76
SE5_1210|59.68
SE5_1211|23.64
SE5_1212|87.29
SE5_1213|84.35
SE5_1214|67.51
SE5_1215|87.84
SE5_1216|45.28
SE5_1217|35.96
SE5_1218|37.58
SE5_1219|42.42
SE5_1220|37.05
SE5_1221|73.22
SE5_1222|14.61
SE5_1223|68.95
SE5_1224|21.95
SE5_1225|29.62
SE5_1226|64.98
SE5_1227|22.9
SE5_1228|43.14
SE5_1229|92.48
SE5_1230|10.47
SE5_1231|36.98
SE5_1232|38.82
SE5_1233|72.53
SE5_1234|66.84
SE5_1235|13.91
SE5_1236|86.79
SE5_1237|17.31
SE5_1238|31.87
SE5_1239|13.54
SE5_1240|82.01
SE5_1241|75.4
SE5_1242|61.74
SE5_1243|74.55
SE5_1244|51.08
SE5_1245|27.35
SE5_1246|63.2
SE5_1247|79.69
SE5_1248|59.31
SE5_1249|68.39
SE5_1250|8.54
SE5_1251|39.86
SE5_1252|81.01
SE5_1253|41.56
SE5_1254|74.51
SE5_1255|93.84
SE5_1256|22.64
SE5_1257|66.26
SE5_1258|27.85
SE5_1259|47.43
SE5_1260|43.25
SE5_1261|33.81
SE5_1262|49.6
SE5_1263|88.91
SE5_1264|6.58
SE5_1265|65.5
SE5_1266|14.93
SE5_1267|2.42
SE5_1268|60.21
SE5_1269|101.57
SE5_1270|4.35
SE5_1271|46.36
SE5_1272|81.16
SE5_1273|44.46
SE5_1274|26.75
SE5_1275|86.5
SE5_1276|82.92
SE5_1277|17.02
SE5_1278|70.33
SE5_1279|30.81
SE5_1280|44.85
SE5_1281|12.3
SE5_1282|69.32
SE5_1283|101.8
SE5_1284|70.75
SE5_1285|45.81
SE5_1286|29.68
SE5_1287|71.51
SE5_1288|49.58
SE5_1289|94.27
SE5_1290|75.32
SE5_1291|62.59
SE5_1292|26.8
SE5_1293|54.32
SE5_1294|40.82
SE5_1295|74.81
SE5_1296|27.82
SE5_1297|36.51
SE5_1298|79.75
SE5_1299|97.52
SE5_1300|44.46
SE5_1301|58.52
SE5_1302|34.84
SE5_1303|24.45
SE5_1304|38.37
SE5_1305|25.11
SE5_1306|77.59
SE5_1307|15.9
SE5_1308|13.24
SE5_1309|23.99
SE5_1310|84.31
SE5_1311|95.89
SE5_1312|7.56
SE5_1313|81.46
SE5_1314|38.92
SE5_1315|82.88
SE5_1316|35.05
SE5_1317|31.15
SE5_1318|4.88
SE5_1319|82.64
SE5_1320|91.25
SE5_1321|5.89
SE5_1322|54.52
SE5_1323|71.75
SE5_1324|23.26
SE5_1325|76.57
SE5_1326|75.63
SE5_1327|15.77
SE5_1328|59.28
SE5_1329|18.52
SE5_1330|72.35
SE5_1331|100.28
SE5_1332|56.62
SE5_1333|75.99
SE5_1334|1.36
SE5_1335|100.39
SE5_1336|17.76
SE5_1337|71.24
SE5_1338|31.06
SE5_1339|98.25
SE5_1340|65.97
SE5_1341|84.57
SE5_1342|61.71
SE5_1343|48.2
SE5_1344|42.23
SE5_1345|1.52
SE5_1346|59.02
SE5_1347|34.99
SE5_1348|51.82
SE5_1349|74.54
SE5_1350|12.79
SE5_1351|86.73
SE5_1352|15.77
SE5_1353|36.47
SE5_1354|52.35
SE5_1355|18.58
SE5_1356|32.82
SE5_1357|30.68
SE5_1358|80.76
SE5_1359|41.11
SE5_1360|93.38
SE5_1361|52.85
SE5_1362|26.62
SE5_1363|28.41
SE5_1364|104.26
SE5_1365|62.29
SE5_1366|92.38
SE5_1367|52.11
SE5_1368|59.21
SE5_1369|17.25
SE5_1370|40.52
SE5_1371|13.37
SE5_1372|88.31
SE5_1373|46.27
SE5_1374|75.55
SE5_1375|22.35
SE5_1376|49.76
SE5_1377|6.04
SE5_1378|8.95
SE5_1379|28.66
SE5_1380|40.52
SE5_1381|36.41
SE5_1382|7.08
SE5_1383|5.04
SE5_1384|47.43
SE5_1385|24.92
SE5_1386|90.54
SE5_1387|21.04
SE5_1388|59.2
SE5_1389|47.0
SE5_1390|89.75
SE5_1391|86.77
SE5_1392|44.47
SE5_1393|24.48
SE5_1394|50.65
SE5_1395|4.35
SE5_1396|76.65
SE5_1397|61.07
SE5_1398|90.63
SE5_1399|20.68
SE5_1400|98.78
SE5_1401|75.38
SE5_1402|76.82
SE5_1403|83.03
SE5_1404|60.21
SE5_1405|47.19
SE5_1406|15.39
SE5_1407|93.3
SE5_1408|95.2
SE5_1409|54.59
SE5_1410|32.75
SE5_1411|32.59
SE5_1412|12.79
SE5_1413|89.92
SE5_1414|89.77
SE5_1415|61.69
SE5_1416|47.48
SE5_1417|24.63
SE5_1418|90.73
SE5_1419|53.8
SE5_1420|10.24
SE5_1421|55.76
SE5_1422|21.86
SE5_1423|42.6
SE5_1424|72.02
SE5_1425|46.46
SE5_1426|13.27
SE5_1427|55.17
SE5_1428|16.5
SE5_1429|80.76
SE5_1430|94.89
SE5_1431|82.03
SE5_1432|12.66
SE5_1433|53.16
SE5_1434|13.05
SE5_1435|92.95
SE5_1436|60.07
SE5_1437|69.57
SE5_1438|78.53
SE5_1439|27.36
SE5_1440|83.09
SE5_1441|79.5
SE5_1442|73.16
SE5_1443|82.26
SE5_1444|97.33
SE5_1445|72.9
SE5_1446|109.0
SE5_1447|108.1
SE5_1448|38.05
SE5_1449|15.16
SE5_1450|72.24
SE5_1451|2.09
SE5_1452|39.11
SE5_1453|21.83
SE5_1454|5.45
SE5_1455|9.62
SE5_1456|58.21
SE5_1457|39.56
SE5_1458|19.59
SE5_1459|68.93
SE5_1460|38.96
SE5_1461|76.43
SE5_1462|78.33
SE5_1463|46.7
SE5_1464|57.9
SE5_1465|31.75
SE5_1466|6.5
SE5_1467|28.11
SE5_1468|30.36
SE5_1469|36.01
SE5_1470|72.23
SE5_1471|30.13
SE5_1472|3.51
SE5_1473|62.01
SE5_1474|41.65
SE5_1475|56.42
SE5_1476|24.43
SE5_1477|97.16
SE5_1478|90.71
SE5_1479|93.18
SE5_1480|140.89
SE5_1481|81.25
SE5_1482|68.21
SE5_1483|80.77
SE5_1484|19.63
SE5_1485|48.72
SE5_1486|17.75
SE5_1487|27.56
SE5_1488|89.67
SE5_1489|29.99
SE5_1490|52.68
SE5_1491|1.11
SE5_1492|25.08
SE5_1493|116.91
SE5_1494|84.9
SE5_1495|33.79
SE5_1496|38.33
SE5_1497|100.28
SE5_1498|79.87
SE5_1499|81.78
SE5_1500|48.24
SE5_1501|79.74
SE5_1502|19.84
SE5_1503|106.04
SE5_1504|53.59
SE5_1505|16.8
SE5_1506|25.1
SE5_1507|67.36
SE5_1508|57.33
SE5_1509|112.49
SE5_1510|61.71
SE5_1511|13.53
SE5_1512|27.73
SE5_1513|46.24
SE5_1514|28.81
SE5_1515|48.4
SE5_1516|38.15
SE5_1517|77.92
SE5_1518|32.61
SE5_1519|21.53
SE5_1520|44.72
SE5_1521|92.14
SE5_1522|91.14
SE5_1523|1.96
SE5_1524|30.04
SE5_1525|29.12
SE5_1526|99.01
SE5_1527|38.64
SE5_1528|55.62
SE5_1529|84.5
SE5_1530|23.67
SE5_1531|8.03
SE5_1532|69.72
SE5_1533|56.59
SE5_1534|25.9
SE5_1535|67.54
SE5_1536|78.63
SE5_1537|40.18
SE5_1538|4.1
SE5_1539|75.06
SE5_1540|80.89
SE5_1541|24.01
SE5_1542|44.99
SE5_1543|1.05
SE5_1544|26.83
SE5_1545|63.3
SE5_1546|84.51
SE5_1547|4.05
SE5_1548|34.48
SE5_1549|77.17
SE5_1550|68.71
SE5_1551|26.15
SE5_1552|3.33
SE5_1553|29.41
SE5_1554|102.08
SE5_1555|113.46
SE5_1556|7.44
SE5_1557|35.33
SE5_1558|75.6
SE5_1559|91.94
SE5_1560|30.23
SE5_1561|4.01
SE5_1562|4.25
SE5_1563|6.88
SE5_1564|24.21
SE5_1565|39.01
SE5_1566|10.31
SE5_1567|38.2
SE5_1568|84.38
SE5_1569|71.06
SE5_1570|95.56
SE5_1571|20.98
SE5_1572|31.91
SE5_1573|26.16
SE5_1574|4.85
SE5_1575|6.82
SE5_1576|86.79
SE5_1577|87.12
SE5_1578|74.64
SE5_1579|42.89
SE5_1580|86.32
SE5_1581|74.81
SE5_1582|76.9
SE5_1583|107.28
SE5_1584|85.75
SE5_1585|19.23
SE5_1586|91.61
SE5_1587|71.79
SE5_1588|87.12
SE5_1589|65.51
SE5_1590|71.48
SE5_1591|76.43
SE5_1592|99.38
SE5_1593|63.97
SE5_1594|62.54
SE5_1595|82.6
SE5_1596|43.89
SE5_1597|67.48
SE5_1598|72.78
SE5_1599|45.21
SE5_1600|31.92
SE5_1601|29.97
SE5_1602|52.24
SE5_1603|91.09
SE5_1604|44.24
SE5_1605|45.3
SE5_1606|19.22
SE5_1607|57.06
SE5_1608|20.32
SE5_1609|36.27
SE5_1610|22.12
SE5_1611|37.63
SE5_1612|64.19
SE5_1613|21.22
SE5_1614|84.94
SE5_1615|25.91
SE5_1616|65.78
SE5_1617|57.9
SE5_1618|61.64
SE5_1619|119.42
SE5_1620|80.85
SE5_1621|9.51
SE5_1622|8.38
SE5_1623|53.07
SE5_1624|58.63
SE5_1625|13.29
SE5_1626|85.71
SE5_1627|5.06
SE5_1628|51.35
SE5_1629|1.93
SE5_1630|46.7
SE5_1631|81.17
SE5_1632|52.06
SE5_1633|111.79
SE5_1634|50.1
SE5_1635|5.17
SE5_1636|3.27
SE5_1637|67.02
SE5_1638|105.72
SE5_1639|20.49
SE5_1640|48.42
SE5_1641|93.87
SE5_1642|41.1
SE5_1643|114.54
SE5_1644|53.71
SE5_1645|77.21
SE5_1646|61.28
SE5_1647|47.4
SE5_1648|59.42
SE5_1649|30.26
SE5_1650|15.82
SE5_1651|59.88
SE5_1652|52.0
SE5_1653|78.06
SE5_1654|74.36
SE5_1655|21.33
SE5_1656|83.15
SE5_1657|35.09
SE5_1658|48.48
SE5_1659|54.19
SE5_1660|30.38
SE5_1661|48.25
SE5_1662|84.34
SE5_1663|59.18
SE5_1664|33.97
SE5_1665|64.96
SE5_1666|83.45
SE5_1667|76.45
SE5_1668|32.1
SE5_1669|98.21
SE5_1670|37.19
SE5_1671|17.92
SE5_1672|75.23
SE5_1673|1.24
SE5_1674|74.74
SE5_1675|51.13
SE5_1676|99.15
SE5_1677|99.04
SE5_1678|77.71
SE5_1679|98.08
SE5_1680|89.12
SE5_1681|82.37
SE5_1682|59.29
SE5_1683|72.62
SE5_1684|18.27
SE5_1685|43.4
SE5_1686|53.34
SE5_1687|62.6
SE5_1688|32.65
SE5_1689|11.58
SE5_1690|65.78
SE5_1691|55.19
SE5_1692|20.47
SE5_1693|66.69
SE5_1694|18.32
SE5_1695|97.81
SE5_1696|49.25
SE5_1697|54.68
SE5_1698|44.41
SE5_1699|88.75
SE5_1700|56.01
SE5_1701|63.53
SE5_1702|49.54
SE5_1703|87.64
SE5_1704|106.61
SE5_1705|87.58
SE5_1706|77.13
SE5_1707|35.01
SE5_1708|14.28
SE5_1709|2.89
SE5_1710|3.88
SE5_1711|56.97
SE5_1712|18.94
SE5_1713|87.18
SE5_1714|15.6
SE5_1715|17.41
SE5_1716|78.71
SE5_1717|70.42
SE5_1718|83.17
SE5_1719|65.42
SE5_1720|84.57
SE5_1721|66.61
SE5_1722|27.48
SE5_1723|46.7
SE5_1724|7.83
SE5_1725|13.74
SE5_1726|40.48
SE5_1727|71.53
SE5_1728|12.26
SE5_1729|35.2
SE5_1730|43.37
SE5_1731|16.31
SE5_1732|30.54
SE5_1733|38.58
SE5_1734|59.51
SE5_1735|5.81
SE5_1736|58.08
SE5_1737|24.99
SE5_1738|58.68
SE5_1739|3.17
SE5_1740|1.71
SE5_1741|85.44
SE5_1742|70.1
SE5_1743|16.62
SE5_1744|96.5
SE5_1745|22.54
SE5_1746|33.56
SE5_1747|24.3
SE5_1748|13.69
SE5_1749|42.64
SE5_1750|1.78
SE5_1751|80.25
SE5_1752|47.36
SE5_1753|65.69
SE5_1754|81.31
SE5_1755|13.45
SE5_1756|1.97
SE5_1757|13.41
SE5_1758|97.2
SE5_1759|59.91
SE5_1760|59.79
SE5_1761|17.57
SE5_1762|92.39
SE5_1763|43.12
SE5_1764|82.37
SE5_1765|35.1
SE5_1766|12.35
SE5_1767|29.08
SE5_1768|36.63
SE5_1769|66.12
SE5_1770|35.71
SE5_1771|77.04
SE5_1772|9.96
SE5_1773|39.26
SE5_1774|82.09
SE5_1775|70.06
SE5_1776|32.62
SE5_1777|1.63
SE5_1778|10.36
SE5_1779|68.37
SE5_1780|43.69
SE5_1781|42.98
SE5_1782|92.85
SE5_1783|22.07
SE5_1784|67.29
SE5_1785|26.35
SE5_1786|80.38
SE5_1787|12.6
SE5_1788|44.94
SE5_1789|24.38
SE5_1790|19.22
SE5_1791|97.45
SE5_1792|42.42
SE5_1793|44.53
SE5_1794|32.94
SE5_1795|54.21
SE5_1796|1.27
SE5_1797|81.86
SE5_1798|79.27
SE5_1799|19.28
SE5_1800|67.19
SE5_1801|53.14
SE5_1802|60.86
SE5_1803|22.37
SE5_1804|64.15
SE5_1805|77.74
SE5_1806|62.41
SE5_1807|28.08
SE5_1808|40.34
SE5_1809|29.99
SE5_1810|90.75
SE5_1811|51.44
SE5_1812|80.91
SE5_1813|84.07
SE5_1814|18.71
SE5_1815|11.61
SE5_1816|97.31
SE5_1817|10.8
SE5_1818|94.57
SE5_1819|64.9
SE5_1820|84.71
SE5_1821|40.47
SE5_1822|54.23
SE5_1823|87.7
SE5_1824|65.74
SE5_1825|86.69
SE5_1826|71.2
SE5_1827|43.97
SE5_1828|32.94
SE5_1829|15.53
SE5_1830|68.83
SE5_1831|23.7
SE5_1832|44.71
SE5_1833|77.68
SE5_1834|6.73
SE5_1835|27.71
SE5_1836|27.37
