20150512
SE5_1 83.43
SE5_2 89.3
SE5_3 55.72
SE5_4 15.03
SE5_5 19.97
SE5_6 29.95
SE5_7 61.46
SE5_8 61.68
SE5_9 48.03
SE5_10 71.05
SE5_11 37.67
SE5_12 15.15
SE5_13 14.63
SE5_14 72.75
SE5_15 46.66
SE5_16 56.88
SE5_17 95.39
SE5_18 58.2
SE5_19 18.44
SE5_20 85.62
SE5_21 23.4
SE5_22 2.99
SE5_23 71.38
SE5_24 20.45
SE5_25 44.31
SE5_26 45.36
SE5_27 69.46
SE5_28 45.46
SE5_29 41.34
SE5_30 88.93
SE5_31 56.41
SE5_32 82.62
SE5_33 84.96
SE5_34 80.18
SE5_35 56.65
SE5_36 43.27
SE5_37 32.37
SE5_38 39.31
SE5_39 22.12
SE5_40 48.8
SE5_41 73.73
SE5_42 65.13
SE5_43 64.72
SE5_44 79.05
SE5_45 16.18
SE5_46 41.6
SE5_47 81.28
SE5_48 90.92
SE5_49 36.75
SE5_50 103.17
SE5_51 92.75
SE5_52 79.69
SE5_53 52.86
SE5_54 60.81
SE5_55 23.75
SE5_56 64.53
SE5_57 54.37
SE5_58 51.24
SE5_59 70.64
SE5_60 34.91
SE5_61 53.27
SE5_62 32.39
SE5_63 71.18
SE5_64 95.41
SE5_65 24.29
SE5_66 59.42
SE5_67 55.08
SE5_68 112.5
SE5_69 102.85
SE5_70 98.17
SE5_71 88.35
SE5_72 4.66
SE5_73 5.23
SE5_74 59.36
SE5_75 59.08
SE5_76 82.35
SE5_77 112.26
SE5_78 52.11
SE5_79 43.24
SE5_80 74.73
SE5_81 46.52
SE5_82 76.39
SE5_83 35.37
SE5_84 70.12
SE5_85 56.8
SE5_86 71.27
SE5_87 48.27
SE5_88 20.92
SE5_89 90.0
SE5_90 88.07
SE5_91 49.23
SE5_92 40.84
SE5_93 9.53
SE5_94 32.92
SE5_95 40.7
SE5_96 34.94
SE5_97 31.6
SE5_98 59.6
SE5_99 87.05
SE5_100 64.95
SE5_101 61.95
SE5_102 94.72
SE5_103 62.87
SE5_104 73.46
SE5_105 76.86
SE5_106 10.12
SE5_107 52.42
SE5_108 19.09
SE5_109 25.41
SE5_110 11.93
SE5_111 6.67
SE5_112 89.58
SE5_113 54.22
SE5_114 71.83
SE5_115 76.24
SE5_116 71.43
SE5_117 15.62
SE5_118 71.47
SE5_119 12.48
SE5_120 65.86
SE5_121 69.55
SE5_122 84.03
SE5_123 104.68
SE5_124 63.73
SE5_125 48.52
SE5_126 17.61
SE5_127 12.29
SE5_128 15.37
SE5_129 39.64
SE5_130 6.05
SE5_131 57.6
SE5_132 75.16
SE5_133 51.86
SE5_134 66.01
SE5_135 24.55
SE5_136 51.23
SE5_137 53.58
SE5_138 26.33
SE5_139 77.24
SE5_140 48.14
SE5_141 10.36
SE5_142 25.01
SE5_143 12.44
SE5_144 82.43
SE5_145 11.03
SE5_146 56.57
SE5_147 51.57
SE5_148 30.86
SE5_149 93.28
SE5_150 6.49
SE5_151 11.55
SE5_152 33.25
SE5_153 58.94
SE5_154 50.88
SE5_155 45.58
SE5_156 39.18
SE5_157 82.57
SE5_158 73.93
SE5_159 47.87
SE5_160 61.47
SE5_161 101.05
SE5_162 77.57
SE5_163 7.34
SE5_164 18.57
SE5_165 77.98
SE5_166 22.83
SE5_167 43.31
SE5_168 11.05
SE5_169 74.28
SE5_170 10.9
SE5_171 48.27
SE5_172 87.58
SE5_173 13.7
SE5_174 81.61
SE5_175 60.09
SE5_176 21.74
SE5_177 86.26
SE5_178 49.61
SE5_179 84.9
SE5_180 76.59
SE5_181 4.76
SE5_182 36.27
SE5_183 94.01
SE5_184 46.32
SE5_185 12.17
SE5_186 13.74
SE5_187 41.97
SE5_188 31.33
SE5_189 8.15
SE5_190 99.95
SE5_191 19.19
SE5_192 22.3
SE5_193 62.31
SE5_194 22.13
SE5_195 15.07
SE5_196 45.94
SE5_197 52.56
SE5_198 45.27
SE5_199 92.97
SE5_200 96.43
SE5_201 32.58
SE5_202 87.64
SE5_203 13.44
SE5_204 26.09
SE5_205 105.32
SE5_206 34.98
SE5_207 62.08
SE5_208 65.94
SE5_209 80.88
SE5_210 50.78
SE5_211 91.97
SE5_212 86.99
SE5_213 55.33
SE5_214 105.87
SE5_215 67.91
SE5_216 95.64
SE5_217 30.82
SE5_218 27.85
SE5_219 77.51
SE5_220 74.05
SE5_221 105.04
SE5_222 10.1
SE5_223 25.16
SE5_224 86.99
SE5_225 4.38
SE5_226 29.56
SE5_227 34.38
SE5_228 98.31
SE5_229 26.5
SE5_230 62.15
SE5_231 24.93
SE5_232 72.5
SE5_233 49.1
SE5_234 102.7
SE5_235 22.34
SE5_236 69.18
SE5_237 38.2
SE5_238 43.21
SE5_239 31.92
SE5_240 49.6
SE5_241 73.74
SE5_242 19.16
SE5_243 3.94
SE5_244 60.31
SE5_245 9.34
SE5_246 89.69
SE5_247 76.98
SE5_248 34.65
SE5_249 101.6
SE5_250 125.25
SE5_251 91.42
SE5_252 6.43
SE5_253 108.57
SE5_254 70.12
SE5_255 33.53
SE5_256 24.56
SE5_257 84.4
SE5_258 78.86
SE5_259 84.68
SE5_260 91.58
SE5_261 21.26
SE5_262 55.08
SE5_263 32.31
SE5_264 11.63
SE5_265 73.53
SE5_266 57.96
SE5_267 13.95
SE5_268 85.38
SE5_269 67.06
SE5_270 88.42
SE5_271 41.1
SE5_272 38.25
SE5_273 40.19
SE5_274 37.88
SE5_275 20.52
SE5_276 88.86
SE5_277 41.03
SE5_278 96.16
SE5_279 89.25
SE5_280 52.95
SE5_281 66.16
SE5_282 7.74
SE5_283 79.61
SE5_284 87.74
SE5_285 35.82
SE5_286 7.0
SE5_287 100.82
SE5_288 36.04
SE5_289 95.71
SE5_290 72.53
SE5_291 44.83
SE5_292 17.57
SE5_293 39.97
SE5_294 22.4
SE5_295 28.49
SE5_296 13.59
SE5_297 40.44
SE5_298 13.55
SE5_299 32.59
SE5_300 74.31
SE5_301 58.31
SE5_302 61.9
SE5_303 35.39
SE5_304 45.31
SE5_305 3.68
SE5_306 97.92
SE5_307 67.3
SE5_308 63.04
SE5_309 85.16
SE5_310 15.3
SE5_311 108.62
SE5_312 92.55
SE5_313 8.53
SE5_314 27.46
SE5_315 35.64
SE5_316 24.85
SE5_317 79.29
SE5_318 86.86
SE5_319 58.55
SE5_320 59.95
SE5_321 43.28
SE5_322 57.77
SE5_323 49.04
SE5_324 78.82
SE5_325 100.35
SE5_326 104.62
SE5_327 6.21
SE5_328 35.14
SE5_329 13.82
SE5_330 43.76
SE5_331 34.74
SE5_332 81.0
SE5_333 14.25
SE5_334 77.77
SE5_335 47.76
SE5_336 4.17
SE5_337 55.53
SE5_338 51.5
SE5_339 7.71
SE5_340 79.44
SE5_341 94.02
SE5_342 19.85
SE5_343 44.54
SE5_344 41.72
SE5_345 74.33
SE5_346 37.64
SE5_347 14.07
SE5_348 40.45
SE5_349 73.0
SE5_350 88.95
SE5_351 50.87
SE5_352 38.54
SE5_353 36.6
SE5_354 37.51
SE5_355 99.7
SE5_356 45.39
SE5_357 79.65
SE5_358 14.48
SE5_359 63.21
SE5_360 43.29
SE5_361 18.73
SE5_362 12.31
SE5_363 63.49
SE5_364 62.63
SE5_365 4.8
SE5_366 46.15
SE5_367 45.13
SE5_368 76.64
SE5_369 40.36
SE5_370 14.61
SE5_371 97.25
SE5_372 8.67
SE5_373 8.9
SE5_374 11.64
SE5_375 56.63
SE5_376 83.26
SE5_377 81.3
SE5_378 68.13
SE5_379 26.52
SE5_380 59.71
SE5_381 16.73
SE5_382 88.75
SE5_383 70.6
SE5_384 37.61
SE5_385 34.58
SE5_386 12.47
SE5_387 45.56
SE5_388 55.24
SE5_389 69.98
SE5_390 70.42
SE5_391 81.83
SE5_392 15.68
SE5_393 28.95
SE5_394 123.13
SE5_395 29.56
SE5_396 6.45
SE5_397 64.93
SE5_398 65.51
SE5_399 60.25
SE5_400 114.63
SE5_401 82.89
SE5_402 68.46
SE5_403 9.2
SE5_404 26.69
SE5_405 66.96
SE5_406 41.85
SE5_407 111.47
SE5_408 6.39
SE5_409 14.72
SE5_410 6.73
SE5_411 41.91
SE5_412 99.45
SE5_413 9.69
SE5_414 84.4
SE5_415 30.44
SE5_416 36.23
SE5_417 7.63
SE5_418 2.3
SE5_419 53.49
SE5_420 98.85
SE5_421 63.13
SE5_422 41.77
SE5_423 82.88
SE5_424 84.52
SE5_425 80.44
SE5_426 60.94
SE5_427 52.34
SE5_428 39.42
SE5_429 38.32
SE5_430 32.97
SE5_431 15.33
SE5_432 64.06
SE5_433 31.17
SE5_434 65.97
SE5_435 28.72
SE5_436 63.17
SE5_437 44.64
SE5_438 35.46
SE5_439 73.98
SE5_440 28.72
SE5_441 10.49
SE5_442 1.38
SE5_443 15.95
SE5_444 105.99
SE5_445 97.11
SE5_446 58.28
SE5_447 6.73
SE5_448 8.11
SE5_449 35.91
SE5_450 71.7
SE5_451 56.81
SE5_452 18.85
SE5_453 18.69
SE5_454 79.9
SE5_455 65.87
SE5_456 6.31
SE5_457 50.63
SE5_458 101.32
SE5_459 3.34
SE5_460 85.31
SE5_461 1.56
SE5_462 105.99
SE5_463 54.48
SE5_464 7.37
SE5_465 11.88
SE5_466 4.36
SE5_467 83.18
SE5_468 30.68
SE5_469 77.98
SE5_470 67.87
SE5_471 9.72
SE5_472 47.62
SE5_473 62.51
SE5_474 46.45
SE5_475 91.42
SE5_476 42.62
SE5_477 47.07
SE5_478 73.13
SE5_479 41.31
SE5_480 38.36
SE5_481 18.21
SE5_482 17.89
SE5_483 54.52
SE5_484 22.31
SE5_485 38.36
SE5_486 73.75
SE5_487 71.74
SE5_488 82.53
SE5_489 115.1
SE5_490 64.65
SE5_491 62.16
SE5_492 52.89
SE5_493 22.87
SE5_494 67.87
SE5_495 13.69
SE5_496 23.15
SE5_497 54.85
SE5_498 59.65
SE5_499 26.57
SE5_500 9.63
SE5_501 18.95
SE5_502 62.97
SE5_503 2.06
SE5_504 45.02
SE5_505 36.91
SE5_506 56.47
SE5_507 73.31
SE5_508 52.02
SE5_509 85.67
SE5_510 87.18
SE5_511 77.74
SE5_512 52.16
SE5_513 15.14
SE5_514 94.83
SE5_515 103.43
SE5_516 37.32
SE5_517 19.05
SE5_518 78.72
SE5_519 5.18
SE5_520 19.65
SE5_521 53.75
SE5_522 36.88
SE5_523 67.9
SE5_524 17.55
SE5_525 9.44
SE5_526 64.52
SE5_527 33.9
SE5_528 94.59
SE5_529 70.91
SE5_530 17.86
SE5_531 40.67
SE5_532 12.81
SE5_533 55.56
SE5_534 70.49
SE5_535 37.45
SE5_536 60.92
SE5_537 19.81
SE5_538 99.18
SE5_539 70.54
SE5_540 98.65
SE5_541 65.5
SE5_542 10.07
SE5_543 13.44
SE5_544 12.05
SE5_545 70.45
SE5_546 81.09
SE5_547 30.13
SE5_548 73.46
SE5_549 29.51
SE5_550 84.44
SE5_551 18.05
SE5_552 67.71
SE5_553 56.39
SE5_554 13.45
SE5_555 3.94
SE5_556 59.21
SE5_557 88.93
SE5_558 75.35
SE5_559 66.41
SE5_560 81.64
SE5_561 26.08
SE5_562 14.4
SE5_563 10.65
SE5_564 93.44
SE5_565 24.61
SE5_566 71.04
SE5_567 21.79
SE5_568 57.72
SE5_569 23.76
SE5_570 78.19
SE5_571 92.35
SE5_572 13.12
SE5_573 42.95
SE5_574 67.91
SE5_575 35.51
SE5_576 87.65
SE5_577 29.91
SE5_578 62.82
SE5_579 79.22
SE5_580 72.01
SE5_581 56.2
SE5_582 47.39
SE5_583 3.52
SE5_584 46.5
SE5_585 29.0
SE5_586 26.77
SE5_587 44.49
SE5_588 68.75
SE5_589 32.05
SE5_590 77.77
SE5_591 26.05
SE5_592 74.49
SE5_593 13.15
SE5_594 1.61
SE5_595 83.81
SE5_596 48.99
SE5_597 32.6
SE5_598 44.66
SE5_599 68.6
SE5_600 51.89
SE5_601 14.01
SE5_602 71.52
SE5_603 86.12
SE5_604 38.6
SE5_605 60.72
SE5_606 65.22
SE5_607 88.28
SE5_608 66.58
SE5_609 29.67
SE5_610 61.64
SE5_611 59.47
SE5_612 108.98
SE5_613 8.51
SE5_614 77.57
SE5_615 66.33
SE5_616 33.26
SE5_617 34.01
SE5_618 104.32
SE5_619 86.52
SE5_620 52.86
SE5_621 74.68
SE5_622 57.03
SE5_623 47.09
SE5_624 92.65
SE5_625 79.11
SE5_626 28.37
SE5_627 2.98
SE5_628 80.28
SE5_629 113.33
SE5_630 18.59
SE5_631 17.45
SE5_632 18.62
SE5_633 61.02
SE5_634 79.0
SE5_635 29.79
SE5_636 89.62
SE5_637 78.31
SE5_638 77.55
SE5_639 8.32
SE5_640 30.71
SE5_641 6.05
SE5_642 62.16
SE5_643 59.97
SE5_644 36.36
SE5_645 58.8
SE5_646 5.82
SE5_647 117.97
SE5_648 97.02
SE5_649 48.19
SE5_650 6.55
SE5_651 22.38
SE5_652 26.27
SE5_653 17.77
SE5_654 38.54
SE5_655 67.37
SE5_656 4.27
SE5_657 52.89
SE5_658 15.84
SE5_659 57.15
SE5_660 43.71
SE5_661 25.68
SE5_662 67.25
SE5_663 25.64
SE5_664 102.37
SE5_665 11.27
SE5_666 63.78
SE5_667 57.99
SE5_668 11.52
SE5_669 17.46
SE5_670 7.51
SE5_671 100.19
SE5_672 72.95
SE5_673 6.09
SE5_674 10.26
SE5_675 51.13
SE5_676 82.12
SE5_677 86.94
SE5_678 6.06
SE5_679 51.49
SE5_680 83.39
SE5_681 81.04
SE5_682 54.31
SE5_683 68.92
SE5_684 27.46
SE5_685 15.84
SE5_686 40.16
SE5_687 76.29
SE5_688 70.09
SE5_689 27.04
SE5_690 38.45
SE5_691 112.93
SE5_692 58.2
SE5_693 6.18
SE5_694 16.16
SE5_695 57.67
SE5_696 73.6
SE5_697 56.61
SE5_698 97.74
SE5_699 90.13
SE5_700 49.99
SE5_701 43.71
SE5_702 72.09
SE5_703 108.59
SE5_704 21.58
SE5_705 76.8
SE5_706 18.13
SE5_707 23.79
SE5_708 67.85
SE5_709 93.18
SE5_710 1.84
SE5_711 45.59
SE5_712 73.56
SE5_713 11.47
SE5_714 29.54
SE5_715 59.33
SE5_716 29.71
SE5_717 2.96
SE5_718 78.76
SE5_719 66.53
SE5_720 98.79
SE5_721 4.61
SE5_722 85.5
SE5_723 9.77
SE5_724 9.17
SE5_725 18.14
SE5_726 71.25
SE5_727 103.24
SE5_728 52.04
SE5_729 25.47
SE5_730 64.29
SE5_731 38.22
SE5_732 14.45
SE5_733 89.48
SE5_734 34.12
SE5_735 72.02
SE5_736 72.09
SE5_737 53.29
SE5_738 32.13
SE5_739 31.09
SE5_740 82.94
SE5_741 34.94
SE5_742 102.23
SE5_743 79.93
SE5_744 11.82
SE5_745 37.77
SE5_746 95.8
SE5_747 17.13
SE5_748 56.51
SE5_749 82.7
SE5_750 89.99
SE5_751 53.91
SE5_752 16.91
SE5_753 22.47
SE5_754 19.25
SE5_755 57.71
SE5_756 44.62
SE5_757 51.81
SE5_758 90.75
SE5_759 81.41
SE5_760 15.58
SE5_761 48.56
SE5_762 73.17
SE5_763 54.78
SE5_764 82.64
SE5_765 12.04
SE5_766 105.74
SE5_767 13.33
SE5_768 16.71
SE5_769 29.65
SE5_770 22.48
SE5_771 34.28
SE5_772 14.81
SE5_773 60.89
SE5_774 10.59
SE5_775 87.25
SE5_776 67.53
SE5_777 7.52
SE5_778 22.11
SE5_779 99.16
SE5_780 117.64
SE5_781 14.55
SE5_782 80.55
SE5_783 42.95
SE5_784 60.94
SE5_785 7.55
SE5_786 36.4
SE5_787 11.62
SE5_788 36.38
SE5_789 67.47
SE5_790 48.81
SE5_791 68.73
SE5_792 112.5
SE5_793 78.66
SE5_794 14.39
SE5_795 17.95
SE5_796 16.13
SE5_797 12.95
SE5_798 69.49
SE5_799 73.97
SE5_800 36.54
SE5_801 49.1
SE5_802 45.1
SE5_803 80.49
SE5_804 30.25
SE5_805 48.83
SE5_806 41.15
SE5_807 32.53
SE5_808 87.77
SE5_809 87.5
SE5_810 42.67
SE5_811 74.66
SE5_812 74.14
SE5_813 43.44
SE5_814 67.54
SE5_815 24.59
SE5_816 81.04
SE5_817 91.03
SE5_818 12.12
SE5_819 33.88
SE5_820 18.36
SE5_821 54.94
SE5_822 10.91
SE5_823 68.7
SE5_824 67.94
SE5_825 52.27
SE5_826 33.45
SE5_827 54.36
SE5_828 45.3
SE5_829 66.7
SE5_830 71.15
SE5_831 90.92
SE5_832 3.89
SE5_833 8.42
SE5_834 30.76
SE5_835 37.07
SE5_836 11.36
SE5_837 69.53
SE5_838 26.51
SE5_839 90.81
SE5_840 38.43
SE5_841 65.03
SE5_842 104.08
SE5_843 81.97
SE5_844 86.34
SE5_845 47.25
SE5_846 31.95
SE5_847 67.47
SE5_848 94.55
SE5_849 12.43
SE5_850 13.33
SE5_851 30.83
SE5_852 8.05
SE5_853 32.89
SE5_854 70.81
SE5_855 20.24
SE5_856 79.29
SE5_857 61.67
SE5_858 14.05
SE5_859 6.2
SE5_860 64.21
SE5_861 51.62
SE5_862 11.59
SE5_863 36.75
SE5_864 7.38
SE5_865 77.1
SE5_866 82.38
SE5_867 79.99
SE5_868 35.09
SE5_869 33.1
SE5_870 43.44
SE5_871 92.5
SE5_872 15.39
SE5_873 56.8
SE5_874 31.68
SE5_875 45.18
SE5_876 22.44
SE5_877 89.94
SE5_878 39.98
SE5_879 67.59
SE5_880 14.02
SE5_881 20.58
SE5_882 40.35
SE5_883 10.85
SE5_884 68.23
SE5_885 27.43
SE5_886 76.39
SE5_887 89.95
SE5_888 98.11
SE5_889 38.79
SE5_890 8.61
SE5_891 7.39
SE5_892 68.49
SE5_893 63.0
SE5_894 68.01
SE5_895 73.48
SE5_896 21.81
SE5_897 29.47
SE5_898 68.21
SE5_899 60.88
SE5_900 87.95
SE5_901 53.82
SE5_902 57.31
SE5_903 49.29
SE5_904 90.89
SE5_905 71.73
SE5_906 60.64
SE5_907 58.29
SE5_908 69.39
SE5_909 30.91
SE5_910 55.01
SE5_911 85.03
SE5_912 23.38
SE5_913 54.64
SE5_914 14.23
SE5_915 8.27
SE5_916 77.82
SE5_917 20.49
SE5_918 60.76
SE5_919 46.84
SE5_920 41.61
SE5_921 27.33
SE5_922 18.43
SE5_923 4.48
SE5_924 27.52
SE5_925 88.34
SE5_926 73.68
SE5_927 59.02
SE5_928 70.23
SE5_929 8.35
SE5_930 33.4
SE5_931 29.62
SE5_932 75.35
SE5_933 69.42
SE5_934 57.14
SE5_935 33.26
SE5_936 64.92
SE5_937 20.77
SE5_938 32.99
SE5_939 11.68
SE5_940 99.05
SE5_941 92.32
SE5_942 77.78
SE5_943 8.43
SE5_944 68.28
SE5_945 85.35
SE5_946 7.59
SE5_947 29.0
SE5_948 85.59
SE5_949 63.27
SE5_950 84.02
SE5_951 33.18
SE5_952 59.67
SE5_953 25.28
SE5_954 70.76
SE5_955 57.98
SE5_956 37.7
SE5_957 65.07
SE5_958 65.9
SE5_959 88.22
SE5_960 81.89
SE5_961 10.6
SE5_962 90.07
SE5_963 42.08
SE5_964 17.54
SE5_965 109.13
SE5_966 81.17
SE5_967 17.85
SE5_968 97.34
SE5_969 32.29
SE5_970 62.34
SE5_971 76.0
SE5_972 11.03
SE5_973 44.75
SE5_974 9.77
SE5_975 84.4
SE5_976 102.28
SE5_977 78.95
SE5_978 77.64
SE5_979 26.26
SE5_980 46.88
SE5_981 82.38
SE5_982 48.7
SE5_983 14.48
SE5_984 7.59
SE5_985 57.75
SE5_986 82.17
SE5_987 52.94
SE5_988 73.73
SE5_989 54.71
SE5_990 41.46
SE5_991 26.86
SE5_992 64.49
SE5_993 28.42
SE5_994 97.21
SE5_995 60.73
SE5_996 49.53
SE5_997 1.15
SE5_998 71.55
SE5_999 21.02
SE5_1000 53.19
SE5_1001 72.81
SE5_1002 83.28
SE5_1003 76.56
SE5_1004 71.0
SE5_1005 59.5
SE5_1006 30.81
SE5_1007 66.49
SE5_1008 93.84
SE5_1009 80.4
SE5_1010 2.82
SE5_1011 19.24
SE5_1012 9.77
SE5_1013 54.94
SE5_1014 9.4
SE5_1015 42.91
SE5_1016 11.15
SE5_1017 79.6
SE5_1018 38.23
SE5_1019 68.34
SE5_1020 38.66
SE5_1021 46.82
SE5_1022 51.82
SE5_1023 24.98
SE5_1024 24.37
SE5_1025 32.33
SE5_1026 23.56
SE5_1027 107.71
SE5_1028 109.64
SE5_1029 29.14
SE5_1030 93.14
SE5_1031 83.37
SE5_1032 31.25
SE5_1033 77.72
SE5_1034 81.14
SE5_1035 87.68
SE5_1036 11.16
SE5_1037 83.84
SE5_1038 80.51
SE5_1039 77.97
SE5_1040 29.71
SE5_1041 90.3
SE5_1042 45.47
SE5_1043 53.26
SE5_1044 34.83
SE5_1045 65.5
SE5_1046 77.73
SE5_1047 18.08
SE5_1048 19.8
SE5_1049 75.91
SE5_1050 76.5
SE5_1051 37.06
SE5_1052 74.71
SE5_1053 63.25
SE5_1054 14.5
SE5_1055 46.52
SE5_1056 30.52
SE5_1057 43.73
SE5_1058 33.56
SE5_1059 9.94
SE5_1060 47.4
SE5_1061 77.69
SE5_1062 70.23
SE5_1063 57.9
SE5_1064 95.67
SE5_1065 39.39
SE5_1066 82.9
SE5_1067 91.43
SE5_1068 7.43
SE5_1069 1.45
SE5_1070 57.65
SE5_1071 14.12
SE5_1072 41.04
SE5_1073 67.25
SE5_1074 78.17
SE5_1075 77.16
SE5_1076 46.83
SE5_1077 25.03
SE5_1078 55.28
SE5_1079 38.52
SE5_1080 4.34
SE5_1081 71.61
SE5_1082 94.89
SE5_1083 25.13
SE5_1084 9.83
SE5_1085 96.87
SE5_1086 12.97
SE5_1087 34.85
SE5_1088 29.01
SE5_1089 91.81
SE5_1090 89.15
SE5_1091 91.14
SE5_1092 80.81
SE5_1093 30.1
SE5_1094 15.19
SE5_1095 31.26
SE5_1096 11.03
SE5_1097 39.2
SE5_1098 32.92
SE5_1099 77.84
SE5_1100 27.28
SE5_1101 57.63
SE5_1102 11.26
SE5_1103 14.47
SE5_1104 90.21
SE5_1105 30.6
SE5_1106 47.02
SE5_1107 5.49
SE5_1108 38.38
SE5_1109 25.13
SE5_1110 49.7
SE5_1111 82.31
SE5_1112 53.06
SE5_1113 38.79
SE5_1114 69.01
SE5_1115 43.05
SE5_1116 23.13
SE5_1117 68.43
SE5_1118 65.7
SE5_1119 58.33
SE5_1120 56.51
SE5_1121 47.42
SE5_1122 15.28
SE5_1123 50.22
SE5_1124 116.01
SE5_1125 5.03
SE5_1126 69.17
SE5_1127 54.02
SE5_1128 10.63
SE5_1129 17.76
SE5_1130 58.54
SE5_1131 88.31
SE5_1132 114.13
SE5_1133 83.46
SE5_1134 22.61
SE5_1135 50.85
SE5_1136 7.68
SE5_1137 67.51
SE5_1138 69.33
SE5_1139 22.69
SE5_1140 61.12
SE5_1141 28.67
SE5_1142 22.25
SE5_1143 11.61
SE5_1144 34.57
SE5_1145 81.2
SE5_1146 92.52
SE5_1147 81.51
SE5_1148 61.42
SE5_1149 39.28
SE5_1150 49.84
SE5_1151 22.43
SE5_1152 1.3
SE5_1153 53.52
SE5_1154 38.89
SE5_1155 6.58
SE5_1156 43.1
SE5_1157 38.42
SE5_1158 32.2
SE5_1159 26.65
SE5_1160 28.67
SE5_1161 54.54
SE5_1163 68.63
SE5_1164 57.57
SE5_1165 85.55
SE5_1166 80.42
SE5_1167 46.83
SE5_1168 94.13
SE5_1169 47.72
SE5_1170 86.41
SE5_1171 58.55
SE5_1172 34.81
SE5_1173 58.43
SE5_1174 39.24
SE5_1175 4.37
SE5_1176 13.23
SE5_1177 64.99
SE5_1178 6.28
SE5_1179 34.86
SE5_1180 11.99
SE5_1181 92.96
SE5_1182 70.82
SE5_1183 23.83
SE5_1184 33.36
SE5_1185 93.91
SE5_1186 48.27
SE5_1187 13.78
SE5_1188 27.26
SE5_1189 118.28
SE5_1190 34.73
SE5_1191 49.17
SE5_1192 40.33
SE5_1193 56.84
SE5_1194 59.19
SE5_1195 50.6
SE5_1196 35.93
SE5_1197 40.21
SE5_1198 60.42
SE5_1199 21.45
SE5_1200 19.97
SE5_1201 14.27
SE5_1202 25.18
SE5_1203 70.11
SE5_1204 7.04
SE5_1205 11.53
SE5_1206 53.5
SE5_1207 19.48
SE5_1208 93.73
SE5_1209 9.94
SE5_1210 59.17
SE5_1211 26.5
SE5_1212 89.93
SE5_1213 80.68
SE5_1214 67.52
SE5_1215 83.68
SE5_1216 46.01
SE5_1217 34.18
SE5_1218 39.17
SE5_1219 41.41
SE5_1220 35.28
SE5_1221 71.76
SE5_1222 13.4
SE5_1223 67.02
SE5_1224 21.09
SE5_1225 30.23
SE5_1226 68.0
SE5_1227 21.25
SE5_1228 41.77
SE5_1229 96.07
SE5_1230 10.19
SE5_1231 34.44
SE5_1232 40.11
SE5_1233 62.45
SE5_1234 69.07
SE5_1235 13.44
SE5_1236 97.38
SE5_1237 17.19
SE5_1238 31.27
SE5_1239 14.13
SE5_1240 88.77
SE5_1241 69.06
SE5_1242 63.85
SE5_1243 72.6
SE5_1244 55.77
SE5_1245 28.86
SE5_1246 61.92
SE5_1247 88.56
SE5_1248 56.96
SE5_1249 64.28
SE5_1250 7.9
SE5_1251 37.31
SE5_1252 80.05
SE5_1253 44.37
SE5_1254 77.9
SE5_1255 100.07
SE5_1256 22.69
SE5_1257 63.78
SE5_1258 30.72
SE5_1259 50.18
SE5_1260 39.3
SE5_1261 35.17
SE5_1262 51.47
SE5_1263 83.71
SE5_1264 6.26
SE5_1265 66.15
SE5_1266 14.71
SE5_1267 2.51
SE5_1268 64.98
SE5_1269 102.18
SE5_1270 4.49
SE5_1271 43.83
SE5_1272 76.83
SE5_1273 45.35
SE5_1274 25.78
SE5_1275 86.0
SE5_1276 81.67
SE5_1277 16.72
SE5_1278 67.4
SE5_1279 28.09
SE5_1280 39.38
SE5_1281 13.02
SE5_1282 70.05
SE5_1283 98.92
SE5_1284 72.14
SE5_1285 47.15
SE5_1286 27.45
SE5_1287 69.35
SE5_1288 51.92
SE5_1289 84.21
SE5_1290 67.15
SE5_1291 57.63
SE5_1292 25.04
SE5_1293 63.13
SE5_1294 41.76
SE5_1295 75.76
SE5_1296 28.15
SE5_1297 36.44
SE5_1298 76.04
SE5_1299 103.97
SE5_1300 46.57
SE5_1301 55.55
SE5_1302 32.34
SE5_1303 24.71
SE5_1304 39.48
SE5_1305 23.7
SE5_1306 80.31
SE5_1307 15.32
SE5_1308 13.38
SE5_1309 23.3
SE5_1310 75.78
SE5_1311 91.39
SE5_1312 7.81
SE5_1313 82.52
SE5_1314 39.93
SE5_1315 87.36
SE5_1316 38.99
SE5_1317 30.8
SE5_1318 5.08
SE5_1319 77.92
SE5_1320 91.8
SE5_1321 5.9
SE5_1322 54.52
SE5_1323 67.87
SE5_1324 20.29
SE5_1325 81.18
SE5_1326 77.56
SE5_1327 15.06
SE5_1328 62.76
SE5_1329 19.6
SE5_1330 77.84
SE5_1331 102.39
SE5_1332 59.48
SE5_1333 76.79
SE5_1334 1.43
SE5_1335 100.56
SE5_1336 18.72
SE5_1337 70.19
SE5_1338 31.33
SE5_1339 98.1
SE5_1340 65.47
SE5_1341 81.59
SE5_1342 58.28
SE5_1343 48.52
SE5_1344 43.86
SE5_1345 1.48
SE5_1346 61.7
SE5_1347 34.97
SE5_1348 52.5
SE5_1349 75.25
SE5_1350 12.49
SE5_1351 96.27
SE5_1352 16.25
SE5_1353 34.51
SE5_1354 52.22
SE5_1355 18.81
SE5_1356 32.71
SE5_1357 33.29
SE5_1358 83.68
SE5_1359 44.04
SE5_1360 103.7
SE5_1361 49.71
SE5_1362 28.0
SE5_1363 30.38
SE5_1364 103.78
SE5_1365 60.78
SE5_1366 93.59
SE5_1367 52.76
SE5_1368 63.03
SE5_1369 17.83
SE5_1370 39.2
SE5_1371 13.02
SE5_1372 93.44
SE5_1373 46.33
SE5_1374 73.48
SE5_1375 21.27
SE5_1376 50.8
SE5_1377 6.3
SE5_1378 9.14
SE5_1379 27.91
SE5_1380 41.6
SE5_1381 38.01
SE5_1382 7.33
SE5_1383 4.75
SE5_1384 50.25
SE5_1385 25.08
SE5_1386 89.24
SE5_1387 20.02
SE5_1388 54.71
SE5_1389 46.44
SE5_1390 92.7
SE5_1391 96.75
SE5_1392 42.88
SE5_1393 23.53
SE5_1394 47.68
SE5_1395 4.19
SE5_1396 71.42
SE5_1397 62.39
SE5_1398 93.22
SE5_1399 19.39
SE5_1400 100.97
SE5_1401 74.96
SE5_1402 78.96
SE5_1403 86.36
SE5_1404 55.96
SE5_1405 46.05
SE5_1406 15.24
SE5_1407 86.51
SE5_1408 92.07
SE5_1409 51.66
SE5_1410 30.23
SE5_1411 30.98
SE5_1412 13.72
SE5_1413 91.46
SE5_1414 90.87
SE5_1415 62.75
SE5_1416 49.35
SE5_1417 23.79
SE5_1418 92.02
SE5_1419 51.39
SE5_1420 10.6
SE5_1421 53.11
SE5_1422 21.19
SE5_1423 42.32
SE5_1424 70.96
SE5_1425 51.76
SE5_1426 12.7
SE5_1427 53.17
SE5_1428 16.72
SE5_1429 77.31
SE5_1430 98.49
SE5_1431 79.3
SE5_1432 12.19
SE5_1433 47.22
SE5_1434 14.21
SE5_1435 97.56
SE5_1436 57.06
SE5_1437 62.23
SE5_1438 77.29
SE5_1439 27.18
SE5_1440 74.15
SE5_1441 75.76
SE5_1442 76.85
SE5_1443 87.52
SE5_1444 97.43
SE5_1445 73.78
SE5_1446 113.18
SE5_1447 101.7
SE5_1448 39.81
SE5_1449 15.78
SE5_1450 67.7
SE5_1451 2.35
SE5_1452 39.39
SE5_1453 22.29
SE5_1454 4.63
SE5_1455 9.51
SE5_1456 61.56
SE5_1457 38.79
SE5_1458 19.62
SE5_1459 76.3
SE5_1460 41.15
SE5_1461 81.85
SE5_1462 72.61
SE5_1463 52.17
SE5_1464 59.48
SE5_1465 32.32
SE5_1466 6.52
SE5_1467 26.4
SE5_1468 32.36
SE5_1469 34.59
SE5_1470 71.49
SE5_1471 31.3
SE5_1472 3.4
SE5_1473 57.1
SE5_1474 41.32
SE5_1475 55.85
SE5_1476 25.49
SE5_1477 100.68
SE5_1478 88.61
SE5_1479 95.33
SE5_1480 134.74
SE5_1481 84.35
SE5_1482 71.64
SE5_1483 79.07
SE5_1484 18.72
SE5_1485 53.56
SE5_1486 17.09
SE5_1487 29.63
SE5_1488 88.73
SE5_1489 27.67
SE5_1490 51.93
SE5_1491 1.06
SE5_1492 22.96
SE5_1493 117.52
SE5_1494 81.55
SE5_1495 31.98
SE5_1496 37.9
SE5_1497 109.51
SE5_1498 84.49
SE5_1499 87.63
SE5_1500 49.9
SE5_1501 80.29
SE5_1502 21.78
SE5_1503 99.93
SE5_1504 52.01
SE5_1505 17.13
SE5_1506 26.21
SE5_1507 68.43
SE5_1508 57.88
SE5_1509 110.4
SE5_1510 62.1
SE5_1511 15.3
SE5_1512 28.88
SE5_1513 45.64
SE5_1514 31.87
SE5_1515 46.66
SE5_1516 36.15
SE5_1517 81.43
SE5_1518 34.57
SE5_1519 20.48
SE5_1520 45.24
SE5_1521 92.32
SE5_1522 94.99
SE5_1523 2.15
SE5_1524 29.46
SE5_1525 26.54
SE5_1526 107.01
SE5_1527 42.6
SE5_1528 51.51
SE5_1529 91.22
SE5_1530 22.35
SE5_1531 7.85
SE5_1532 72.66
SE5_1533 52.71
SE5_1534 27.37
SE5_1535 67.57
SE5_1536 79.4
SE5_1537 38.0
SE5_1538 4.52
SE5_1539 78.84
SE5_1540 75.14
SE5_1541 25.55
SE5_1542 39.91
SE5_1543 1.09
SE5_1544 28.73
SE5_1545 65.9
SE5_1546 86.85
SE5_1547 3.96
SE5_1548 33.62
SE5_1549 80.89
SE5_1550 65.51
SE5_1551 26.0
SE5_1552 3.37
SE5_1553 26.36
SE5_1554 105.66
SE5_1555 105.11
SE5_1556 7.54
SE5_1557 36.44
SE5_1558 74.12
SE5_1559 96.77
SE5_1560 30.57
SE5_1561 3.79
SE5_1562 3.93
SE5_1563 6.1
SE5_1564 23.26
SE5_1565 40.49
SE5_1566 10.21
SE5_1567 36.11
SE5_1568 87.82
SE5_1569 68.69
SE5_1570 90.91
SE5_1571 21.23
SE5_1572 32.44
SE5_1573 27.66
SE5_1574 4.91
SE5_1575 7.27
SE5_1576 83.24
SE5_1577 85.36
SE5_1578 73.02
SE5_1579 42.71
SE5_1580 94.54
SE5_1581 72.03
SE5_1582 72.23
SE5_1583 112.99
SE5_1584 87.08
SE5_1585 18.9
SE5_1586 94.26
SE5_1587 67.99
SE5_1588 77.25
SE5_1589 62.2
SE5_1590 66.5
SE5_1591 81.05
SE5_1592 113.24
SE5_1593 67.7
SE5_1594 62.95
SE5_1595 93.28
SE5_1596 43.72
SE5_1597 65.63
SE5_1598 76.21
SE5_1599 42.8
SE5_1600 27.75
SE5_1601 30.54
SE5_1602 50.27
SE5_1603 91.22
SE5_1604 43.72
SE5_1605 48.66
SE5_1606 20.85
SE5_1607 57.98
SE5_1608 19.95
SE5_1609 35.72
SE5_1610 21.61
SE5_1611 38.49
SE5_1612 61.47
SE5_1613 20.88
SE5_1614 83.83
SE5_1615 25.4
SE5_1616 63.41
SE5_1617 55.18
SE5_1618 53.93
SE5_1619 119.4
SE5_1620 81.0
SE5_1621 9.31
SE5_1622 8.77
SE5_1623 56.49
SE5_1624 60.31
SE5_1625 12.82
SE5_1626 89.4
SE5_1627 4.84
SE5_1628 55.16
SE5_1629 1.87
SE5_1630 46.2
SE5_1631 82.71
SE5_1632 48.69
SE5_1633 112.03
SE5_1634 49.73
SE5_1635 4.66
SE5_1636 3.23
SE5_1637 65.65
SE5_1638 114.42
SE5_1639 20.7
SE5_1640 43.6
SE5_1641 84.95
SE5_1642 41.6
SE5_1643 117.65
SE5_1644 51.13
SE5_1645 84.47
SE5_1646 65.39
SE5_1647 43.31
SE5_1648 57.03
SE5_1649 32.11
SE5_1650 17.15
SE5_1651 58.31
SE5_1652 52.95
SE5_1653 77.96
SE5_1654 78.8
SE5_1655 23.21
SE5_1656 75.56
SE5_1657 33.67
SE5_1658 44.02
SE5_1659 52.95
SE5_1660 30.68
SE5_1661 50.4
SE5_1662 83.31
SE5_1663 55.85
SE5_1664 34.92
SE5_1665 65.41
SE5_1666 82.09
SE5_1667 76.78
SE5_1668 31.9
SE5_1669 98.36
SE5_1670 36.23
SE5_1671 17.14
SE5_1672 71.02
SE5_1673 1.3
SE5_1674 73.04
SE5_1675 52.94
SE5_1676 95.2
SE5_1677 91.8
SE5_1678 81.52
SE5_1679 90.6
SE5_1680 83.31
SE5_1681 79.72
SE5_1682 59.24
SE5_1683 73.27
SE5_1684 18.4
SE5_1685 43.8
SE5_1686 53.6
SE5_1687 60.77
SE5_1688 30.5
SE5_1689 12.34
SE5_1690 62.29
SE5_1691 55.64
SE5_1692 22.36
SE5_1693 68.34
SE5_1694 17.86
SE5_1695 92.77
SE5_1696 48.52
SE5_1697 52.62
SE5_1698 42.92
SE5_1699 92.98
SE5_1700 54.44
SE5_1701 66.39
SE5_1702 51.56
SE5_1703 79.45
SE5_1704 106.23
SE5_1705 82.25
SE5_1706 78.15
SE5_1707 36.75
SE5_1708 14.56
SE5_1709 2.77
SE5_1710 3.99
SE5_1711 60.55
SE5_1712 19.23
SE5_1713 88.65
SE5_1714 16.11
SE5_1715 16.67
SE5_1716 82.84
SE5_1717 64.52
SE5_1718 86.56
SE5_1719 59.12
SE5_1720 87.83
SE5_1721 67.41
SE5_1722 27.3
SE5_1723 47.2
SE5_1724 8.27
SE5_1725 14.24
SE5_1726 39.29
SE5_1727 64.52
SE5_1728 11.44
SE5_1729 35.99
SE5_1730 46.0
SE5_1731 15.06
SE5_1732 28.61
SE5_1733 45.06
SE5_1734 55.51
SE5_1735 6.09
SE5_1736 53.93
SE5_1737 23.5
SE5_1738 65.89
SE5_1739 3.16
SE5_1740 1.68
SE5_1741 86.19
SE5_1742 67.03
SE5_1743 16.26
SE5_1744 97.79
SE5_1745 21.58
SE5_1746 34.32
SE5_1747 20.92
SE5_1748 13.2
SE5_1749 40.38
SE5_1750 1.82
SE5_1751 82.28
SE5_1752 49.85
SE5_1753 66.56
SE5_1754 85.66
SE5_1755 14.01
SE5_1756 1.97
SE5_1757 12.76
SE5_1758 91.4
SE5_1759 59.62
SE5_1760 59.87
SE5_1761 17.53
SE5_1762 96.41
SE5_1763 40.18
SE5_1764 86.43
SE5_1765 35.8
SE5_1766 11.77
SE5_1767 29.71
SE5_1768 37.47
SE5_1769 68.5
SE5_1770 34.1
SE5_1771 73.26
SE5_1772 9.53
SE5_1773 39.36
SE5_1774 75.77
SE5_1775 69.48
SE5_1776 34.19
SE5_1777 1.51
SE5_1778 11.36
SE5_1779 69.02
SE5_1780 42.0
SE5_1781 40.53
SE5_1782 89.79
SE5_1783 23.27
SE5_1784 70.29
SE5_1785 26.99
SE5_1786 76.41
SE5_1787 11.64
SE5_1788 42.93
SE5_1789 23.32
SE5_1790 17.31
SE5_1791 92.6
SE5_1792 49.73
SE5_1793 46.41
SE5_1794 33.84
SE5_1795 48.85
SE5_1796 1.22
SE5_1797 78.24
SE5_1798 77.87
SE5_1799 17.85
SE5_1800 68.74
SE5_1801 58.92
SE5_1802 59.33
SE5_1803 22.1
SE5_1804 66.3
SE5_1805 79.76
SE5_1806 71.12
SE5_1807 30.17
SE5_1808 39.62
SE5_1809 31.37
SE5_1810 89.39
SE5_1811 49.76
SE5_1812 81.03
SE5_1813 74.34
SE5_1814 18.43
SE5_1815 11.15
SE5_1816 97.86
SE5_1817 10.59
SE5_1818 93.71
SE5_1819 64.94
SE5_1820 75.29
SE5_1821 39.38
SE5_1822 49.18
SE5_1823 75.13
SE5_1824 68.74
SE5_1825 87.77
SE5_1826 66.75
SE5_1827 41.93
SE5_1828 31.63
SE5_1829 15.36
SE5_1830 70.02
SE5_1831 23.57
SE5_1832 39.36
SE5_1833 80.74
SE5_1834 6.58
SE5_1835 28.52
SE5_1836 26.37
