20150331
SE1_1,32.29
SE1_2,9.96
SE1_3,44.52
SE1_4,18.64
SE1_5,16.89
SE1_6,43.1
SE1_7,52.5
SE1_8,65.87
SE1_9,18.18
SE1_10,26.02
SE1_11,68.77
SE1_12,38.36
SE1_13,105.25
SE1_14,87.22
SE1_15,85.87
SE1_16,18.86
SE1_17,6.47
SE1_18,27.29
SE1_19,84.76
SE1_20,85.59
SE1_21,44.97
SE1_22,47.97
SE1_23,18.68
SE1_24,36.67
SE1_25,24.42
SE1_26,45.35
SE1_27,19.1
SE1_28,9.29
SE1_29,67.43
SE1_30,12.78
SE1_31,89.55
SE1_32,63.84
SE1_33,88.96
SE1_34,88.38
SE1_35,16.57
SE1_36,51.67
SE1_37,55.8
SE1_38,66.6
SE1_39,100.15
SE1_40,33.94
SE1_41,77.14
SE1_42,2.08
SE1_43,56.08
SE1_44,69.45
SE1_45,37.29
SE1_46,52.8
SE1_47,5.97
SE1_48,91.88
SE1_49,86.28
SE1_50,83.36
SE1_51,14.31
SE1_52,8.93
SE1_53,30.89
SE1_54,4.72
SE1_55,28.74
SE1_56,43.55
SE1_57,103.68
SE1_58,13.93
SE1_59,93.6
SE1_60,70.05
SE1_61,20.18
SE1_62,30.69
SE1_63,53.04
SE1_64,22.13
SE1_65,25.42
SE1_66,52.58
SE1_67,77.42
SE1_68,33.74
SE1_69,86.88
SE1_70,49.52
SE1_71,73.61
SE1_72,59.06
SE1_73,76.56
SE1_74,90.06
SE1_75,34.39
SE1_76,4.75
SE1_77,63.1
SE1_78,15.88
SE1_79,42.93
SE1_80,50.49
SE1_81,27.35
SE1_82,3.09
SE1_83,90.13
SE1_84,66.48
SE1_85,9.25
SE1_86,39.01
SE1_87,14.07
SE1_88,67.6
SE1_89,12.78
SE1_90,7.7
SE1_91,67.41
SE1_92,1.68
SE1_93,88.14
SE1_94,70.36
SE1_95,40.0
SE1_96,10.5
SE1_97,70.41
SE1_98,106.57
SE1_99,80.44
SE1_100,92.64
SE1_101,92.5
SE1_102,48.05
SE1_103,44.0
SE1_104,20.4
SE1_105,82.92
SE1_106,36.64
SE1_107,69.45
SE1_108,52.99
SE1_109,7.08
SE1_110,81.35
SE1_111,23.73
SE1_112,5.1
SE1_113,62.43
SE1_114,89.15
SE1_115,89.93
SE1_116,107.7
SE1_117,21.68
SE1_118,2.88
SE1_119,9.81
SE1_120,36.74
SE1_121,50.39
SE1_122,13.08
SE1_123,38.62
SE1_124,37.76
SE1_125,31.31
SE1_126,21.67
SE1_127,84.02
SE1_128,39.59
SE1_129,70.49
SE1_130,15.73
SE1_131,21.98
SE1_132,74.25
SE1_133,38.77
SE1_134,74.82
SE1_135,46.33
SE1_136,37.01
SE1_137,93.41
SE1_138,95.45
SE1_139,52.24
SE1_140,12.65
SE1_141,71.76
SE1_142,19.91
SE1_143,69.43
SE1_144,14.02
SE1_145,77.73
SE1_146,64.84
SE1_147,23.59
SE1_148,86.21
SE1_149,19.91
SE1_150,81.66
SE1_151,5.4
SE1_152,27.7
SE1_153,4.15
SE1_154,72.54
SE1_155,2.2
SE1_156,82.99
SE1_157,28.38
SE1_158,76.39
SE1_159,75.07
SE1_160,55.24
SE1_161,85.75
SE1_162,54.93
SE1_163,9.26
SE1_164,44.95
SE1_165,54.72
SE1_166,16.93
SE1_167,46.71
SE1_168,38.15
SE1_169,26.67
SE1_170,90.31
SE1_171,13.4
SE1_172,17.73
SE1_173,34.9
SE1_174,13.03
SE1_175,62.13
SE1_176,2.99
SE1_177,69.18
SE1_178,35.07
SE1_179,70.94
SE1_180,6.29
SE1_181,39.59
SE1_182,83.15
SE1_183,2.95
SE1_184,75.84
SE1_185,74.92
SE1_186,49.78
SE1_187,60.59
SE1_188,73.63
SE1_189,6.76
SE1_190,27.08
SE1_191,82.55
SE1_192,86.62
SE1_193,28.67
SE1_194,93.69
SE1_195,65.37
SE1_196,33.03
SE1_197,107.58
SE1_198,78.36
SE1_199,50.2
SE1_200,63.86
SE1_201,35.51
SE1_202,88.07
SE1_203,50.59
SE1_204,38.33
SE1_205,1.3
SE1_206,70.28
SE1_207,62.2
SE1_208,61.43
SE1_209,98.65
SE1_210,18.68
SE1_211,75.49
SE1_212,1.14
SE1_213,12.36
SE1_214,5.25
SE1_215,13.66
SE1_216,91.63
SE1_217,33.2
SE1_218,7.65
SE1_219,49.3
SE1_220,93.7
SE1_221,60.5
SE1_222,41.97
SE1_223,44.75
SE1_224,24.44
SE1_225,78.78
SE1_226,11.96
SE1_227,1.67
SE1_228,53.19
SE1_229,28.87
SE1_230,96.31
SE1_231,28.67
SE1_232,3.0
SE1_233,59.72
SE1_234,21.54
SE1_235,116.48
SE1_236,82.77
SE1_237,75.16
SE1_238,29.58
SE1_239,46.35
SE1_240,32.19
SE1_241,6.98
SE1_242,71.75
SE1_243,74.57
SE1_244,94.97
SE1_245,94.74
SE1_246,48.94
SE1_247,90.46
SE1_248,87.75
SE1_249,13.36
SE1_250,12.86
SE1_251,45.1
SE1_252,38.26
SE1_253,102.46
SE1_254,27.08
SE1_255,71.89
SE1_256,6.57
SE1_257,61.97
SE1_258,81.56
SE1_259,61.13
SE1_260,29.32
SE1_261,33.39
SE1_262,83.32
SE1_263,82.7
SE1_264,119.85
SE1_265,26.79
SE1_266,63.13
SE1_267,18.38
SE1_268,16.68
SE1_269,45.44
SE1_270,64.2
SE1_271,17.88
SE1_272,29.58
SE1_273,94.2
SE1_274,18.01
SE1_275,98.23
SE1_276,67.34
SE1_277,85.72
SE1_278,73.33
SE1_279,35.52
SE1_280,48.32
SE1_281,41.41
SE1_282,26.66
SE1_283,73.29
SE1_284,15.33
SE1_285,59.5
SE1_286,73.44
SE1_287,41.42
SE1_288,102.72
SE1_289,42.79
SE1_290,6.27
SE1_291,26.37
SE1_292,19.86
SE1_293,99.72
SE1_294,43.53
SE1_295,75.31
SE1_296,72.08
SE1_297,59.13
SE1_298,57.47
SE1_299,2.66
SE1_300,45.22
SE1_301,36.97
SE1_302,35.66
SE1_303,75.44
SE1_304,10.11
SE1_305,85.98
SE1_306,73.33
SE1_307,13.57
SE1_308,66.78
SE1_309,42.98
SE1_310,7.11
SE1_311,66.61
SE1_312,12.06
SE1_313,37.25
SE1_314,73.68
SE1_315,58.17
SE1_316,12.71
SE1_317,88.89
SE1_318,19.77
SE1_319,48.96
SE1_320,74.09
SE1_321,57.37
SE1_322,53.03
SE1_323,41.77
SE1_324,25.27
SE1_325,99.71
SE1_326,70.28
SE1_327,8.21
SE1_328,39.84
SE1_329,87.27
SE1_330,6.65
SE1_331,44.57
SE1_332,77.49
SE1_333,1.59
SE1_334,4.4
SE1_335,30.12
SE1_336,29.17
SE1_337,112.16
SE1_338,107.44
SE1_339,64.46
SE1_340,77.25
SE1_341,90.17
SE1_342,75.07
SE1_343,67.96
SE1_344,22.89
SE1_345,19.05
SE1_346,108.9
SE1_347,100.6
SE1_348,56.09
SE1_349,21.64
SE1_350,23.37
SE1_351,82.16
SE1_352,97.6
SE1_353,29.87
SE1_354,8.92
SE1_355,76.51
SE1_356,48.37
SE1_357,46.92
SE1_358,17.74
SE1_359,33.02
SE1_360,53.5
SE1_361,37.45
SE1_362,12.67
SE1_363,77.22
SE1_364,41.97
SE1_365,87.3
SE1_366,55.19
SE1_367,69.78
SE1_368,38.92
SE1_369,33.17
SE1_370,78.44
SE1_371,14.06
SE1_372,75.66
SE1_373,52.5
SE1_374,25.0
SE1_375,78.47
SE1_376,97.67
SE1_377,44.06
SE1_378,11.48
SE1_379,91.36
SE1_380,78.43
SE1_381,5.49
SE1_382,41.86
SE1_383,18.45
SE1_384,2.21
SE1_385,6.44
SE1_386,71.93
SE1_387,37.49
SE1_388,68.26
SE1_389,18.91
SE1_390,50.27
SE1_391,14.78
SE1_392,81.43
SE1_393,78.48
SE1_394,16.55
SE1_395,41.32
SE1_396,7.0
SE1_397,43.65
SE1_398,34.33
SE1_399,92.8
SE1_400,82.7
SE1_401,63.27
SE1_402,7.32
SE1_403,43.2
SE1_404,60.98
SE1_405,40.57
SE1_406,34.69
SE1_407,33.65
SE1_408,21.15
SE1_409,78.51
SE1_410,26.37
SE1_411,4.29
SE1_412,64.3
SE1_413,42.21
SE1_414,78.13
SE1_415,57.97
SE1_416,63.64
SE1_417,1.05
SE1_418,19.1
SE1_419,77.67
SE1_420,34.09
SE1_421,0.95
SE1_422,42.97
SE1_423,65.11
SE1_424,55.16
SE1_425,62.74
SE1_426,59.48
SE1_427,23.0
SE1_428,73.3
SE1_429,45.85
SE1_430,82.85
SE1_431,57.67
SE1_432,84.81
SE1_433,75.42
SE1_434,41.48
SE1_435,48.71
SE1_436,85.23
SE1_437,59.56
SE1_438,104.98
SE1_439,79.58
SE1_440,73.84
SE1_441,56.05
SE1_442,97.4
SE1_443,89.33
SE1_444,39.83
SE1_445,101.66
SE1_446,53.51
SE1_447,40.97
SE1_448,100.52
SE1_449,3.06
SE1_450,17.23
SE1_451,3.12
SE1_452,93.71
SE1_453,21.99
SE1_454,67.11
SE1_455,92.08
SE1_456,75.31
SE1_457,1.65
SE1_458,56.17
SE1_459,64.9
SE1_460,69.71
SE1_461,43.83
SE1_462,46.52
SE1_463,66.89
SE1_464,23.05
SE1_465,26.1
SE1_466,61.01
SE1_467,56.07
SE1_468,12.17
SE1_469,77.97
SE1_470,36.44
SE1_471,26.97
SE1_472,26.91
SE1_473,71.52
SE1_474,65.36
SE1_475,50.47
SE1_476,50.45
SE1_477,78.26
SE1_478,79.77
SE1_479,100.3
SE1_480,37.08
SE1_481,17.24
SE1_482,100.0
SE1_483,23.39
SE1_484,38.93
SE1_485,58.35
SE1_486,29.76
SE1_487,13.8
SE1_488,9.98
SE1_489,4.1
SE1_490,21.96
SE1_491,60.96
SE1_492,101.97
SE1_493,57.89
SE1_494,87.28
SE1_495,57.3
SE1_496,21.62
SE1_497,2.05
SE1_498,29.81
SE1_499,22.33
SE1_500,3.24
SE1_501,54.38
SE1_502,28.06
SE1_503,59.03
SE1_504,3.1
SE1_505,4.65
SE1_506,20.04
SE1_507,41.28
SE1_508,1.76
SE1_509,82.1
SE1_510,40.02
SE1_511,88.57
SE1_512,77.94
SE1_513,11.01
SE1_514,59.14
SE1_515,29.08
SE1_516,18.02
SE1_517,15.49
SE1_518,12.03
SE1_519,55.91
SE1_520,75.82
SE1_521,72.3
SE1_522,100.19
SE1_523,97.33
SE1_524,20.37
SE1_525,63.71
SE1_526,21.24
SE1_527,49.06
SE1_528,44.41
SE1_529,11.14
SE1_530,31.76
SE1_531,62.16
SE1_532,3.3
SE1_533,48.72
SE1_534,91.45
SE1_535,90.44
SE1_536,19.8
SE1_537,86.2
SE1_538,2.08
SE1_539,73.37
SE1_540,24.46
SE1_541,61.52
SE1_542,63.01
SE1_543,3.27
SE1_544,29.63
SE1_545,42.43
SE1_546,70.83
SE1_547,69.69
SE1_548,86.29
SE1_549,66.46
SE1_550,71.89
SE1_551,75.38
SE1_552,38.28
SE1_553,68.65
SE1_554,20.02
SE1_555,38.26
SE1_556,4.9
SE1_557,102.9
SE1_558,46.04
SE1_559,42.89
SE1_560,81.57
SE1_561,55.03
SE1_562,39.63
SE1_563,94.96
SE1_564,77.21
SE1_565,127.49
SE1_566,53.98
SE1_567,89.92
SE1_568,81.24
SE1_569,69.38
SE1_570,8.68
SE1_571,70.51
SE1_572,29.02
SE1_573,99.48
SE1_574,45.98
SE1_575,80.55
SE1_576,9.85
SE1_577,72.78
SE1_578,49.24
SE1_579,10.47
SE1_580,60.51
SE1_581,92.14
SE1_582,9.33
SE1_583,84.37
SE1_584,36.1
SE1_585,63.92
SE1_586,92.75
SE1_587,57.79
SE1_588,21.46
SE1_589,88.87
SE1_590,36.9
SE1_591,55.37
SE1_592,37.71
SE1_593,35.83
SE1_594,82.2
SE1_595,31.59
SE1_596,24.82
SE1_597,63.02
SE1_598,92.49
SE1_599,60.9
SE1_600,53.38
SE1_601,25.08
SE1_602,46.6
SE1_603,42.64
SE1_604,10.12
SE1_605,32.79
SE1_606,58.68
SE1_607,98.92
SE1_608,56.51
SE1_609,11.54
SE1_610,25.49
SE1_611,67.76
SE1_612,61.9
SE1_613,6.96
SE1_614,90.15
SE1_615,78.29
SE1_616,82.77
SE1_617,79.48
SE1_618,34.01
SE1_619,38.41
SE1_620,4.26
SE1_621,33.83
SE1_622,58.46
SE1_623,22.27
SE1_624,32.95
SE1_625,75.69
SE1_626,35.96
SE1_627,61.19
SE1_628,79.31
SE1_629,27.89
SE1_630,77.88
SE1_631,14.51
SE1_632,54.71
SE1_633,56.49
SE1_634,95.2
SE1_635,57.28
SE1_636,11.54
SE1_637,65.2
SE1_638,86.63
SE1_639,58.94
SE1_640,99.48
SE1_641,73.32
SE1_642,78.84
SE1_643,62.5
SE1_644,23.42
SE1_645,44.51
SE1_646,63.47
SE1_647,19.53
SE1_648,77.85
SE1_649,49.52
SE1_650,72.19
SE1_651,32.72
SE1_652,32.59
SE1_653,47.55
SE1_654,48.34
SE1_655,21.26
SE1_656,10.25
SE1_657,70.46
SE1_658,24.61
SE1_659,21.49
SE1_660,27.68
SE1_661,31.09
SE1_662,6.69
SE1_663,94.82
SE1_664,74.46
SE1_665,78.43
SE1_666,74.42
SE1_667,76.73
SE1_668,73.88
SE1_669,10.69
SE1_670,8.93
SE1_671,12.27
SE1_672,108.81
SE1_673,63.8
SE1_674,11.35
SE1_675,39.25
SE1_676,48.79
SE1_677,21.15
SE1_678,59.36
SE1_679,19.35
SE1_680,21.28
SE1_681,27.8
SE1_682,14.78
SE1_683,1.28
SE1_684,23.68
SE1_685,36.63
SE1_686,48.1
SE1_687,65.82
SE1_688,50.97
SE1_689,52.11
SE1_690,48.21
SE1_691,29.14
SE1_692,111.25
SE1_693,80.17
SE1_694,20.27
SE1_695,32.33
SE1_696,80.04
SE1_697,2.18
SE1_698,49.29
SE1_699,50.28
SE1_700,4.2
SE1_701,56.59
SE1_702,56.76
SE1_703,47.77
SE1_704,83.98
SE1_705,12.59
SE1_706,96.71
SE1_707,77.83
SE1_708,85.04
SE1_709,11.41
SE1_710,65.38
SE1_711,27.49
SE1_712,46.0
SE1_713,7.6
SE1_714,3.0
SE1_715,35.54
SE1_716,38.91
SE1_717,87.63
SE1_718,11.67
SE1_719,10.91
SE1_720,29.73
SE1_721,67.77
SE1_722,31.58
SE1_723,68.04
SE1_724,105.17
SE1_725,4.24
SE1_726,18.24
SE1_727,68.34
SE1_728,75.71
SE1_729,51.67
SE1_730,87.23
SE1_731,3.65
SE1_732,82.24
SE1_733,8.41
SE1_734,84.25
SE1_735,77.38
SE1_736,92.22
SE1_737,18.96
SE1_738,4.94
SE1_739,32.73
SE1_740,58.29
SE1_741,21.99
SE1_742,49.14
SE1_743,87.81
SE1_744,34.13
SE1_745,27.33
SE1_746,57.02
SE1_747,48.65
SE1_748,30.27
SE1_749,85.01
SE1_750,21.09
SE1_751,23.54
SE1_752,9.8
SE1_753,2.25
SE1_754,26.31
SE1_755,25.96
SE1_756,81.68
SE1_757,8.42
SE1_758,93.05
SE1_759,90.8
SE1_760,52.06
SE1_761,86.55
SE1_762,55.03
SE1_763,86.58
SE1_764,15.69
SE1_765,79.51
SE1_766,35.8
SE1_767,47.23
SE1_768,55.79
SE1_769,28.24
SE1_770,85.38
SE1_771,36.82
SE1_772,10.82
SE1_773,83.61
SE1_774,79.42
SE1_775,28.62
SE1_776,13.04
SE1_777,47.2
SE1_778,22.88
SE1_779,23.11
SE1_780,55.85
SE1_781,100.64
SE1_782,80.16
SE1_783,28.11
SE1_784,91.87
SE1_785,26.25
SE1_786,9.74
SE1_787,67.05
SE1_788,85.65
SE1_789,14.49
SE1_790,77.45
SE1_791,8.8
SE1_792,76.94
SE1_793,82.95
SE1_794,23.98
SE1_795,86.24
SE1_796,21.99
SE1_797,22.52
SE1_798,72.55
SE1_799,86.82
SE1_800,86.36
SE1_801,4.28
SE1_802,30.12
SE1_803,27.37
SE1_804,67.12
SE1_805,71.74
SE1_806,8.76
SE1_807,88.83
SE1_808,87.18
SE1_809,19.95
SE1_810,9.82
SE1_811,4.97
SE1_812,80.05
SE1_813,20.58
SE1_814,50.11
SE1_815,18.86
SE1_816,92.21
SE1_817,20.33
SE1_818,10.75
SE1_819,20.76
SE1_820,4.27
SE1_821,73.64
SE1_822,89.52
SE1_823,94.96
SE1_824,45.9
SE1_825,24.85
SE1_826,36.23
SE1_827,91.35
SE1_828,48.97
SE1_829,41.53
SE1_830,28.2
SE1_831,54.25
SE1_832,91.1
SE1_833,6.46
SE1_834,4.38
SE1_835,32.72
SE1_836,82.76
SE1_837,92.5
SE1_838,80.19
SE1_839,33.71
SE1_840,29.41
SE1_841,31.68
SE1_842,76.16
SE1_843,90.2
SE1_844,51.46
SE1_846,27.36
SE1_847,50.28
SE1_848,9.6
SE1_849,100.98
SE1_850,14.38
SE1_851,81.46
SE1_852,80.55
SE1_853,51.19
SE1_854,44.52
SE1_855,71.37
SE1_856,70.13
SE1_857,45.48
SE1_858,85.58
SE1_859,25.22
SE1_860,80.35
SE1_861,64.15
SE1_862,102.53
SE1_863,73.61
SE1_864,53.14
SE1_865,6.53
SE1_866,44.36
SE1_867,45.57
SE1_868,68.94
SE1_869,78.25
SE1_870,73.96
SE1_871,9.24
SE1_872,38.59
SE1_873,31.48
SE1_874,7.26
SE1_875,9.89
SE1_876,13.55
SE1_877,70.71
SE1_878,16.59
SE1_879,122.73
SE1_880,2.99
SE1_881,31.11
SE1_882,57.38
SE1_883,4.89
SE1_884,68.12
SE1_885,6.92
SE1_886,80.19
SE1_887,25.88
SE1_888,20.15
SE1_889,59.93
SE1_890,33.52
SE1_891,52.58
SE1_892,83.72
SE1_893,92.84
SE1_894,48.4
SE1_895,50.51
SE1_896,90.86
SE1_897,51.94
SE1_898,82.14
SE1_899,20.08
SE1_900,60.61
SE1_901,36.21
SE1_902,77.39
SE1_903,87.63
SE1_904,75.02
SE1_905,13.05
SE1_906,17.21
SE1_907,91.0
SE1_908,7.92
SE1_909,63.28
SE1_910,31.03
SE1_911,50.76
SE1_912,63.81
SE1_913,32.78
SE1_914,71.62
SE1_915,21.19
SE1_916,97.32
SE1_917,82.89
SE1_918,88.58
SE1_919,11.8
SE1_920,59.15
SE1_921,53.47
SE1_922,99.22
SE1_923,78.87
SE1_924,48.35
SE1_925,65.41
SE1_926,25.67
SE1_927,63.1
SE1_928,15.9
SE1_929,28.55
SE1_930,60.7
SE1_931,28.9
SE1_932,31.93
SE1_933,18.79
SE1_934,16.81
SE1_935,84.89
SE1_936,42.6
SE1_937,49.12
SE1_938,60.99
SE1_939,77.23
SE1_940,34.19
SE1_941,94.58
SE1_942,89.77
SE1_943,100.14
SE1_944,84.7
SE1_945,16.86
SE1_946,63.71
SE1_947,47.68
SE1_948,80.34
SE1_949,77.08
SE1_950,44.29
SE1_951,11.97
SE1_952,104.14
SE1_953,65.45
SE1_954,28.28
SE1_955,41.39
SE1_956,90.43
SE1_957,24.26
SE1_958,35.48
SE1_959,57.38
SE1_960,16.1
SE1_961,12.15
SE1_962,73.82
SE1_963,23.5
SE1_964,11.78
SE1_965,66.06
SE1_966,19.23
SE1_967,47.11
SE1_968,55.52
SE1_969,37.34
SE1_970,21.95
SE1_971,11.7
SE1_972,41.24
SE1_973,59.9
SE1_974,1.22
SE1_975,61.94
SE1_976,65.15
SE1_977,16.13
SE1_978,68.29
SE1_979,14.92
SE1_980,59.38
SE1_981,50.55
SE1_982,68.95
SE1_983,18.66
SE1_984,69.51
SE1_985,33.53
SE1_986,27.01
SE1_987,73.99
SE1_988,60.74
SE1_989,52.72
SE1_990,25.95
SE1_991,60.34
SE1_992,54.18
SE1_993,18.61
SE1_994,54.17
SE1_995,5.64
SE1_996,29.51
SE1_997,36.59
SE1_998,5.54
SE1_999,81.01
SE1_1000,24.59
SE1_1001,89.76
SE1_1002,63.52
SE1_1003,84.01
SE1_1004,16.78
SE1_1005,11.15
SE1_1006,1.44
SE1_1007,82.29
SE1_1008,54.2
SE1_1009,10.69
SE1_1010,46.35
SE1_1011,67.16
SE1_1012,6.13
SE1_1013,56.75
SE1_1014,34.41
SE1_1015,72.37
SE1_1016,15.37
SE1_1017,90.23
SE1_1018,13.03
SE1_1019,71.06
SE1_1020,5.38
SE1_1021,52.22
SE1_1022,66.42
SE1_1023,92.12
SE1_1024,82.9
SE1_1025,93.5
SE1_1026,44.42
SE1_1027,70.11
SE1_1028,54.72
SE1_1029,15.83
SE1_1030,31.96
SE1_1031,73.43
SE1_1032,51.62
SE1_1033,55.27
SE1_1034,45.54
SE1_1035,62.36
SE1_1036,76.16
SE1_1037,47.69
SE1_1038,73.7
SE1_1039,82.31
SE1_1040,64.21
SE1_1041,86.26
SE1_1042,98.95
SE1_1043,16.16
SE1_1044,33.15
SE1_1045,83.86
SE1_1046,79.63
SE1_1047,57.85
SE1_1048,42.98
SE1_1049,81.94
SE1_1050,96.92
SE1_1051,80.95
SE1_1052,42.03
SE1_1053,87.57
SE1_1054,56.56
SE1_1055,43.37
SE1_1056,23.12
SE1_1057,63.58
SE1_1058,97.75
SE1_1059,82.49
SE1_1060,19.55
SE1_1061,31.16
SE1_1062,73.27
SE1_1063,19.27
SE1_1064,14.97
SE1_1065,24.01
SE1_1066,41.66
SE1_1067,10.82
SE1_1068,33.9
SE1_1069,52.18
SE1_1070,58.53
SE1_1071,35.79
SE1_1072,54.02
SE1_1073,105.69
SE1_1074,13.13
SE1_1075,85.58
SE1_1076,1.67
SE1_1077,45.02
SE1_1078,2.46
SE1_1079,11.15
SE1_1080,25.9
SE1_1081,83.88
SE1_1082,13.89
SE1_1083,103.23
SE1_1084,94.55
SE1_1085,87.08
SE1_1086,83.32
SE1_1087,58.04
SE1_1088,30.7
SE1_1089,59.29
SE1_1090,17.16
SE1_1091,8.41
SE1_1092,23.02
SE1_1093,68.84
SE1_1094,6.48
SE1_1095,64.0
SE1_1096,49.25
SE1_1097,33.78
SE1_1098,50.41
SE1_1099,48.78
SE1_1100,23.26
SE1_1101,26.31
SE1_1102,55.43
SE1_1103,44.51
SE1_1104,61.46
SE1_1105,100.82
SE1_1106,77.48
SE1_1107,11.65
SE1_1108,56.97
SE1_1109,25.58
SE1_1110,53.72
SE1_1111,55.2
SE1_1112,1.33
SE1_1113,29.64
SE1_1114,72.68
SE1_1115,55.24
SE1_1116,15.68
SE1_1117,75.17
SE1_1118,103.95
SE1_1119,33.6
SE1_1120,87.39
SE1_1121,98.95
SE1_1122,33.21
SE1_1123,72.29
SE1_1124,17.09
SE1_1125,41.72
SE1_1126,87.78
SE1_1127,94.14
SE1_1128,93.19
SE1_1129,70.84
SE1_1130,8.44
SE1_1131,27.29
SE1_1132,50.0
SE1_1133,1.45
SE1_1134,6.97
SE1_1135,65.12
SE1_1136,93.86
SE1_1137,72.18
SE1_1138,28.35
SE1_1139,71.35
SE1_1140,1.51
SE1_1141,80.89
SE1_1142,65.17
SE1_1143,39.34
SE1_1144,50.53
SE1_1145,53.09
SE1_1146,73.97
SE1_1147,59.87
SE1_1148,96.31
SE1_1149,49.03
SE1_1150,37.15
SE1_1151,9.23
SE1_1152,38.8
SE1_1153,4.77
SE1_1154,36.18
SE1_1155,44.08
SE1_1156,16.64
SE1_1157,28.24
SE1_1158,4.58
SE1_1159,62.95
SE1_1160,39.81
SE1_1161,88.47
SE1_1162,18.71
SE1_1163,93.64
SE1_1164,8.95
SE1_1165,17.88
SE1_1166,40.45
SE1_1167,92.63
SE1_1168,19.56
SE1_1169,69.5
SE1_1170,48.59
SE1_1171,36.54
SE1_1172,84.16
SE1_1173,61.02
SE1_1174,83.35
SE1_1175,41.08
SE1_1176,30.12
SE1_1177,51.98
SE1_1178,18.98
SE1_1179,57.83
SE1_1180,8.76
SE1_1181,41.77
SE1_1182,23.56
SE1_1183,105.65
SE1_1184,54.96
SE1_1185,25.4
SE1_1186,62.59
SE1_1187,102.8
SE1_1188,19.96
SE1_1189,28.56
SE1_1190,70.44
SE1_1191,23.97
SE1_1192,24.87
SE1_1193,32.48
SE1_1194,20.39
SE1_1195,96.02
SE1_1196,2.69
SE1_1197,65.61
SE1_1198,21.86
SE1_1199,99.81
SE1_1200,97.86
SE1_1201,81.09
SE1_1202,49.18
SE1_1203,35.28
SE1_1204,62.18
SE1_1205,63.63
SE1_1206,81.0
SE1_1207,60.2
SE1_1208,44.75
SE1_1209,12.7
SE1_1210,97.81
SE1_1211,69.52
SE1_1212,42.52
SE1_1213,112.53
SE1_1214,32.24
SE1_1215,5.01
SE1_1216,77.64
SE1_1217,46.96
SE1_1218,28.38
SE1_1219,50.63
SE1_1220,21.51
SE1_1221,22.12
SE1_1222,27.33
SE1_1223,92.94
SE1_1224,70.75
SE1_1225,26.35
SE1_1226,78.94
SE1_1227,15.51
SE1_1228,68.91
SE1_1229,87.46
SE1_1230,45.18
SE1_1231,82.98
SE1_1232,20.89
SE1_1233,26.47
SE1_1234,14.43
SE1_1235,69.33
SE1_1236,21.06
SE1_1237,29.76
SE1_1238,86.52
SE1_1239,50.27
SE1_1240,8.22
SE1_1241,88.7
SE1_1242,15.31
SE1_1243,54.97
SE1_1244,80.31
SE1_1245,8.17
SE1_1246,11.92
SE1_1247,59.26
SE1_1248,11.95
SE1_1249,25.67
SE1_1250,21.14
SE1_1251,75.42
SE1_1252,47.79
SE1_1253,5.2
SE1_1254,88.11
SE1_1255,62.02
SE1_1256,21.47
SE1_1257,87.21
SE1_1258,12.17
SE1_1259,47.26
SE1_1260,84.5
SE1_1261,86.44
SE1_1262,76.62
SE1_1263,3.96
SE1_1264,24.32
SE1_1265,10.77
SE1_1266,4.75
SE1_1267,105.5
SE1_1268,56.3
SE1_1269,39.82
SE1_1270,45.8
SE1_1271,65.92
SE1_1272,51.2
SE1_1273,9.23
SE1_1274,68.13
SE1_1275,71.9
SE1_1276,31.25
SE1_1277,89.46
SE1_1278,110.62
SE1_1279,43.76
SE1_1280,35.07
SE1_1281,49.12
SE1_1282,9.27
SE1_1283,9.09
SE1_1284,41.03
SE1_1285,65.43
SE1_1286,87.11
SE1_1287,22.34
SE1_1288,33.78
SE1_1289,48.17
SE1_1290,110.31
SE1_1291,10.06
SE1_1292,34.82
SE1_1293,20.97
SE1_1294,57.35
SE1_1295,26.09
SE1_1296,57.41
SE1_1297,33.64
SE1_1298,28.03
SE1_1299,37.17
SE1_1300,79.42
SE1_1301,67.48
SE1_1302,34.11
SE1_1303,76.96
SE1_1304,83.79
SE1_1305,19.66
SE1_1306,24.58
SE1_1307,56.53
SE1_1308,64.6
SE1_1309,31.36
SE1_1310,75.35
SE1_1311,42.99
SE1_1312,82.65
SE1_1313,76.66
SE1_1314,39.2
SE1_1315,4.21
SE1_1316,14.81
SE1_1317,49.16
SE1_1318,73.96
SE1_1319,49.75
SE1_1320,70.39
SE1_1321,24.96
SE1_1322,88.63
SE1_1323,51.33
SE1_1324,14.74
SE1_1325,3.47
SE1_1326,71.51
SE1_1327,63.96
SE1_1328,12.07
SE1_1329,91.74
SE1_1330,94.35
SE1_1331,5.97
SE1_1332,93.31
SE1_1333,92.22
SE1_1334,67.87
SE1_1335,13.38
SE1_1336,58.5
SE1_1337,49.52
SE1_1338,1.95
SE1_1339,60.31
SE1_1340,49.78
SE1_1341,43.6
